%!PS-Adobe-2.0 EPSF-1.2
%%BoundingBox: 72 72 540 720
%%Pages: 1
%%EndComments
%%Page: (1) 1
/box { % stack: _x1 _y1 x2 y2
	newpath
	2 copy moveto % x2 y2
	3 index 1 index lineto % _x1 y2
	3 index 3 index lineto % _x1 _y1
	1 index 3 index lineto % x2 _y1
	pop pop pop pop
	closepath
} def
/l { % stack: _x1 _y1 x2 y2
	newpath moveto lineto closepath stroke
} def
/Courier findfont
10 scalefont
setfont
2 setlinecap
gsave
1 1 scale
0.5 setlinewidth
stroke
0.750000 setgray
71.000000 109.277846 541.000000 720.000000 box
clip
72 109.277846 translate stroke
0.750000 setgray
0.000000 0.000000 125.560976 0.000000 l
5.979094 0.000000 5.979094 75.348837 l
5.979094 7.534884 10.327526 7.534884 l
5.979094 15.069767 10.327526 15.069767 l
5.979094 22.604651 10.327526 22.604651 l
5.979094 30.139535 10.327526 30.139535 l
5.979094 37.674419 10.327526 37.674419 l
5.979094 45.209302 10.327526 45.209302 l
5.979094 52.744186 10.327526 52.744186 l
5.979094 60.279070 10.327526 60.279070 l
5.979094 67.813953 10.327526 67.813953 l
0.000000 setgray
save
5.435540 -0.396573 moveto
0.869686 0.190355 scale
90 rotate
(0) show
restore
0.750000 setgray
0.000000 75.348837 125.560976 75.348837 l
5.979094 75.348837 5.979094 150.697674 l
5.979094 82.883721 10.327526 82.883721 l
5.979094 90.418605 10.327526 90.418605 l
5.979094 97.953488 10.327526 97.953488 l
5.979094 105.488372 10.327526 105.488372 l
5.979094 113.023256 10.327526 113.023256 l
5.979094 120.558140 10.327526 120.558140 l
5.979094 128.093023 10.327526 128.093023 l
5.979094 135.627907 10.327526 135.627907 l
5.979094 143.162791 10.327526 143.162791 l
0.000000 setgray
save
5.435540 72.969400 moveto
0.869686 0.190355 scale
90 rotate
(1 ns) show
restore
0.750000 setgray
0.000000 151.094247 125.560976 151.094247 l
5.979094 151.094247 5.979094 226.443084 l
5.979094 158.629131 10.327526 158.629131 l
5.979094 166.164015 10.327526 166.164015 l
5.979094 173.698898 10.327526 173.698898 l
5.979094 181.233782 10.327526 181.233782 l
5.979094 188.768666 10.327526 188.768666 l
5.979094 196.303550 10.327526 196.303550 l
5.979094 203.838433 10.327526 203.838433 l
5.979094 211.373317 10.327526 211.373317 l
5.979094 218.908201 10.327526 218.908201 l
0.000000 setgray
save
5.435540 148.318237 moveto
0.869686 0.190355 scale
90 rotate
(2 ns) show
restore
0.750000 setgray
0.000000 226.839657 125.560976 226.839657 l
5.979094 226.839657 5.979094 302.188494 l
5.979094 234.374541 10.327526 234.374541 l
5.979094 241.909425 10.327526 241.909425 l
5.979094 249.444308 10.327526 249.444308 l
5.979094 256.979192 10.327526 256.979192 l
5.979094 264.514076 10.327526 264.514076 l
5.979094 272.048960 10.327526 272.048960 l
5.979094 279.583843 10.327526 279.583843 l
5.979094 287.118727 10.327526 287.118727 l
5.979094 294.653611 10.327526 294.653611 l
0.000000 setgray
save
5.435540 223.667075 moveto
0.869686 0.190355 scale
90 rotate
(3 ns) show
restore
0.750000 setgray
0.000000 302.188494 125.560976 302.188494 l
5.979094 302.188494 5.979094 377.537332 l
5.979094 309.723378 10.327526 309.723378 l
5.979094 317.258262 10.327526 317.258262 l
5.979094 324.793146 10.327526 324.793146 l
5.979094 332.328029 10.327526 332.328029 l
5.979094 339.862913 10.327526 339.862913 l
5.979094 347.397797 10.327526 347.397797 l
5.979094 354.932681 10.327526 354.932681 l
5.979094 362.467564 10.327526 362.467564 l
5.979094 370.002448 10.327526 370.002448 l
0.000000 setgray
save
5.435540 299.015912 moveto
0.869686 0.190355 scale
90 rotate
(4 ns) show
restore
0.750000 setgray
0.000000 377.933905 125.560976 377.933905 l
5.979094 377.933905 5.979094 453.282742 l
5.979094 385.468788 10.327526 385.468788 l
5.979094 393.003672 10.327526 393.003672 l
5.979094 400.538556 10.327526 400.538556 l
5.979094 408.073439 10.327526 408.073439 l
5.979094 415.608323 10.327526 415.608323 l
5.979094 423.143207 10.327526 423.143207 l
5.979094 430.678091 10.327526 430.678091 l
5.979094 438.212974 10.327526 438.212974 l
5.979094 445.747858 10.327526 445.747858 l
0.000000 setgray
save
5.435540 374.364749 moveto
0.869686 0.190355 scale
90 rotate
(5 ns) show
restore
0.750000 setgray
0.000000 453.679315 125.560976 453.679315 l
5.979094 453.679315 5.979094 529.028152 l
5.979094 461.214198 10.327526 461.214198 l
5.979094 468.749082 10.327526 468.749082 l
5.979094 476.283966 10.327526 476.283966 l
5.979094 483.818849 10.327526 483.818849 l
5.979094 491.353733 10.327526 491.353733 l
5.979094 498.888617 10.327526 498.888617 l
5.979094 506.423501 10.327526 506.423501 l
5.979094 513.958384 10.327526 513.958384 l
5.979094 521.493268 10.327526 521.493268 l
0.000000 setgray
save
5.435540 449.713586 moveto
0.869686 0.190355 scale
90 rotate
(6 ns) show
restore
0.750000 setgray
0.000000 529.424725 125.560976 529.424725 l
5.979094 529.424725 5.979094 604.773562 l
5.979094 536.959608 10.327526 536.959608 l
5.979094 544.494492 10.327526 544.494492 l
5.979094 552.029376 10.327526 552.029376 l
5.979094 559.564259 10.327526 559.564259 l
5.979094 567.099143 10.327526 567.099143 l
5.979094 574.634027 10.327526 574.634027 l
5.979094 582.168911 10.327526 582.168911 l
5.979094 589.703794 10.327526 589.703794 l
5.979094 597.238678 10.327526 597.238678 l
0.000000 setgray
save
5.435540 525.062424 moveto
0.869686 0.190355 scale
90 rotate
(7 ns) show
restore
0.750000 setgray
0.000000 604.773562 125.560976 604.773562 l
5.979094 604.773562 5.979094 610.722154 l
0.000000 setgray
save
5.435540 600.411261 moveto
0.869686 0.190355 scale
90 rotate
(8 ns) show
restore
0.750000 setgray
21.742160 0.000000 21.742160 610.325581 l
0.000000 setgray
20.655052 -0.396573 16.306620 0.000000 l
16.306620 0.000000 12.501742 -0.396573 l
20.655052 0.396573 16.306620 0.000000 l
16.306620 0.000000 12.501742 0.396573 l
20.655052 0.793146 20.655052 74.555692 l
12.501742 0.793146 12.501742 74.555692 l
save
18.480836 0.793146 moveto
0.782718 0.380710 scale
90 rotate
(47) show
restore
20.655052 74.555692 12.501742 76.141983 l
20.655052 76.141983 12.501742 74.555692 l
20.655052 76.141983 20.655052 150.301102 l
12.501742 76.141983 12.501742 150.301102 l
save
18.480836 76.141983 moveto
0.782718 0.380710 scale
90 rotate
(4F) show
restore
20.655052 150.301102 12.501742 151.887393 l
20.655052 151.887393 12.501742 150.301102 l
20.655052 151.887393 20.655052 226.046512 l
12.501742 151.887393 12.501742 226.046512 l
save
18.480836 151.887393 moveto
0.782718 0.380710 scale
90 rotate
(24) show
restore
20.655052 226.046512 12.501742 227.632803 l
20.655052 227.632803 12.501742 226.046512 l
20.655052 227.632803 20.655052 301.395349 l
12.501742 227.632803 12.501742 301.395349 l
save
18.480836 227.632803 moveto
0.782718 0.380710 scale
90 rotate
(77) show
restore
20.655052 301.791922 16.306620 302.188494 l
16.306620 302.188494 12.501742 301.791922 l
20.655052 302.585067 16.306620 302.188494 l
16.306620 302.188494 12.501742 302.585067 l
20.655052 302.981640 20.655052 377.140759 l
12.501742 302.981640 12.501742 377.140759 l
save
18.480836 302.981640 moveto
0.782718 0.380710 scale
90 rotate
(7F) show
restore
20.655052 377.537332 16.306620 377.933905 l
16.306620 377.933905 12.501742 377.537332 l
20.655052 378.330477 16.306620 377.933905 l
16.306620 377.933905 12.501742 378.330477 l
20.655052 378.727050 20.655052 452.886169 l
12.501742 378.727050 12.501742 452.886169 l
save
18.480836 378.727050 moveto
0.782718 0.380710 scale
90 rotate
(47) show
restore
20.655052 452.886169 12.501742 454.472460 l
20.655052 454.472460 12.501742 452.886169 l
20.655052 454.472460 20.655052 528.631579 l
12.501742 454.472460 12.501742 528.631579 l
save
18.480836 454.472460 moveto
0.782718 0.380710 scale
90 rotate
(79) show
restore
20.655052 528.631579 12.501742 530.217870 l
20.655052 530.217870 12.501742 528.631579 l
20.655052 530.217870 20.655052 603.980416 l
12.501742 530.217870 12.501742 603.980416 l
save
18.480836 530.217870 moveto
0.782718 0.380710 scale
90 rotate
(2A) show
restore
20.655052 603.980416 12.501742 605.566707 l
20.655052 605.566707 12.501742 603.980416 l
20.655052 605.566707 20.655052 609.929009 l
12.501742 605.566707 12.501742 609.929009 l
save
18.480836 605.566707 moveto
0.782718 0.380710 scale
90 rotate
(55) show
restore
0.750000 setgray
33.156794 0.000000 33.156794 610.325581 l
0.000000 setgray
32.069686 0.000000 23.916376 0.000000 l
23.916376 0.000000 23.916376 151.094247 l
23.916376 151.094247 32.069686 151.094247 l
32.069686 151.094247 32.069686 226.839657 l
32.069686 226.839657 23.916376 226.839657 l
23.916376 226.839657 23.916376 529.424725 l
23.916376 529.424725 32.069686 529.424725 l
32.069686 529.424725 32.069686 604.773562 l
32.069686 604.773562 23.916376 604.773562 l
23.916376 604.773562 23.916376 610.722154 l
0.750000 setgray
44.571429 0.000000 44.571429 610.325581 l
0.000000 setgray
43.484321 0.000000 35.331010 0.000000 l
43.484321 0.000000 43.484321 151.094247 l
43.484321 151.094247 35.331010 151.094247 l
35.331010 151.094247 35.331010 377.933905 l
35.331010 377.933905 43.484321 377.933905 l
43.484321 377.933905 43.484321 453.679315 l
43.484321 453.679315 35.331010 453.679315 l
35.331010 453.679315 35.331010 604.773562 l
35.331010 604.773562 43.484321 604.773562 l
43.484321 604.773562 43.484321 610.722154 l
0.750000 setgray
55.986063 0.000000 55.986063 610.325581 l
0.000000 setgray
54.898955 0.000000 46.745645 0.000000 l
54.898955 0.000000 54.898955 226.839657 l
54.898955 226.839657 46.745645 226.839657 l
46.745645 226.839657 46.745645 377.933905 l
46.745645 377.933905 54.898955 377.933905 l
54.898955 377.933905 54.898955 453.679315 l
54.898955 453.679315 46.745645 453.679315 l
46.745645 453.679315 46.745645 529.424725 l
46.745645 529.424725 54.898955 529.424725 l
54.898955 529.424725 54.898955 604.773562 l
54.898955 604.773562 46.745645 604.773562 l
46.745645 604.773562 46.745645 610.722154 l
0.750000 setgray
67.400697 0.000000 67.400697 610.325581 l
0.000000 setgray
66.313589 0.000000 58.160279 0.000000 l
66.313589 0.000000 66.313589 75.348837 l
66.313589 75.348837 58.160279 75.348837 l
58.160279 75.348837 58.160279 151.094247 l
58.160279 151.094247 66.313589 151.094247 l
66.313589 151.094247 66.313589 302.188494 l
66.313589 302.188494 58.160279 302.188494 l
58.160279 302.188494 58.160279 377.933905 l
58.160279 377.933905 66.313589 377.933905 l
66.313589 377.933905 66.313589 453.679315 l
66.313589 453.679315 58.160279 453.679315 l
58.160279 453.679315 58.160279 604.773562 l
58.160279 604.773562 66.313589 604.773562 l
66.313589 604.773562 66.313589 610.722154 l
0.750000 setgray
78.815331 0.000000 78.815331 610.325581 l
0.000000 setgray
77.728223 0.000000 69.574913 0.000000 l
69.574913 0.000000 69.574913 453.679315 l
69.574913 453.679315 77.728223 453.679315 l
77.728223 453.679315 77.728223 604.773562 l
77.728223 604.773562 69.574913 604.773562 l
69.574913 604.773562 69.574913 610.722154 l
0.750000 setgray
90.229965 0.000000 90.229965 610.325581 l
0.000000 setgray
89.142857 0.000000 80.989547 0.000000 l
80.989547 0.000000 80.989547 151.094247 l
80.989547 151.094247 89.142857 151.094247 l
89.142857 151.094247 89.142857 226.839657 l
89.142857 226.839657 80.989547 226.839657 l
80.989547 226.839657 80.989547 453.679315 l
80.989547 453.679315 89.142857 453.679315 l
89.142857 453.679315 89.142857 529.424725 l
89.142857 529.424725 80.989547 529.424725 l
80.989547 529.424725 80.989547 604.773562 l
80.989547 604.773562 89.142857 604.773562 l
89.142857 604.773562 89.142857 610.722154 l
0.750000 setgray
101.644599 0.000000 101.644599 610.325581 l
0.000000 setgray
100.557491 0.000000 92.404181 0.000000 l
92.404181 0.000000 92.404181 151.094247 l
92.404181 151.094247 100.557491 151.094247 l
100.557491 151.094247 100.557491 226.839657 l
100.557491 226.839657 92.404181 226.839657 l
92.404181 226.839657 92.404181 529.424725 l
92.404181 529.424725 100.557491 529.424725 l
100.557491 529.424725 100.557491 604.773562 l
100.557491 604.773562 92.404181 604.773562 l
92.404181 604.773562 92.404181 610.722154 l
0.750000 setgray
113.059233 0.000000 113.059233 610.325581 l
0.000000 setgray
111.972125 0.000000 103.818815 0.000000 l
103.818815 0.000000 103.818815 75.348837 l
103.818815 75.348837 111.972125 75.348837 l
111.972125 75.348837 111.972125 151.094247 l
111.972125 151.094247 103.818815 151.094247 l
103.818815 151.094247 103.818815 302.188494 l
103.818815 302.188494 111.972125 302.188494 l
111.972125 302.188494 111.972125 377.933905 l
111.972125 377.933905 103.818815 377.933905 l
103.818815 377.933905 103.818815 453.679315 l
103.818815 453.679315 111.972125 453.679315 l
111.972125 453.679315 111.972125 604.773562 l
111.972125 604.773562 103.818815 604.773562 l
103.818815 604.773562 103.818815 610.722154 l
grestore
gsave
0.000000 setgray
70.000000 71.000000 542.000000 721.000000 box
stroke
0.500000 setgray
71.000000 72.000000 541.000000 720.000000 box
clip
72 72 translate
1 1 scale
0.5 setlinewidth
stroke
0.750000 setgray
10.871080 0.000000 10.871080 36.881273 l
0.000000 setgray
save
10.871080 1.189718 moveto
1.826341 0.761420 scale
90 rotate
(Time) show
restore
0.750000 setgray
11.414634 0.793146 20.655052 36.484700 box
fill
0.750000 setgray
21.742160 0.000000 21.742160 36.881273 l
0.000000 setgray
save
18.480836 1.189718 moveto
0.782718 0.507613 scale
90 rotate
(number[6:0]) show
restore
0.750000 setgray
22.829268 0.793146 32.069686 36.484700 box
fill
0.750000 setgray
33.156794 0.000000 33.156794 36.881273 l
0.000000 setgray
save
29.895470 1.189718 moveto
0.782718 0.507613 scale
90 rotate
(number[6]) show
restore
0.750000 setgray
34.243902 0.793146 43.484321 36.484700 box
fill
0.750000 setgray
44.571429 0.000000 44.571429 36.881273 l
0.000000 setgray
save
41.310105 1.189718 moveto
0.782718 0.507613 scale
90 rotate
(number[5]) show
restore
0.750000 setgray
45.658537 0.793146 54.898955 36.484700 box
fill
0.750000 setgray
55.986063 0.000000 55.986063 36.881273 l
0.000000 setgray
save
52.724739 1.189718 moveto
0.782718 0.507613 scale
90 rotate
(number[4]) show
restore
0.750000 setgray
57.073171 0.793146 66.313589 36.484700 box
fill
0.750000 setgray
67.400697 0.000000 67.400697 36.881273 l
0.000000 setgray
save
64.139373 1.189718 moveto
0.782718 0.507613 scale
90 rotate
(number[3]) show
restore
0.750000 setgray
68.487805 0.793146 77.728223 36.484700 box
fill
0.750000 setgray
78.815331 0.000000 78.815331 36.881273 l
0.000000 setgray
save
75.554007 1.189718 moveto
0.782718 0.507613 scale
90 rotate
(number[2]) show
restore
0.750000 setgray
79.902439 0.793146 89.142857 36.484700 box
fill
0.750000 setgray
90.229965 0.000000 90.229965 36.881273 l
0.000000 setgray
save
86.968641 1.189718 moveto
0.782718 0.507613 scale
90 rotate
(number[1]) show
restore
0.750000 setgray
91.317073 0.793146 100.557491 36.484700 box
fill
0.750000 setgray
101.644599 0.000000 101.644599 36.881273 l
0.000000 setgray
save
98.383275 1.189718 moveto
0.782718 0.507613 scale
90 rotate
(number[0]) show
restore
0.950000 setgray
102.731707 0.793146 111.972125 36.484700 box
fill
0.750000 setgray
113.059233 0.000000 113.059233 36.881273 l
0.000000 setgray
save
109.797909 1.189718 moveto
0.782718 0.507613 scale
90 rotate
(result) show
restore
grestore showpage
