%!PS-Adobe-2.0 EPSF-1.2
%%BoundingBox: 72 72 540 720
%%Pages: 1
%%EndComments
%%Page: (1) 1
/box { % stack: _x1 _y1 x2 y2
	newpath
	2 copy moveto % x2 y2
	3 index 1 index lineto % _x1 y2
	3 index 3 index lineto % _x1 _y1
	1 index 3 index lineto % x2 _y1
	pop pop pop pop
	closepath
} def
/l { % stack: _x1 _y1 x2 y2
	newpath moveto lineto closepath stroke
} def
/Courier findfont
10 scalefont
setfont
2 setlinecap
gsave
1 1 scale
0.5 setlinewidth
stroke
0.750000 setgray
71.000000 109.277846 541.000000 720.000000 box
clip
72 109.277846 translate stroke
0.750000 setgray
0.000000 0.000000 125.560976 0.000000 l
5.979094 0.000000 5.979094 73.762546 l
5.979094 7.138311 10.327526 7.138311 l
5.979094 14.673195 10.327526 14.673195 l
5.979094 21.811506 10.327526 21.811506 l
5.979094 29.346389 10.327526 29.346389 l
5.979094 36.881273 10.327526 36.881273 l
5.979094 44.019584 10.327526 44.019584 l
5.979094 51.554468 10.327526 51.554468 l
5.979094 59.089351 10.327526 59.089351 l
5.979094 66.227662 10.327526 66.227662 l
0.000000 setgray
save
5.435540 -0.396573 moveto
0.869686 0.190355 scale
90 rotate
(0) show
restore
0.750000 setgray
0.000000 73.762546 125.560976 73.762546 l
5.979094 73.762546 5.979094 147.525092 l
5.979094 80.900857 10.327526 80.900857 l
5.979094 88.435741 10.327526 88.435741 l
5.979094 95.574051 10.327526 95.574051 l
5.979094 103.108935 10.327526 103.108935 l
5.979094 110.643819 10.327526 110.643819 l
5.979094 117.782130 10.327526 117.782130 l
5.979094 125.317013 10.327526 125.317013 l
5.979094 132.851897 10.327526 132.851897 l
5.979094 139.990208 10.327526 139.990208 l
0.000000 setgray
save
5.435540 71.383109 moveto
0.869686 0.190355 scale
90 rotate
(1 us) show
restore
0.750000 setgray
0.000000 147.525092 125.560976 147.525092 l
5.979094 147.525092 5.979094 221.287638 l
5.979094 154.663403 10.327526 154.663403 l
5.979094 162.198286 10.327526 162.198286 l
5.979094 169.336597 10.327526 169.336597 l
5.979094 176.871481 10.327526 176.871481 l
5.979094 184.406365 10.327526 184.406365 l
5.979094 191.544676 10.327526 191.544676 l
5.979094 199.079559 10.327526 199.079559 l
5.979094 206.614443 10.327526 206.614443 l
5.979094 213.752754 10.327526 213.752754 l
0.000000 setgray
save
5.435540 145.145655 moveto
0.869686 0.190355 scale
90 rotate
(2 us) show
restore
0.750000 setgray
0.000000 221.287638 125.560976 221.287638 l
5.979094 221.287638 5.979094 295.050184 l
5.979094 228.425949 10.327526 228.425949 l
5.979094 235.960832 10.327526 235.960832 l
5.979094 243.099143 10.327526 243.099143 l
5.979094 250.634027 10.327526 250.634027 l
5.979094 258.168911 10.327526 258.168911 l
5.979094 265.307222 10.327526 265.307222 l
5.979094 272.842105 10.327526 272.842105 l
5.979094 280.376989 10.327526 280.376989 l
5.979094 287.515300 10.327526 287.515300 l
0.000000 setgray
save
5.435540 218.908201 moveto
0.869686 0.190355 scale
90 rotate
(3 us) show
restore
0.750000 setgray
0.000000 295.446756 125.560976 295.446756 l
5.979094 295.446756 5.979094 369.209302 l
5.979094 302.585067 10.327526 302.585067 l
5.979094 310.119951 10.327526 310.119951 l
5.979094 317.258262 10.327526 317.258262 l
5.979094 324.793146 10.327526 324.793146 l
5.979094 332.328029 10.327526 332.328029 l
5.979094 339.466340 10.327526 339.466340 l
5.979094 347.001224 10.327526 347.001224 l
5.979094 354.536108 10.327526 354.536108 l
5.979094 361.674419 10.327526 361.674419 l
0.000000 setgray
save
5.435540 292.670747 moveto
0.869686 0.190355 scale
90 rotate
(4 us) show
restore
0.750000 setgray
0.000000 369.209302 125.560976 369.209302 l
5.979094 369.209302 5.979094 442.971848 l
5.979094 376.347613 10.327526 376.347613 l
5.979094 383.882497 10.327526 383.882497 l
5.979094 391.020808 10.327526 391.020808 l
5.979094 398.555692 10.327526 398.555692 l
5.979094 406.090575 10.327526 406.090575 l
5.979094 413.228886 10.327526 413.228886 l
5.979094 420.763770 10.327526 420.763770 l
5.979094 428.298654 10.327526 428.298654 l
5.979094 435.436965 10.327526 435.436965 l
0.000000 setgray
save
5.435540 366.433293 moveto
0.869686 0.190355 scale
90 rotate
(5 us) show
restore
0.750000 setgray
0.000000 442.971848 125.560976 442.971848 l
5.979094 442.971848 5.979094 516.734394 l
5.979094 450.110159 10.327526 450.110159 l
5.979094 457.645043 10.327526 457.645043 l
5.979094 464.783354 10.327526 464.783354 l
5.979094 472.318237 10.327526 472.318237 l
5.979094 479.853121 10.327526 479.853121 l
5.979094 486.991432 10.327526 486.991432 l
5.979094 494.526316 10.327526 494.526316 l
5.979094 502.061200 10.327526 502.061200 l
5.979094 509.199510 10.327526 509.199510 l
0.000000 setgray
save
5.435540 440.195838 moveto
0.869686 0.190355 scale
90 rotate
(6 us) show
restore
0.750000 setgray
0.000000 516.734394 125.560976 516.734394 l
5.979094 516.734394 5.979094 590.496940 l
5.979094 523.872705 10.327526 523.872705 l
5.979094 531.407589 10.327526 531.407589 l
5.979094 538.545900 10.327526 538.545900 l
5.979094 546.080783 10.327526 546.080783 l
5.979094 553.615667 10.327526 553.615667 l
5.979094 560.753978 10.327526 560.753978 l
5.979094 568.288862 10.327526 568.288862 l
5.979094 575.823745 10.327526 575.823745 l
5.979094 582.962056 10.327526 582.962056 l
0.000000 setgray
save
5.435540 513.958384 moveto
0.869686 0.190355 scale
90 rotate
(7 us) show
restore
0.750000 setgray
0.000000 590.893513 125.560976 590.893513 l
5.979094 590.893513 5.979094 610.722154 l
5.979094 598.031824 10.327526 598.031824 l
5.979094 605.566707 10.327526 605.566707 l
0.000000 setgray
save
5.435540 587.720930 moveto
0.869686 0.190355 scale
90 rotate
(8 us) show
restore
0.750000 setgray
21.742160 0.000000 21.742160 610.325581 l
0.000000 setgray
20.655052 0.000000 12.501742 0.000000 l
12.501742 0.000000 12.501742 1.189718 l
12.501742 1.189718 20.655052 1.189718 l
20.655052 1.189718 20.655052 2.776010 l
20.655052 2.776010 12.501742 2.776010 l
12.501742 2.776010 12.501742 4.362301 l
12.501742 4.362301 20.655052 4.362301 l
20.655052 4.362301 20.655052 5.552020 l
20.655052 5.552020 12.501742 5.552020 l
12.501742 5.552020 12.501742 7.138311 l
12.501742 7.138311 20.655052 7.138311 l
20.655052 7.138311 20.655052 8.724602 l
20.655052 8.724602 12.501742 8.724602 l
12.501742 8.724602 12.501742 10.310894 l
12.501742 10.310894 20.655052 10.310894 l
20.655052 10.310894 20.655052 11.500612 l
20.655052 11.500612 12.501742 11.500612 l
12.501742 11.500612 12.501742 13.086903 l
12.501742 13.086903 20.655052 13.086903 l
20.655052 13.086903 20.655052 14.673195 l
20.655052 14.673195 12.501742 14.673195 l
12.501742 14.673195 12.501742 15.862913 l
12.501742 15.862913 20.655052 15.862913 l
20.655052 15.862913 20.655052 17.449204 l
20.655052 17.449204 12.501742 17.449204 l
12.501742 17.449204 12.501742 19.035496 l
12.501742 19.035496 20.655052 19.035496 l
20.655052 19.035496 20.655052 20.621787 l
20.655052 20.621787 12.501742 20.621787 l
12.501742 20.621787 12.501742 21.811506 l
12.501742 21.811506 20.655052 21.811506 l
20.655052 21.811506 20.655052 23.397797 l
20.655052 23.397797 12.501742 23.397797 l
12.501742 23.397797 12.501742 24.984088 l
12.501742 24.984088 20.655052 24.984088 l
20.655052 24.984088 20.655052 26.570379 l
20.655052 26.570379 12.501742 26.570379 l
12.501742 26.570379 12.501742 27.760098 l
12.501742 27.760098 20.655052 27.760098 l
20.655052 27.760098 20.655052 29.346389 l
20.655052 29.346389 12.501742 29.346389 l
12.501742 29.346389 12.501742 30.932681 l
12.501742 30.932681 20.655052 30.932681 l
20.655052 30.932681 20.655052 32.122399 l
20.655052 32.122399 12.501742 32.122399 l
12.501742 32.122399 12.501742 33.708690 l
12.501742 33.708690 20.655052 33.708690 l
20.655052 33.708690 20.655052 35.294982 l
20.655052 35.294982 12.501742 35.294982 l
12.501742 35.294982 12.501742 36.881273 l
12.501742 36.881273 20.655052 36.881273 l
20.655052 36.881273 20.655052 38.070991 l
20.655052 38.070991 12.501742 38.070991 l
12.501742 38.070991 12.501742 39.657283 l
12.501742 39.657283 20.655052 39.657283 l
20.655052 39.657283 20.655052 41.243574 l
20.655052 41.243574 12.501742 41.243574 l
12.501742 41.243574 12.501742 42.829865 l
12.501742 42.829865 20.655052 42.829865 l
20.655052 42.829865 20.655052 44.019584 l
20.655052 44.019584 12.501742 44.019584 l
12.501742 44.019584 12.501742 45.605875 l
12.501742 45.605875 20.655052 45.605875 l
20.655052 45.605875 20.655052 47.192166 l
20.655052 47.192166 12.501742 47.192166 l
12.501742 47.192166 12.501742 48.381885 l
12.501742 48.381885 20.655052 48.381885 l
20.655052 48.381885 20.655052 49.968176 l
20.655052 49.968176 12.501742 49.968176 l
12.501742 49.968176 12.501742 51.554468 l
12.501742 51.554468 20.655052 51.554468 l
20.655052 51.554468 20.655052 53.140759 l
20.655052 53.140759 12.501742 53.140759 l
12.501742 53.140759 12.501742 54.330477 l
12.501742 54.330477 20.655052 54.330477 l
20.655052 54.330477 20.655052 55.916769 l
20.655052 55.916769 12.501742 55.916769 l
12.501742 55.916769 12.501742 57.503060 l
12.501742 57.503060 20.655052 57.503060 l
20.655052 57.503060 20.655052 59.089351 l
20.655052 59.089351 12.501742 59.089351 l
12.501742 59.089351 12.501742 60.279070 l
12.501742 60.279070 20.655052 60.279070 l
20.655052 60.279070 20.655052 61.865361 l
20.655052 61.865361 12.501742 61.865361 l
12.501742 61.865361 12.501742 63.451652 l
12.501742 63.451652 20.655052 63.451652 l
20.655052 63.451652 20.655052 64.641371 l
20.655052 64.641371 12.501742 64.641371 l
12.501742 64.641371 12.501742 66.227662 l
12.501742 66.227662 20.655052 66.227662 l
20.655052 66.227662 20.655052 67.813953 l
20.655052 67.813953 12.501742 67.813953 l
12.501742 67.813953 12.501742 69.400245 l
12.501742 69.400245 20.655052 69.400245 l
20.655052 69.400245 20.655052 70.589963 l
20.655052 70.589963 12.501742 70.589963 l
12.501742 70.589963 12.501742 72.176255 l
12.501742 72.176255 20.655052 72.176255 l
20.655052 72.176255 20.655052 73.762546 l
20.655052 73.762546 12.501742 73.762546 l
12.501742 73.762546 12.501742 74.952264 l
12.501742 74.952264 20.655052 74.952264 l
20.655052 74.952264 20.655052 76.538556 l
20.655052 76.538556 12.501742 76.538556 l
12.501742 76.538556 12.501742 78.124847 l
12.501742 78.124847 20.655052 78.124847 l
20.655052 78.124847 20.655052 79.711138 l
20.655052 79.711138 12.501742 79.711138 l
12.501742 79.711138 12.501742 80.900857 l
12.501742 80.900857 20.655052 80.900857 l
20.655052 80.900857 20.655052 82.487148 l
20.655052 82.487148 12.501742 82.487148 l
12.501742 82.487148 12.501742 84.073439 l
12.501742 84.073439 20.655052 84.073439 l
20.655052 84.073439 20.655052 85.659731 l
20.655052 85.659731 12.501742 85.659731 l
12.501742 85.659731 12.501742 86.849449 l
12.501742 86.849449 20.655052 86.849449 l
20.655052 86.849449 20.655052 88.435741 l
20.655052 88.435741 12.501742 88.435741 l
12.501742 88.435741 12.501742 90.022032 l
12.501742 90.022032 20.655052 90.022032 l
20.655052 90.022032 20.655052 91.211750 l
20.655052 91.211750 12.501742 91.211750 l
12.501742 91.211750 12.501742 92.798042 l
12.501742 92.798042 20.655052 92.798042 l
20.655052 92.798042 20.655052 94.384333 l
20.655052 94.384333 12.501742 94.384333 l
12.501742 94.384333 12.501742 95.970624 l
12.501742 95.970624 20.655052 95.970624 l
20.655052 95.970624 20.655052 97.160343 l
20.655052 97.160343 12.501742 97.160343 l
12.501742 97.160343 12.501742 98.746634 l
12.501742 98.746634 20.655052 98.746634 l
20.655052 98.746634 20.655052 100.332925 l
20.655052 100.332925 12.501742 100.332925 l
12.501742 100.332925 12.501742 101.919217 l
12.501742 101.919217 20.655052 101.919217 l
20.655052 101.919217 20.655052 103.108935 l
20.655052 103.108935 12.501742 103.108935 l
12.501742 103.108935 12.501742 104.695226 l
12.501742 104.695226 20.655052 104.695226 l
20.655052 104.695226 20.655052 106.281518 l
20.655052 106.281518 12.501742 106.281518 l
12.501742 106.281518 12.501742 107.471236 l
12.501742 107.471236 20.655052 107.471236 l
20.655052 107.471236 20.655052 109.057528 l
20.655052 109.057528 12.501742 109.057528 l
12.501742 109.057528 12.501742 110.643819 l
12.501742 110.643819 20.655052 110.643819 l
20.655052 110.643819 20.655052 112.230110 l
20.655052 112.230110 12.501742 112.230110 l
12.501742 112.230110 12.501742 113.419829 l
12.501742 113.419829 20.655052 113.419829 l
20.655052 113.419829 20.655052 115.006120 l
20.655052 115.006120 12.501742 115.006120 l
12.501742 115.006120 12.501742 116.592411 l
12.501742 116.592411 20.655052 116.592411 l
20.655052 116.592411 20.655052 118.178703 l
20.655052 118.178703 12.501742 118.178703 l
12.501742 118.178703 12.501742 119.368421 l
12.501742 119.368421 20.655052 119.368421 l
20.655052 119.368421 20.655052 120.954712 l
20.655052 120.954712 12.501742 120.954712 l
12.501742 120.954712 12.501742 122.541004 l
12.501742 122.541004 20.655052 122.541004 l
20.655052 122.541004 20.655052 123.730722 l
20.655052 123.730722 12.501742 123.730722 l
12.501742 123.730722 12.501742 125.317013 l
12.501742 125.317013 20.655052 125.317013 l
20.655052 125.317013 20.655052 126.903305 l
20.655052 126.903305 12.501742 126.903305 l
12.501742 126.903305 12.501742 128.489596 l
12.501742 128.489596 20.655052 128.489596 l
20.655052 128.489596 20.655052 129.679315 l
20.655052 129.679315 12.501742 129.679315 l
12.501742 129.679315 12.501742 131.265606 l
12.501742 131.265606 20.655052 131.265606 l
20.655052 131.265606 20.655052 132.851897 l
20.655052 132.851897 12.501742 132.851897 l
12.501742 132.851897 12.501742 134.438188 l
12.501742 134.438188 20.655052 134.438188 l
20.655052 134.438188 20.655052 135.627907 l
20.655052 135.627907 12.501742 135.627907 l
12.501742 135.627907 12.501742 137.214198 l
12.501742 137.214198 20.655052 137.214198 l
20.655052 137.214198 20.655052 138.800490 l
20.655052 138.800490 12.501742 138.800490 l
12.501742 138.800490 12.501742 139.990208 l
12.501742 139.990208 20.655052 139.990208 l
20.655052 139.990208 20.655052 141.576499 l
20.655052 141.576499 12.501742 141.576499 l
12.501742 141.576499 12.501742 143.162791 l
12.501742 143.162791 20.655052 143.162791 l
20.655052 143.162791 20.655052 144.749082 l
20.655052 144.749082 12.501742 144.749082 l
12.501742 144.749082 12.501742 145.938800 l
12.501742 145.938800 20.655052 145.938800 l
20.655052 145.938800 20.655052 147.525092 l
20.655052 147.525092 12.501742 147.525092 l
12.501742 147.525092 12.501742 149.111383 l
12.501742 149.111383 20.655052 149.111383 l
20.655052 149.111383 20.655052 150.301102 l
20.655052 150.301102 12.501742 150.301102 l
12.501742 150.301102 12.501742 151.887393 l
12.501742 151.887393 20.655052 151.887393 l
20.655052 151.887393 20.655052 153.473684 l
20.655052 153.473684 12.501742 153.473684 l
12.501742 153.473684 12.501742 155.059976 l
12.501742 155.059976 20.655052 155.059976 l
20.655052 155.059976 20.655052 156.249694 l
20.655052 156.249694 12.501742 156.249694 l
12.501742 156.249694 12.501742 157.835985 l
12.501742 157.835985 20.655052 157.835985 l
20.655052 157.835985 20.655052 159.422277 l
20.655052 159.422277 12.501742 159.422277 l
12.501742 159.422277 12.501742 161.008568 l
12.501742 161.008568 20.655052 161.008568 l
20.655052 161.008568 20.655052 162.198286 l
20.655052 162.198286 12.501742 162.198286 l
12.501742 162.198286 12.501742 163.784578 l
12.501742 163.784578 20.655052 163.784578 l
20.655052 163.784578 20.655052 165.370869 l
20.655052 165.370869 12.501742 165.370869 l
12.501742 165.370869 12.501742 166.560588 l
12.501742 166.560588 20.655052 166.560588 l
20.655052 166.560588 20.655052 168.146879 l
20.655052 168.146879 12.501742 168.146879 l
12.501742 168.146879 12.501742 169.733170 l
12.501742 169.733170 20.655052 169.733170 l
20.655052 169.733170 20.655052 171.319461 l
20.655052 171.319461 12.501742 171.319461 l
12.501742 171.319461 12.501742 172.509180 l
12.501742 172.509180 20.655052 172.509180 l
20.655052 172.509180 20.655052 174.095471 l
20.655052 174.095471 12.501742 174.095471 l
12.501742 174.095471 12.501742 175.681763 l
12.501742 175.681763 20.655052 175.681763 l
20.655052 175.681763 20.655052 177.268054 l
20.655052 177.268054 12.501742 177.268054 l
12.501742 177.268054 12.501742 178.457772 l
12.501742 178.457772 20.655052 178.457772 l
20.655052 178.457772 20.655052 180.044064 l
20.655052 180.044064 12.501742 180.044064 l
12.501742 180.044064 12.501742 181.630355 l
12.501742 181.630355 20.655052 181.630355 l
20.655052 181.630355 20.655052 182.820073 l
20.655052 182.820073 12.501742 182.820073 l
12.501742 182.820073 12.501742 184.406365 l
12.501742 184.406365 20.655052 184.406365 l
20.655052 184.406365 20.655052 185.992656 l
20.655052 185.992656 12.501742 185.992656 l
12.501742 185.992656 12.501742 187.578947 l
12.501742 187.578947 20.655052 187.578947 l
20.655052 187.578947 20.655052 188.768666 l
20.655052 188.768666 12.501742 188.768666 l
12.501742 188.768666 12.501742 190.354957 l
12.501742 190.354957 20.655052 190.354957 l
20.655052 190.354957 20.655052 191.941248 l
20.655052 191.941248 12.501742 191.941248 l
12.501742 191.941248 12.501742 193.527540 l
12.501742 193.527540 20.655052 193.527540 l
20.655052 193.527540 20.655052 194.717258 l
20.655052 194.717258 12.501742 194.717258 l
12.501742 194.717258 12.501742 196.303550 l
12.501742 196.303550 20.655052 196.303550 l
20.655052 196.303550 20.655052 197.889841 l
20.655052 197.889841 12.501742 197.889841 l
12.501742 197.889841 12.501742 199.079559 l
12.501742 199.079559 20.655052 199.079559 l
20.655052 199.079559 20.655052 200.665851 l
20.655052 200.665851 12.501742 200.665851 l
12.501742 200.665851 12.501742 202.252142 l
12.501742 202.252142 20.655052 202.252142 l
20.655052 202.252142 20.655052 203.838433 l
20.655052 203.838433 12.501742 203.838433 l
12.501742 203.838433 12.501742 205.028152 l
12.501742 205.028152 20.655052 205.028152 l
20.655052 205.028152 20.655052 206.614443 l
20.655052 206.614443 12.501742 206.614443 l
12.501742 206.614443 12.501742 208.200734 l
12.501742 208.200734 20.655052 208.200734 l
20.655052 208.200734 20.655052 209.390453 l
20.655052 209.390453 12.501742 209.390453 l
12.501742 209.390453 12.501742 210.976744 l
12.501742 210.976744 20.655052 210.976744 l
20.655052 210.976744 20.655052 212.563035 l
20.655052 212.563035 12.501742 212.563035 l
12.501742 212.563035 12.501742 214.149327 l
12.501742 214.149327 20.655052 214.149327 l
20.655052 214.149327 20.655052 215.339045 l
20.655052 215.339045 12.501742 215.339045 l
12.501742 215.339045 12.501742 216.925337 l
12.501742 216.925337 20.655052 216.925337 l
20.655052 216.925337 20.655052 218.511628 l
20.655052 218.511628 12.501742 218.511628 l
12.501742 218.511628 12.501742 220.097919 l
12.501742 220.097919 20.655052 220.097919 l
20.655052 220.097919 20.655052 221.287638 l
20.655052 221.287638 12.501742 221.287638 l
12.501742 221.287638 12.501742 222.873929 l
12.501742 222.873929 20.655052 222.873929 l
20.655052 222.873929 20.655052 224.460220 l
20.655052 224.460220 12.501742 224.460220 l
12.501742 224.460220 12.501742 225.649939 l
12.501742 225.649939 20.655052 225.649939 l
20.655052 225.649939 20.655052 227.236230 l
20.655052 227.236230 12.501742 227.236230 l
12.501742 227.236230 12.501742 228.822521 l
12.501742 228.822521 20.655052 228.822521 l
20.655052 228.822521 20.655052 230.408813 l
20.655052 230.408813 12.501742 230.408813 l
12.501742 230.408813 12.501742 231.598531 l
12.501742 231.598531 20.655052 231.598531 l
20.655052 231.598531 20.655052 233.184823 l
20.655052 233.184823 12.501742 233.184823 l
12.501742 233.184823 12.501742 234.771114 l
12.501742 234.771114 20.655052 234.771114 l
20.655052 234.771114 20.655052 236.357405 l
20.655052 236.357405 12.501742 236.357405 l
12.501742 236.357405 12.501742 237.547124 l
12.501742 237.547124 20.655052 237.547124 l
20.655052 237.547124 20.655052 239.133415 l
20.655052 239.133415 12.501742 239.133415 l
12.501742 239.133415 12.501742 240.719706 l
12.501742 240.719706 20.655052 240.719706 l
20.655052 240.719706 20.655052 241.909425 l
20.655052 241.909425 12.501742 241.909425 l
12.501742 241.909425 12.501742 243.495716 l
12.501742 243.495716 20.655052 243.495716 l
20.655052 243.495716 20.655052 245.082007 l
20.655052 245.082007 12.501742 245.082007 l
12.501742 245.082007 12.501742 246.668299 l
12.501742 246.668299 20.655052 246.668299 l
20.655052 246.668299 20.655052 247.858017 l
20.655052 247.858017 12.501742 247.858017 l
12.501742 247.858017 12.501742 249.444308 l
12.501742 249.444308 20.655052 249.444308 l
20.655052 249.444308 20.655052 251.030600 l
20.655052 251.030600 12.501742 251.030600 l
12.501742 251.030600 12.501742 252.616891 l
12.501742 252.616891 20.655052 252.616891 l
20.655052 252.616891 20.655052 253.806610 l
20.655052 253.806610 12.501742 253.806610 l
12.501742 253.806610 12.501742 255.392901 l
12.501742 255.392901 20.655052 255.392901 l
20.655052 255.392901 20.655052 256.979192 l
20.655052 256.979192 12.501742 256.979192 l
12.501742 256.979192 12.501742 258.168911 l
12.501742 258.168911 20.655052 258.168911 l
20.655052 258.168911 20.655052 259.755202 l
20.655052 259.755202 12.501742 259.755202 l
12.501742 259.755202 12.501742 261.341493 l
12.501742 261.341493 20.655052 261.341493 l
20.655052 261.341493 20.655052 262.927785 l
20.655052 262.927785 12.501742 262.927785 l
12.501742 262.927785 12.501742 264.117503 l
12.501742 264.117503 20.655052 264.117503 l
20.655052 264.117503 20.655052 265.703794 l
20.655052 265.703794 12.501742 265.703794 l
12.501742 265.703794 12.501742 267.290086 l
12.501742 267.290086 20.655052 267.290086 l
20.655052 267.290086 20.655052 268.876377 l
20.655052 268.876377 12.501742 268.876377 l
12.501742 268.876377 12.501742 270.066095 l
12.501742 270.066095 20.655052 270.066095 l
20.655052 270.066095 20.655052 271.652387 l
20.655052 271.652387 12.501742 271.652387 l
12.501742 271.652387 12.501742 273.238678 l
12.501742 273.238678 20.655052 273.238678 l
20.655052 273.238678 20.655052 274.428397 l
20.655052 274.428397 12.501742 274.428397 l
12.501742 274.428397 12.501742 276.014688 l
12.501742 276.014688 20.655052 276.014688 l
20.655052 276.014688 20.655052 277.600979 l
20.655052 277.600979 12.501742 277.600979 l
12.501742 277.600979 12.501742 279.187271 l
12.501742 279.187271 20.655052 279.187271 l
20.655052 279.187271 20.655052 280.376989 l
20.655052 280.376989 12.501742 280.376989 l
12.501742 280.376989 12.501742 281.963280 l
12.501742 281.963280 20.655052 281.963280 l
20.655052 281.963280 20.655052 283.549572 l
20.655052 283.549572 12.501742 283.549572 l
12.501742 283.549572 12.501742 284.739290 l
12.501742 284.739290 20.655052 284.739290 l
20.655052 284.739290 20.655052 286.325581 l
20.655052 286.325581 12.501742 286.325581 l
12.501742 286.325581 12.501742 287.911873 l
12.501742 287.911873 20.655052 287.911873 l
20.655052 287.911873 20.655052 289.498164 l
20.655052 289.498164 12.501742 289.498164 l
12.501742 289.498164 12.501742 290.687882 l
12.501742 290.687882 20.655052 290.687882 l
20.655052 290.687882 20.655052 292.274174 l
20.655052 292.274174 12.501742 292.274174 l
12.501742 292.274174 12.501742 293.860465 l
12.501742 293.860465 20.655052 293.860465 l
20.655052 293.860465 20.655052 295.446756 l
20.655052 295.446756 12.501742 295.446756 l
12.501742 295.446756 12.501742 296.636475 l
12.501742 296.636475 20.655052 296.636475 l
20.655052 296.636475 20.655052 298.222766 l
20.655052 298.222766 12.501742 298.222766 l
12.501742 298.222766 12.501742 299.809058 l
12.501742 299.809058 20.655052 299.809058 l
20.655052 299.809058 20.655052 300.998776 l
20.655052 300.998776 12.501742 300.998776 l
12.501742 300.998776 12.501742 302.585067 l
12.501742 302.585067 20.655052 302.585067 l
20.655052 302.585067 20.655052 304.171359 l
20.655052 304.171359 12.501742 304.171359 l
12.501742 304.171359 12.501742 305.757650 l
12.501742 305.757650 20.655052 305.757650 l
20.655052 305.757650 20.655052 306.947368 l
20.655052 306.947368 12.501742 306.947368 l
12.501742 306.947368 12.501742 308.533660 l
12.501742 308.533660 20.655052 308.533660 l
20.655052 308.533660 20.655052 310.119951 l
20.655052 310.119951 12.501742 310.119951 l
12.501742 310.119951 12.501742 311.706242 l
12.501742 311.706242 20.655052 311.706242 l
20.655052 311.706242 20.655052 312.895961 l
20.655052 312.895961 12.501742 312.895961 l
12.501742 312.895961 12.501742 314.482252 l
12.501742 314.482252 20.655052 314.482252 l
20.655052 314.482252 20.655052 316.068543 l
20.655052 316.068543 12.501742 316.068543 l
12.501742 316.068543 12.501742 317.258262 l
12.501742 317.258262 20.655052 317.258262 l
20.655052 317.258262 20.655052 318.844553 l
20.655052 318.844553 12.501742 318.844553 l
12.501742 318.844553 12.501742 320.430845 l
12.501742 320.430845 20.655052 320.430845 l
20.655052 320.430845 20.655052 322.017136 l
20.655052 322.017136 12.501742 322.017136 l
12.501742 322.017136 12.501742 323.206854 l
12.501742 323.206854 20.655052 323.206854 l
20.655052 323.206854 20.655052 324.793146 l
20.655052 324.793146 12.501742 324.793146 l
12.501742 324.793146 12.501742 326.379437 l
12.501742 326.379437 20.655052 326.379437 l
20.655052 326.379437 20.655052 327.965728 l
20.655052 327.965728 12.501742 327.965728 l
12.501742 327.965728 12.501742 329.155447 l
12.501742 329.155447 20.655052 329.155447 l
20.655052 329.155447 20.655052 330.741738 l
20.655052 330.741738 12.501742 330.741738 l
12.501742 330.741738 12.501742 332.328029 l
12.501742 332.328029 20.655052 332.328029 l
20.655052 332.328029 20.655052 333.517748 l
20.655052 333.517748 12.501742 333.517748 l
12.501742 333.517748 12.501742 335.104039 l
12.501742 335.104039 20.655052 335.104039 l
20.655052 335.104039 20.655052 336.690330 l
20.655052 336.690330 12.501742 336.690330 l
12.501742 336.690330 12.501742 338.276622 l
12.501742 338.276622 20.655052 338.276622 l
20.655052 338.276622 20.655052 339.466340 l
20.655052 339.466340 12.501742 339.466340 l
12.501742 339.466340 12.501742 341.052632 l
12.501742 341.052632 20.655052 341.052632 l
20.655052 341.052632 20.655052 342.638923 l
20.655052 342.638923 12.501742 342.638923 l
12.501742 342.638923 12.501742 343.828641 l
12.501742 343.828641 20.655052 343.828641 l
20.655052 343.828641 20.655052 345.414933 l
20.655052 345.414933 12.501742 345.414933 l
12.501742 345.414933 12.501742 347.001224 l
12.501742 347.001224 20.655052 347.001224 l
20.655052 347.001224 20.655052 348.587515 l
20.655052 348.587515 12.501742 348.587515 l
12.501742 348.587515 12.501742 349.777234 l
12.501742 349.777234 20.655052 349.777234 l
20.655052 349.777234 20.655052 351.363525 l
20.655052 351.363525 12.501742 351.363525 l
12.501742 351.363525 12.501742 352.949816 l
12.501742 352.949816 20.655052 352.949816 l
20.655052 352.949816 20.655052 354.536108 l
20.655052 354.536108 12.501742 354.536108 l
12.501742 354.536108 12.501742 355.725826 l
12.501742 355.725826 20.655052 355.725826 l
20.655052 355.725826 20.655052 357.312118 l
20.655052 357.312118 12.501742 357.312118 l
12.501742 357.312118 12.501742 358.898409 l
12.501742 358.898409 20.655052 358.898409 l
20.655052 358.898409 20.655052 360.088127 l
20.655052 360.088127 12.501742 360.088127 l
12.501742 360.088127 12.501742 361.674419 l
12.501742 361.674419 20.655052 361.674419 l
20.655052 361.674419 20.655052 363.260710 l
20.655052 363.260710 12.501742 363.260710 l
12.501742 363.260710 12.501742 364.847001 l
12.501742 364.847001 20.655052 364.847001 l
20.655052 364.847001 20.655052 366.036720 l
20.655052 366.036720 12.501742 366.036720 l
12.501742 366.036720 12.501742 367.623011 l
12.501742 367.623011 20.655052 367.623011 l
20.655052 367.623011 20.655052 369.209302 l
20.655052 369.209302 12.501742 369.209302 l
12.501742 369.209302 12.501742 370.795594 l
12.501742 370.795594 20.655052 370.795594 l
20.655052 370.795594 20.655052 371.985312 l
20.655052 371.985312 12.501742 371.985312 l
12.501742 371.985312 12.501742 373.571603 l
12.501742 373.571603 20.655052 373.571603 l
20.655052 373.571603 20.655052 375.157895 l
20.655052 375.157895 12.501742 375.157895 l
12.501742 375.157895 12.501742 376.347613 l
12.501742 376.347613 20.655052 376.347613 l
20.655052 376.347613 20.655052 377.933905 l
20.655052 377.933905 12.501742 377.933905 l
12.501742 377.933905 12.501742 379.520196 l
12.501742 379.520196 20.655052 379.520196 l
20.655052 379.520196 20.655052 381.106487 l
20.655052 381.106487 12.501742 381.106487 l
12.501742 381.106487 12.501742 382.296206 l
12.501742 382.296206 20.655052 382.296206 l
20.655052 382.296206 20.655052 383.882497 l
20.655052 383.882497 12.501742 383.882497 l
12.501742 383.882497 12.501742 385.468788 l
12.501742 385.468788 20.655052 385.468788 l
20.655052 385.468788 20.655052 387.055080 l
20.655052 387.055080 12.501742 387.055080 l
12.501742 387.055080 12.501742 388.244798 l
12.501742 388.244798 20.655052 388.244798 l
20.655052 388.244798 20.655052 389.831089 l
20.655052 389.831089 12.501742 389.831089 l
12.501742 389.831089 12.501742 391.417381 l
12.501742 391.417381 20.655052 391.417381 l
20.655052 391.417381 20.655052 392.607099 l
20.655052 392.607099 12.501742 392.607099 l
12.501742 392.607099 12.501742 394.193390 l
12.501742 394.193390 20.655052 394.193390 l
20.655052 394.193390 20.655052 395.779682 l
20.655052 395.779682 12.501742 395.779682 l
12.501742 395.779682 12.501742 397.365973 l
12.501742 397.365973 20.655052 397.365973 l
20.655052 397.365973 20.655052 398.555692 l
20.655052 398.555692 12.501742 398.555692 l
12.501742 398.555692 12.501742 400.141983 l
12.501742 400.141983 20.655052 400.141983 l
20.655052 400.141983 20.655052 401.728274 l
20.655052 401.728274 12.501742 401.728274 l
12.501742 401.728274 12.501742 403.314565 l
12.501742 403.314565 20.655052 403.314565 l
20.655052 403.314565 20.655052 404.504284 l
20.655052 404.504284 12.501742 404.504284 l
12.501742 404.504284 12.501742 406.090575 l
12.501742 406.090575 20.655052 406.090575 l
20.655052 406.090575 20.655052 407.676867 l
20.655052 407.676867 12.501742 407.676867 l
12.501742 407.676867 12.501742 408.866585 l
12.501742 408.866585 20.655052 408.866585 l
20.655052 408.866585 20.655052 410.452876 l
20.655052 410.452876 12.501742 410.452876 l
12.501742 410.452876 12.501742 412.039168 l
12.501742 412.039168 20.655052 412.039168 l
20.655052 412.039168 20.655052 413.625459 l
20.655052 413.625459 12.501742 413.625459 l
12.501742 413.625459 12.501742 414.815177 l
12.501742 414.815177 20.655052 414.815177 l
20.655052 414.815177 20.655052 416.401469 l
20.655052 416.401469 12.501742 416.401469 l
12.501742 416.401469 12.501742 417.987760 l
12.501742 417.987760 20.655052 417.987760 l
20.655052 417.987760 20.655052 419.177479 l
20.655052 419.177479 12.501742 419.177479 l
12.501742 419.177479 12.501742 420.763770 l
12.501742 420.763770 20.655052 420.763770 l
20.655052 420.763770 20.655052 422.350061 l
20.655052 422.350061 12.501742 422.350061 l
12.501742 422.350061 12.501742 423.936353 l
12.501742 423.936353 20.655052 423.936353 l
20.655052 423.936353 20.655052 425.126071 l
20.655052 425.126071 12.501742 425.126071 l
12.501742 425.126071 12.501742 426.712362 l
12.501742 426.712362 20.655052 426.712362 l
20.655052 426.712362 20.655052 428.298654 l
20.655052 428.298654 12.501742 428.298654 l
12.501742 428.298654 12.501742 429.884945 l
12.501742 429.884945 20.655052 429.884945 l
20.655052 429.884945 20.655052 431.074663 l
20.655052 431.074663 12.501742 431.074663 l
12.501742 431.074663 12.501742 432.660955 l
12.501742 432.660955 20.655052 432.660955 l
20.655052 432.660955 20.655052 434.247246 l
20.655052 434.247246 12.501742 434.247246 l
12.501742 434.247246 12.501742 435.436965 l
12.501742 435.436965 20.655052 435.436965 l
20.655052 435.436965 20.655052 437.023256 l
20.655052 437.023256 12.501742 437.023256 l
12.501742 437.023256 12.501742 438.609547 l
12.501742 438.609547 20.655052 438.609547 l
20.655052 438.609547 20.655052 440.195838 l
20.655052 440.195838 12.501742 440.195838 l
12.501742 440.195838 12.501742 441.385557 l
12.501742 441.385557 20.655052 441.385557 l
20.655052 441.385557 20.655052 442.971848 l
20.655052 442.971848 12.501742 442.971848 l
12.501742 442.971848 12.501742 444.558140 l
12.501742 444.558140 20.655052 444.558140 l
20.655052 444.558140 20.655052 446.144431 l
20.655052 446.144431 12.501742 446.144431 l
12.501742 446.144431 12.501742 447.334149 l
12.501742 447.334149 20.655052 447.334149 l
20.655052 447.334149 20.655052 448.920441 l
20.655052 448.920441 12.501742 448.920441 l
12.501742 448.920441 12.501742 450.506732 l
12.501742 450.506732 20.655052 450.506732 l
20.655052 450.506732 20.655052 451.696450 l
20.655052 451.696450 12.501742 451.696450 l
12.501742 451.696450 12.501742 453.282742 l
12.501742 453.282742 20.655052 453.282742 l
20.655052 453.282742 20.655052 454.869033 l
20.655052 454.869033 12.501742 454.869033 l
12.501742 454.869033 12.501742 456.455324 l
12.501742 456.455324 20.655052 456.455324 l
20.655052 456.455324 20.655052 457.645043 l
20.655052 457.645043 12.501742 457.645043 l
12.501742 457.645043 12.501742 459.231334 l
12.501742 459.231334 20.655052 459.231334 l
20.655052 459.231334 20.655052 460.817625 l
20.655052 460.817625 12.501742 460.817625 l
12.501742 460.817625 12.501742 462.403917 l
12.501742 462.403917 20.655052 462.403917 l
20.655052 462.403917 20.655052 463.593635 l
20.655052 463.593635 12.501742 463.593635 l
12.501742 463.593635 12.501742 465.179927 l
12.501742 465.179927 20.655052 465.179927 l
20.655052 465.179927 20.655052 466.766218 l
20.655052 466.766218 12.501742 466.766218 l
12.501742 466.766218 12.501742 467.955936 l
12.501742 467.955936 20.655052 467.955936 l
20.655052 467.955936 20.655052 469.542228 l
20.655052 469.542228 12.501742 469.542228 l
12.501742 469.542228 12.501742 471.128519 l
12.501742 471.128519 20.655052 471.128519 l
20.655052 471.128519 20.655052 472.714810 l
20.655052 472.714810 12.501742 472.714810 l
12.501742 472.714810 12.501742 473.904529 l
12.501742 473.904529 20.655052 473.904529 l
20.655052 473.904529 20.655052 475.490820 l
20.655052 475.490820 12.501742 475.490820 l
12.501742 475.490820 12.501742 477.077111 l
12.501742 477.077111 20.655052 477.077111 l
20.655052 477.077111 20.655052 478.266830 l
20.655052 478.266830 12.501742 478.266830 l
12.501742 478.266830 12.501742 479.853121 l
12.501742 479.853121 20.655052 479.853121 l
20.655052 479.853121 20.655052 481.439412 l
20.655052 481.439412 12.501742 481.439412 l
12.501742 481.439412 12.501742 483.025704 l
12.501742 483.025704 20.655052 483.025704 l
20.655052 483.025704 20.655052 484.215422 l
20.655052 484.215422 12.501742 484.215422 l
12.501742 484.215422 12.501742 485.801714 l
12.501742 485.801714 20.655052 485.801714 l
20.655052 485.801714 20.655052 487.388005 l
20.655052 487.388005 12.501742 487.388005 l
12.501742 487.388005 12.501742 488.974296 l
12.501742 488.974296 20.655052 488.974296 l
20.655052 488.974296 20.655052 490.164015 l
20.655052 490.164015 12.501742 490.164015 l
12.501742 490.164015 12.501742 491.750306 l
12.501742 491.750306 20.655052 491.750306 l
20.655052 491.750306 20.655052 493.336597 l
20.655052 493.336597 12.501742 493.336597 l
12.501742 493.336597 12.501742 494.526316 l
12.501742 494.526316 20.655052 494.526316 l
20.655052 494.526316 20.655052 496.112607 l
20.655052 496.112607 12.501742 496.112607 l
12.501742 496.112607 12.501742 497.698898 l
12.501742 497.698898 20.655052 497.698898 l
20.655052 497.698898 20.655052 499.285190 l
20.655052 499.285190 12.501742 499.285190 l
12.501742 499.285190 12.501742 500.474908 l
12.501742 500.474908 20.655052 500.474908 l
20.655052 500.474908 20.655052 502.061200 l
20.655052 502.061200 12.501742 502.061200 l
12.501742 502.061200 12.501742 503.647491 l
12.501742 503.647491 20.655052 503.647491 l
20.655052 503.647491 20.655052 505.233782 l
20.655052 505.233782 12.501742 505.233782 l
12.501742 505.233782 12.501742 506.423501 l
12.501742 506.423501 20.655052 506.423501 l
20.655052 506.423501 20.655052 508.009792 l
20.655052 508.009792 12.501742 508.009792 l
12.501742 508.009792 12.501742 509.596083 l
12.501742 509.596083 20.655052 509.596083 l
20.655052 509.596083 20.655052 510.785802 l
20.655052 510.785802 12.501742 510.785802 l
12.501742 510.785802 12.501742 512.372093 l
12.501742 512.372093 20.655052 512.372093 l
20.655052 512.372093 20.655052 513.958384 l
20.655052 513.958384 12.501742 513.958384 l
12.501742 513.958384 12.501742 515.544676 l
12.501742 515.544676 20.655052 515.544676 l
20.655052 515.544676 20.655052 516.734394 l
20.655052 516.734394 12.501742 516.734394 l
12.501742 516.734394 12.501742 518.320685 l
12.501742 518.320685 20.655052 518.320685 l
20.655052 518.320685 20.655052 519.906977 l
20.655052 519.906977 12.501742 519.906977 l
12.501742 519.906977 12.501742 521.493268 l
12.501742 521.493268 20.655052 521.493268 l
20.655052 521.493268 20.655052 522.682987 l
20.655052 522.682987 12.501742 522.682987 l
12.501742 522.682987 12.501742 524.269278 l
12.501742 524.269278 20.655052 524.269278 l
20.655052 524.269278 20.655052 525.855569 l
20.655052 525.855569 12.501742 525.855569 l
12.501742 525.855569 12.501742 527.045288 l
12.501742 527.045288 20.655052 527.045288 l
20.655052 527.045288 20.655052 528.631579 l
20.655052 528.631579 12.501742 528.631579 l
12.501742 528.631579 12.501742 530.217870 l
12.501742 530.217870 20.655052 530.217870 l
20.655052 530.217870 20.655052 531.804162 l
20.655052 531.804162 12.501742 531.804162 l
12.501742 531.804162 12.501742 532.993880 l
12.501742 532.993880 20.655052 532.993880 l
20.655052 532.993880 20.655052 534.580171 l
20.655052 534.580171 12.501742 534.580171 l
12.501742 534.580171 12.501742 536.166463 l
12.501742 536.166463 20.655052 536.166463 l
20.655052 536.166463 20.655052 537.752754 l
20.655052 537.752754 12.501742 537.752754 l
12.501742 537.752754 12.501742 538.942472 l
12.501742 538.942472 20.655052 538.942472 l
20.655052 538.942472 20.655052 540.528764 l
20.655052 540.528764 12.501742 540.528764 l
12.501742 540.528764 12.501742 542.115055 l
12.501742 542.115055 20.655052 542.115055 l
20.655052 542.115055 20.655052 543.304774 l
20.655052 543.304774 12.501742 543.304774 l
12.501742 543.304774 12.501742 544.891065 l
12.501742 544.891065 20.655052 544.891065 l
20.655052 544.891065 20.655052 546.477356 l
20.655052 546.477356 12.501742 546.477356 l
12.501742 546.477356 12.501742 548.063647 l
12.501742 548.063647 20.655052 548.063647 l
20.655052 548.063647 20.655052 549.253366 l
20.655052 549.253366 12.501742 549.253366 l
12.501742 549.253366 12.501742 550.839657 l
12.501742 550.839657 20.655052 550.839657 l
20.655052 550.839657 20.655052 552.425949 l
20.655052 552.425949 12.501742 552.425949 l
12.501742 552.425949 12.501742 553.615667 l
12.501742 553.615667 20.655052 553.615667 l
20.655052 553.615667 20.655052 555.201958 l
20.655052 555.201958 12.501742 555.201958 l
12.501742 555.201958 12.501742 556.788250 l
12.501742 556.788250 20.655052 556.788250 l
20.655052 556.788250 20.655052 558.374541 l
20.655052 558.374541 12.501742 558.374541 l
12.501742 558.374541 12.501742 559.564259 l
12.501742 559.564259 20.655052 559.564259 l
20.655052 559.564259 20.655052 561.150551 l
20.655052 561.150551 12.501742 561.150551 l
12.501742 561.150551 12.501742 562.736842 l
12.501742 562.736842 20.655052 562.736842 l
20.655052 562.736842 20.655052 564.323133 l
20.655052 564.323133 12.501742 564.323133 l
12.501742 564.323133 12.501742 565.512852 l
12.501742 565.512852 20.655052 565.512852 l
20.655052 565.512852 20.655052 567.099143 l
20.655052 567.099143 12.501742 567.099143 l
12.501742 567.099143 12.501742 568.685435 l
12.501742 568.685435 20.655052 568.685435 l
20.655052 568.685435 20.655052 569.875153 l
20.655052 569.875153 12.501742 569.875153 l
12.501742 569.875153 12.501742 571.461444 l
12.501742 571.461444 20.655052 571.461444 l
20.655052 571.461444 20.655052 573.047736 l
20.655052 573.047736 12.501742 573.047736 l
12.501742 573.047736 12.501742 574.634027 l
12.501742 574.634027 20.655052 574.634027 l
20.655052 574.634027 20.655052 575.823745 l
20.655052 575.823745 12.501742 575.823745 l
12.501742 575.823745 12.501742 577.410037 l
12.501742 577.410037 20.655052 577.410037 l
20.655052 577.410037 20.655052 578.996328 l
20.655052 578.996328 12.501742 578.996328 l
12.501742 578.996328 12.501742 580.582619 l
12.501742 580.582619 20.655052 580.582619 l
20.655052 580.582619 20.655052 581.772338 l
20.655052 581.772338 12.501742 581.772338 l
12.501742 581.772338 12.501742 583.358629 l
12.501742 583.358629 20.655052 583.358629 l
20.655052 583.358629 20.655052 584.944920 l
20.655052 584.944920 12.501742 584.944920 l
12.501742 584.944920 12.501742 586.134639 l
12.501742 586.134639 20.655052 586.134639 l
20.655052 586.134639 20.655052 587.720930 l
20.655052 587.720930 12.501742 587.720930 l
12.501742 587.720930 12.501742 589.307222 l
12.501742 589.307222 20.655052 589.307222 l
20.655052 589.307222 20.655052 590.893513 l
20.655052 590.893513 12.501742 590.893513 l
12.501742 590.893513 12.501742 592.083231 l
12.501742 592.083231 20.655052 592.083231 l
20.655052 592.083231 20.655052 593.669523 l
20.655052 593.669523 12.501742 593.669523 l
12.501742 593.669523 12.501742 595.255814 l
12.501742 595.255814 20.655052 595.255814 l
20.655052 595.255814 20.655052 596.842105 l
20.655052 596.842105 12.501742 596.842105 l
12.501742 596.842105 12.501742 598.031824 l
12.501742 598.031824 20.655052 598.031824 l
20.655052 598.031824 20.655052 599.618115 l
20.655052 599.618115 12.501742 599.618115 l
12.501742 599.618115 12.501742 601.204406 l
12.501742 601.204406 20.655052 601.204406 l
20.655052 601.204406 20.655052 602.394125 l
20.655052 602.394125 12.501742 602.394125 l
12.501742 602.394125 12.501742 603.980416 l
12.501742 603.980416 20.655052 603.980416 l
20.655052 603.980416 20.655052 605.566707 l
20.655052 605.566707 12.501742 605.566707 l
12.501742 605.566707 12.501742 607.152999 l
12.501742 607.152999 20.655052 607.152999 l
20.655052 607.152999 20.655052 608.342717 l
20.655052 608.342717 12.501742 608.342717 l
12.501742 608.342717 12.501742 609.929009 l
12.501742 609.929009 20.655052 609.929009 l
20.655052 609.929009 20.655052 610.722154 l
0.750000 setgray
33.156794 0.000000 33.156794 610.325581 l
0.000000 setgray
32.069686 0.000000 32.069686 5.552020 l
32.069686 5.552020 23.916376 5.552020 l
23.916376 5.552020 23.916376 8.724602 l
23.916376 8.724602 32.069686 8.724602 l
32.069686 8.724602 32.069686 11.500612 l
32.069686 11.500612 23.916376 11.500612 l
23.916376 11.500612 23.916376 14.673195 l
23.916376 14.673195 32.069686 14.673195 l
32.069686 14.673195 32.069686 17.449204 l
32.069686 17.449204 23.916376 17.449204 l
23.916376 17.449204 23.916376 20.621787 l
23.916376 20.621787 32.069686 20.621787 l
32.069686 20.621787 32.069686 23.397797 l
32.069686 23.397797 23.916376 23.397797 l
23.916376 23.397797 23.916376 26.570379 l
23.916376 26.570379 32.069686 26.570379 l
32.069686 26.570379 32.069686 29.346389 l
32.069686 29.346389 23.916376 29.346389 l
23.916376 29.346389 23.916376 32.122399 l
23.916376 32.122399 32.069686 32.122399 l
32.069686 32.122399 32.069686 35.294982 l
32.069686 35.294982 23.916376 35.294982 l
23.916376 35.294982 23.916376 38.070991 l
23.916376 38.070991 32.069686 38.070991 l
32.069686 38.070991 32.069686 41.243574 l
32.069686 41.243574 23.916376 41.243574 l
23.916376 41.243574 23.916376 44.019584 l
23.916376 44.019584 32.069686 44.019584 l
32.069686 44.019584 32.069686 47.192166 l
32.069686 47.192166 23.916376 47.192166 l
23.916376 47.192166 23.916376 49.968176 l
23.916376 49.968176 32.069686 49.968176 l
32.069686 49.968176 32.069686 53.140759 l
32.069686 53.140759 23.916376 53.140759 l
23.916376 53.140759 23.916376 55.916769 l
23.916376 55.916769 32.069686 55.916769 l
32.069686 55.916769 32.069686 59.089351 l
32.069686 59.089351 23.916376 59.089351 l
23.916376 59.089351 23.916376 61.865361 l
23.916376 61.865361 32.069686 61.865361 l
32.069686 61.865361 32.069686 64.641371 l
32.069686 64.641371 23.916376 64.641371 l
23.916376 64.641371 23.916376 67.813953 l
23.916376 67.813953 32.069686 67.813953 l
32.069686 67.813953 32.069686 70.589963 l
32.069686 70.589963 23.916376 70.589963 l
23.916376 70.589963 23.916376 73.762546 l
23.916376 73.762546 32.069686 73.762546 l
32.069686 73.762546 32.069686 76.538556 l
32.069686 76.538556 23.916376 76.538556 l
23.916376 76.538556 23.916376 79.711138 l
23.916376 79.711138 32.069686 79.711138 l
32.069686 79.711138 32.069686 82.487148 l
32.069686 82.487148 23.916376 82.487148 l
23.916376 82.487148 23.916376 85.659731 l
23.916376 85.659731 32.069686 85.659731 l
32.069686 85.659731 32.069686 88.435741 l
32.069686 88.435741 23.916376 88.435741 l
23.916376 88.435741 23.916376 91.211750 l
23.916376 91.211750 32.069686 91.211750 l
32.069686 91.211750 32.069686 94.384333 l
32.069686 94.384333 23.916376 94.384333 l
23.916376 94.384333 23.916376 97.160343 l
23.916376 97.160343 32.069686 97.160343 l
32.069686 97.160343 32.069686 100.332925 l
32.069686 100.332925 23.916376 100.332925 l
23.916376 100.332925 23.916376 103.108935 l
23.916376 103.108935 32.069686 103.108935 l
32.069686 103.108935 32.069686 106.281518 l
32.069686 106.281518 23.916376 106.281518 l
23.916376 106.281518 23.916376 109.057528 l
23.916376 109.057528 32.069686 109.057528 l
32.069686 109.057528 32.069686 112.230110 l
32.069686 112.230110 23.916376 112.230110 l
23.916376 112.230110 23.916376 115.006120 l
23.916376 115.006120 32.069686 115.006120 l
32.069686 115.006120 32.069686 118.178703 l
32.069686 118.178703 23.916376 118.178703 l
23.916376 118.178703 23.916376 120.954712 l
23.916376 120.954712 32.069686 120.954712 l
32.069686 120.954712 32.069686 123.730722 l
32.069686 123.730722 23.916376 123.730722 l
23.916376 123.730722 23.916376 126.903305 l
23.916376 126.903305 32.069686 126.903305 l
32.069686 126.903305 32.069686 129.679315 l
32.069686 129.679315 23.916376 129.679315 l
23.916376 129.679315 23.916376 132.851897 l
23.916376 132.851897 32.069686 132.851897 l
32.069686 132.851897 32.069686 135.627907 l
32.069686 135.627907 23.916376 135.627907 l
23.916376 135.627907 23.916376 138.800490 l
23.916376 138.800490 32.069686 138.800490 l
32.069686 138.800490 32.069686 141.576499 l
32.069686 141.576499 23.916376 141.576499 l
23.916376 141.576499 23.916376 144.749082 l
23.916376 144.749082 32.069686 144.749082 l
32.069686 144.749082 32.069686 147.525092 l
32.069686 147.525092 23.916376 147.525092 l
23.916376 147.525092 23.916376 150.301102 l
23.916376 150.301102 32.069686 150.301102 l
32.069686 150.301102 32.069686 153.473684 l
32.069686 153.473684 23.916376 153.473684 l
23.916376 153.473684 23.916376 156.249694 l
23.916376 156.249694 32.069686 156.249694 l
32.069686 156.249694 32.069686 159.422277 l
32.069686 159.422277 23.916376 159.422277 l
23.916376 159.422277 23.916376 162.198286 l
23.916376 162.198286 32.069686 162.198286 l
32.069686 162.198286 32.069686 165.370869 l
32.069686 165.370869 23.916376 165.370869 l
23.916376 165.370869 23.916376 168.146879 l
23.916376 168.146879 32.069686 168.146879 l
32.069686 168.146879 32.069686 171.319461 l
32.069686 171.319461 23.916376 171.319461 l
23.916376 171.319461 23.916376 174.095471 l
23.916376 174.095471 32.069686 174.095471 l
32.069686 174.095471 32.069686 177.268054 l
32.069686 177.268054 23.916376 177.268054 l
23.916376 177.268054 23.916376 180.044064 l
23.916376 180.044064 32.069686 180.044064 l
32.069686 180.044064 32.069686 182.820073 l
32.069686 182.820073 23.916376 182.820073 l
23.916376 182.820073 23.916376 185.992656 l
23.916376 185.992656 32.069686 185.992656 l
32.069686 185.992656 32.069686 188.768666 l
32.069686 188.768666 23.916376 188.768666 l
23.916376 188.768666 23.916376 191.941248 l
23.916376 191.941248 32.069686 191.941248 l
32.069686 191.941248 32.069686 194.717258 l
32.069686 194.717258 23.916376 194.717258 l
23.916376 194.717258 23.916376 197.889841 l
23.916376 197.889841 32.069686 197.889841 l
32.069686 197.889841 32.069686 200.665851 l
32.069686 200.665851 23.916376 200.665851 l
23.916376 200.665851 23.916376 203.838433 l
23.916376 203.838433 32.069686 203.838433 l
32.069686 203.838433 32.069686 206.614443 l
32.069686 206.614443 23.916376 206.614443 l
23.916376 206.614443 23.916376 209.390453 l
23.916376 209.390453 32.069686 209.390453 l
32.069686 209.390453 32.069686 212.563035 l
32.069686 212.563035 23.916376 212.563035 l
23.916376 212.563035 23.916376 215.339045 l
23.916376 215.339045 32.069686 215.339045 l
32.069686 215.339045 32.069686 218.511628 l
32.069686 218.511628 23.916376 218.511628 l
23.916376 218.511628 23.916376 221.287638 l
23.916376 221.287638 32.069686 221.287638 l
32.069686 221.287638 32.069686 224.460220 l
32.069686 224.460220 23.916376 224.460220 l
23.916376 224.460220 23.916376 227.236230 l
23.916376 227.236230 32.069686 227.236230 l
32.069686 227.236230 32.069686 230.408813 l
32.069686 230.408813 23.916376 230.408813 l
23.916376 230.408813 23.916376 233.184823 l
23.916376 233.184823 32.069686 233.184823 l
32.069686 233.184823 32.069686 236.357405 l
32.069686 236.357405 23.916376 236.357405 l
23.916376 236.357405 23.916376 239.133415 l
23.916376 239.133415 32.069686 239.133415 l
32.069686 239.133415 32.069686 241.909425 l
32.069686 241.909425 23.916376 241.909425 l
23.916376 241.909425 23.916376 245.082007 l
23.916376 245.082007 32.069686 245.082007 l
32.069686 245.082007 32.069686 247.858017 l
32.069686 247.858017 23.916376 247.858017 l
23.916376 247.858017 23.916376 251.030600 l
23.916376 251.030600 32.069686 251.030600 l
32.069686 251.030600 32.069686 253.806610 l
32.069686 253.806610 23.916376 253.806610 l
23.916376 253.806610 23.916376 256.979192 l
23.916376 256.979192 32.069686 256.979192 l
32.069686 256.979192 32.069686 259.755202 l
32.069686 259.755202 23.916376 259.755202 l
23.916376 259.755202 23.916376 262.927785 l
23.916376 262.927785 32.069686 262.927785 l
32.069686 262.927785 32.069686 265.703794 l
32.069686 265.703794 23.916376 265.703794 l
23.916376 265.703794 23.916376 268.876377 l
23.916376 268.876377 32.069686 268.876377 l
32.069686 268.876377 32.069686 271.652387 l
32.069686 271.652387 23.916376 271.652387 l
23.916376 271.652387 23.916376 274.428397 l
23.916376 274.428397 32.069686 274.428397 l
32.069686 274.428397 32.069686 277.600979 l
32.069686 277.600979 23.916376 277.600979 l
23.916376 277.600979 23.916376 280.376989 l
23.916376 280.376989 32.069686 280.376989 l
32.069686 280.376989 32.069686 283.549572 l
32.069686 283.549572 23.916376 283.549572 l
23.916376 283.549572 23.916376 286.325581 l
23.916376 286.325581 32.069686 286.325581 l
32.069686 286.325581 32.069686 289.498164 l
32.069686 289.498164 23.916376 289.498164 l
23.916376 289.498164 23.916376 292.274174 l
23.916376 292.274174 32.069686 292.274174 l
32.069686 292.274174 32.069686 295.446756 l
32.069686 295.446756 23.916376 295.446756 l
23.916376 295.446756 23.916376 298.222766 l
23.916376 298.222766 32.069686 298.222766 l
32.069686 298.222766 32.069686 300.998776 l
32.069686 300.998776 23.916376 300.998776 l
23.916376 300.998776 23.916376 304.171359 l
23.916376 304.171359 32.069686 304.171359 l
32.069686 304.171359 32.069686 306.947368 l
32.069686 306.947368 23.916376 306.947368 l
23.916376 306.947368 23.916376 310.119951 l
23.916376 310.119951 32.069686 310.119951 l
32.069686 310.119951 32.069686 312.895961 l
32.069686 312.895961 23.916376 312.895961 l
23.916376 312.895961 23.916376 316.068543 l
23.916376 316.068543 32.069686 316.068543 l
32.069686 316.068543 32.069686 318.844553 l
32.069686 318.844553 23.916376 318.844553 l
23.916376 318.844553 23.916376 322.017136 l
23.916376 322.017136 32.069686 322.017136 l
32.069686 322.017136 32.069686 324.793146 l
32.069686 324.793146 23.916376 324.793146 l
23.916376 324.793146 23.916376 327.965728 l
23.916376 327.965728 32.069686 327.965728 l
32.069686 327.965728 32.069686 330.741738 l
32.069686 330.741738 23.916376 330.741738 l
23.916376 330.741738 23.916376 333.517748 l
23.916376 333.517748 32.069686 333.517748 l
32.069686 333.517748 32.069686 336.690330 l
32.069686 336.690330 23.916376 336.690330 l
23.916376 336.690330 23.916376 339.466340 l
23.916376 339.466340 32.069686 339.466340 l
32.069686 339.466340 32.069686 342.638923 l
32.069686 342.638923 23.916376 342.638923 l
23.916376 342.638923 23.916376 345.414933 l
23.916376 345.414933 32.069686 345.414933 l
32.069686 345.414933 32.069686 348.587515 l
32.069686 348.587515 23.916376 348.587515 l
23.916376 348.587515 23.916376 351.363525 l
23.916376 351.363525 32.069686 351.363525 l
32.069686 351.363525 32.069686 354.536108 l
32.069686 354.536108 23.916376 354.536108 l
23.916376 354.536108 23.916376 357.312118 l
23.916376 357.312118 32.069686 357.312118 l
32.069686 357.312118 32.069686 360.088127 l
32.069686 360.088127 23.916376 360.088127 l
23.916376 360.088127 23.916376 363.260710 l
23.916376 363.260710 32.069686 363.260710 l
32.069686 363.260710 32.069686 366.036720 l
32.069686 366.036720 23.916376 366.036720 l
23.916376 366.036720 23.916376 369.209302 l
23.916376 369.209302 32.069686 369.209302 l
32.069686 369.209302 32.069686 371.985312 l
32.069686 371.985312 23.916376 371.985312 l
23.916376 371.985312 23.916376 375.157895 l
23.916376 375.157895 32.069686 375.157895 l
32.069686 375.157895 32.069686 377.933905 l
32.069686 377.933905 23.916376 377.933905 l
23.916376 377.933905 23.916376 381.106487 l
23.916376 381.106487 32.069686 381.106487 l
32.069686 381.106487 32.069686 383.882497 l
32.069686 383.882497 23.916376 383.882497 l
23.916376 383.882497 23.916376 387.055080 l
23.916376 387.055080 32.069686 387.055080 l
32.069686 387.055080 32.069686 389.831089 l
32.069686 389.831089 23.916376 389.831089 l
23.916376 389.831089 23.916376 392.607099 l
23.916376 392.607099 32.069686 392.607099 l
32.069686 392.607099 32.069686 395.779682 l
32.069686 395.779682 23.916376 395.779682 l
23.916376 395.779682 23.916376 398.555692 l
23.916376 398.555692 32.069686 398.555692 l
32.069686 398.555692 32.069686 401.728274 l
32.069686 401.728274 23.916376 401.728274 l
23.916376 401.728274 23.916376 404.504284 l
23.916376 404.504284 32.069686 404.504284 l
32.069686 404.504284 32.069686 407.676867 l
32.069686 407.676867 23.916376 407.676867 l
23.916376 407.676867 23.916376 410.452876 l
23.916376 410.452876 32.069686 410.452876 l
32.069686 410.452876 32.069686 413.625459 l
32.069686 413.625459 23.916376 413.625459 l
23.916376 413.625459 23.916376 416.401469 l
23.916376 416.401469 32.069686 416.401469 l
32.069686 416.401469 32.069686 419.177479 l
32.069686 419.177479 23.916376 419.177479 l
23.916376 419.177479 23.916376 422.350061 l
23.916376 422.350061 32.069686 422.350061 l
32.069686 422.350061 32.069686 425.126071 l
32.069686 425.126071 23.916376 425.126071 l
23.916376 425.126071 23.916376 428.298654 l
23.916376 428.298654 32.069686 428.298654 l
32.069686 428.298654 32.069686 431.074663 l
32.069686 431.074663 23.916376 431.074663 l
23.916376 431.074663 23.916376 434.247246 l
23.916376 434.247246 32.069686 434.247246 l
32.069686 434.247246 32.069686 437.023256 l
32.069686 437.023256 23.916376 437.023256 l
23.916376 437.023256 23.916376 440.195838 l
23.916376 440.195838 32.069686 440.195838 l
32.069686 440.195838 32.069686 442.971848 l
32.069686 442.971848 23.916376 442.971848 l
23.916376 442.971848 23.916376 446.144431 l
23.916376 446.144431 32.069686 446.144431 l
32.069686 446.144431 32.069686 448.920441 l
32.069686 448.920441 23.916376 448.920441 l
23.916376 448.920441 23.916376 451.696450 l
23.916376 451.696450 32.069686 451.696450 l
32.069686 451.696450 32.069686 454.869033 l
32.069686 454.869033 23.916376 454.869033 l
23.916376 454.869033 23.916376 457.645043 l
23.916376 457.645043 32.069686 457.645043 l
32.069686 457.645043 32.069686 460.817625 l
32.069686 460.817625 23.916376 460.817625 l
23.916376 460.817625 23.916376 463.593635 l
23.916376 463.593635 32.069686 463.593635 l
32.069686 463.593635 32.069686 466.766218 l
32.069686 466.766218 23.916376 466.766218 l
23.916376 466.766218 23.916376 469.542228 l
23.916376 469.542228 32.069686 469.542228 l
32.069686 469.542228 32.069686 472.714810 l
32.069686 472.714810 23.916376 472.714810 l
23.916376 472.714810 23.916376 475.490820 l
23.916376 475.490820 32.069686 475.490820 l
32.069686 475.490820 32.069686 478.266830 l
32.069686 478.266830 23.916376 478.266830 l
23.916376 478.266830 23.916376 481.439412 l
23.916376 481.439412 32.069686 481.439412 l
32.069686 481.439412 32.069686 484.215422 l
32.069686 484.215422 23.916376 484.215422 l
23.916376 484.215422 23.916376 487.388005 l
23.916376 487.388005 32.069686 487.388005 l
32.069686 487.388005 32.069686 490.164015 l
32.069686 490.164015 23.916376 490.164015 l
23.916376 490.164015 23.916376 493.336597 l
23.916376 493.336597 32.069686 493.336597 l
32.069686 493.336597 32.069686 496.112607 l
32.069686 496.112607 23.916376 496.112607 l
23.916376 496.112607 23.916376 499.285190 l
23.916376 499.285190 32.069686 499.285190 l
32.069686 499.285190 32.069686 502.061200 l
32.069686 502.061200 23.916376 502.061200 l
23.916376 502.061200 23.916376 505.233782 l
23.916376 505.233782 32.069686 505.233782 l
32.069686 505.233782 32.069686 508.009792 l
32.069686 508.009792 23.916376 508.009792 l
23.916376 508.009792 23.916376 510.785802 l
23.916376 510.785802 32.069686 510.785802 l
32.069686 510.785802 32.069686 513.958384 l
32.069686 513.958384 23.916376 513.958384 l
23.916376 513.958384 23.916376 516.734394 l
23.916376 516.734394 32.069686 516.734394 l
32.069686 516.734394 32.069686 519.906977 l
32.069686 519.906977 23.916376 519.906977 l
23.916376 519.906977 23.916376 522.682987 l
23.916376 522.682987 32.069686 522.682987 l
32.069686 522.682987 32.069686 525.855569 l
32.069686 525.855569 23.916376 525.855569 l
23.916376 525.855569 23.916376 528.631579 l
23.916376 528.631579 32.069686 528.631579 l
32.069686 528.631579 32.069686 531.804162 l
32.069686 531.804162 23.916376 531.804162 l
23.916376 531.804162 23.916376 534.580171 l
23.916376 534.580171 32.069686 534.580171 l
32.069686 534.580171 32.069686 537.752754 l
32.069686 537.752754 23.916376 537.752754 l
23.916376 537.752754 23.916376 540.528764 l
23.916376 540.528764 32.069686 540.528764 l
32.069686 540.528764 32.069686 543.304774 l
32.069686 543.304774 23.916376 543.304774 l
23.916376 543.304774 23.916376 546.477356 l
23.916376 546.477356 32.069686 546.477356 l
32.069686 546.477356 32.069686 549.253366 l
32.069686 549.253366 23.916376 549.253366 l
23.916376 549.253366 23.916376 552.425949 l
23.916376 552.425949 32.069686 552.425949 l
32.069686 552.425949 32.069686 555.201958 l
32.069686 555.201958 23.916376 555.201958 l
23.916376 555.201958 23.916376 558.374541 l
23.916376 558.374541 32.069686 558.374541 l
32.069686 558.374541 32.069686 561.150551 l
32.069686 561.150551 23.916376 561.150551 l
23.916376 561.150551 23.916376 564.323133 l
23.916376 564.323133 32.069686 564.323133 l
32.069686 564.323133 32.069686 567.099143 l
32.069686 567.099143 23.916376 567.099143 l
23.916376 567.099143 23.916376 569.875153 l
23.916376 569.875153 32.069686 569.875153 l
32.069686 569.875153 32.069686 573.047736 l
32.069686 573.047736 23.916376 573.047736 l
23.916376 573.047736 23.916376 575.823745 l
23.916376 575.823745 32.069686 575.823745 l
32.069686 575.823745 32.069686 578.996328 l
32.069686 578.996328 23.916376 578.996328 l
23.916376 578.996328 23.916376 581.772338 l
23.916376 581.772338 32.069686 581.772338 l
32.069686 581.772338 32.069686 584.944920 l
32.069686 584.944920 23.916376 584.944920 l
23.916376 584.944920 23.916376 587.720930 l
23.916376 587.720930 32.069686 587.720930 l
32.069686 587.720930 32.069686 590.893513 l
32.069686 590.893513 23.916376 590.893513 l
23.916376 590.893513 23.916376 593.669523 l
23.916376 593.669523 32.069686 593.669523 l
32.069686 593.669523 32.069686 596.842105 l
32.069686 596.842105 23.916376 596.842105 l
23.916376 596.842105 23.916376 599.618115 l
23.916376 599.618115 32.069686 599.618115 l
32.069686 599.618115 32.069686 602.394125 l
32.069686 602.394125 23.916376 602.394125 l
23.916376 602.394125 23.916376 605.566707 l
23.916376 605.566707 32.069686 605.566707 l
32.069686 605.566707 32.069686 608.342717 l
32.069686 608.342717 23.916376 608.342717 l
23.916376 608.342717 23.916376 610.722154 l
0.750000 setgray
44.571429 0.000000 44.571429 610.325581 l
0.000000 setgray
43.484321 0.000000 43.484321 295.446756 l
43.484321 295.446756 35.331010 295.446756 l
35.331010 295.446756 35.331010 442.971848 l
35.331010 442.971848 43.484321 442.971848 l
43.484321 442.971848 43.484321 610.722154 l
0.750000 setgray
55.986063 0.000000 55.986063 610.325581 l
0.000000 setgray
54.898955 0.000000 46.745645 0.000000 l
46.745645 0.000000 46.745645 442.971848 l
46.745645 442.971848 54.898955 442.971848 l
54.898955 442.971848 54.898955 610.722154 l
0.750000 setgray
67.400697 0.000000 67.400697 610.325581 l
0.000000 setgray
66.313589 -0.396573 61.965157 0.000000 l
61.965157 0.000000 58.160279 -0.396573 l
66.313589 0.396573 61.965157 0.000000 l
61.965157 0.000000 58.160279 0.396573 l
66.313589 0.793146 66.313589 4.758874 l
58.160279 0.793146 58.160279 4.758874 l
save
64.139373 0.793146 moveto
0.782718 0.380710 scale
90 rotate
(0) show
restore
66.313589 5.155447 61.965157 5.552020 l
61.965157 5.552020 58.160279 5.155447 l
66.313589 5.948592 61.965157 5.552020 l
61.965157 5.552020 58.160279 5.948592 l
66.313589 6.345165 66.313589 10.707466 l
58.160279 6.345165 58.160279 10.707466 l
save
64.139373 6.345165 moveto
0.782718 0.380710 scale
90 rotate
(9) show
restore
66.313589 10.707466 58.160279 12.293758 l
66.313589 12.293758 58.160279 10.707466 l
66.313589 12.293758 66.313589 16.656059 l
58.160279 12.293758 58.160279 16.656059 l
save
64.139373 12.293758 moveto
0.782718 0.380710 scale
90 rotate
(C) show
restore
66.313589 16.656059 58.160279 18.242350 l
66.313589 18.242350 58.160279 16.656059 l
66.313589 18.242350 66.313589 22.604651 l
58.160279 18.242350 58.160279 22.604651 l
save
64.139373 18.242350 moveto
0.782718 0.380710 scale
90 rotate
(6) show
restore
66.313589 22.604651 58.160279 24.190942 l
66.313589 24.190942 58.160279 22.604651 l
66.313589 24.190942 66.313589 28.553244 l
58.160279 24.190942 58.160279 28.553244 l
save
64.139373 24.190942 moveto
0.782718 0.380710 scale
90 rotate
(3) show
restore
66.313589 28.553244 58.160279 30.139535 l
66.313589 30.139535 58.160279 28.553244 l
66.313589 30.139535 66.313589 34.501836 l
58.160279 30.139535 58.160279 34.501836 l
save
64.139373 30.139535 moveto
0.782718 0.380710 scale
90 rotate
(9) show
restore
66.313589 34.501836 58.160279 36.088127 l
66.313589 36.088127 58.160279 34.501836 l
66.313589 36.088127 66.313589 40.450428 l
58.160279 36.088127 58.160279 40.450428 l
save
64.139373 36.088127 moveto
0.782718 0.380710 scale
90 rotate
(C) show
restore
66.313589 40.450428 58.160279 42.036720 l
66.313589 42.036720 58.160279 40.450428 l
66.313589 42.036720 66.313589 46.399021 l
58.160279 42.036720 58.160279 46.399021 l
save
64.139373 42.036720 moveto
0.782718 0.380710 scale
90 rotate
(6) show
restore
66.313589 46.399021 58.160279 47.985312 l
66.313589 47.985312 58.160279 46.399021 l
66.313589 47.985312 66.313589 52.347613 l
58.160279 47.985312 58.160279 52.347613 l
save
64.139373 47.985312 moveto
0.782718 0.380710 scale
90 rotate
(3) show
restore
66.313589 52.347613 58.160279 53.933905 l
66.313589 53.933905 58.160279 52.347613 l
66.313589 53.933905 66.313589 58.296206 l
58.160279 53.933905 58.160279 58.296206 l
save
64.139373 53.933905 moveto
0.782718 0.380710 scale
90 rotate
(9) show
restore
66.313589 58.296206 58.160279 59.882497 l
66.313589 59.882497 58.160279 58.296206 l
66.313589 59.882497 66.313589 63.848225 l
58.160279 59.882497 58.160279 63.848225 l
save
64.139373 59.882497 moveto
0.782718 0.380710 scale
90 rotate
(C) show
restore
66.313589 63.848225 58.160279 65.434517 l
66.313589 65.434517 58.160279 63.848225 l
66.313589 65.434517 66.313589 69.796818 l
58.160279 65.434517 58.160279 69.796818 l
save
64.139373 65.434517 moveto
0.782718 0.380710 scale
90 rotate
(6) show
restore
66.313589 69.796818 58.160279 71.383109 l
66.313589 71.383109 58.160279 69.796818 l
66.313589 71.383109 66.313589 75.745410 l
58.160279 71.383109 58.160279 75.745410 l
save
64.139373 71.383109 moveto
0.782718 0.380710 scale
90 rotate
(3) show
restore
66.313589 75.745410 58.160279 77.331701 l
66.313589 77.331701 58.160279 75.745410 l
66.313589 77.331701 66.313589 81.694002 l
58.160279 77.331701 58.160279 81.694002 l
save
64.139373 77.331701 moveto
0.782718 0.380710 scale
90 rotate
(9) show
restore
66.313589 81.694002 58.160279 83.280294 l
66.313589 83.280294 58.160279 81.694002 l
66.313589 83.280294 66.313589 87.642595 l
58.160279 83.280294 58.160279 87.642595 l
save
64.139373 83.280294 moveto
0.782718 0.380710 scale
90 rotate
(C) show
restore
66.313589 87.642595 58.160279 89.228886 l
66.313589 89.228886 58.160279 87.642595 l
66.313589 89.228886 66.313589 93.591187 l
58.160279 89.228886 58.160279 93.591187 l
save
64.139373 89.228886 moveto
0.782718 0.380710 scale
90 rotate
(6) show
restore
66.313589 93.591187 58.160279 95.177479 l
66.313589 95.177479 58.160279 93.591187 l
66.313589 95.177479 66.313589 99.539780 l
58.160279 95.177479 58.160279 99.539780 l
save
64.139373 95.177479 moveto
0.782718 0.380710 scale
90 rotate
(3) show
restore
66.313589 99.539780 58.160279 101.126071 l
66.313589 101.126071 58.160279 99.539780 l
66.313589 101.126071 66.313589 105.488372 l
58.160279 101.126071 58.160279 105.488372 l
save
64.139373 101.126071 moveto
0.782718 0.380710 scale
90 rotate
(9) show
restore
66.313589 105.488372 58.160279 107.074663 l
66.313589 107.074663 58.160279 105.488372 l
66.313589 107.074663 66.313589 111.436965 l
58.160279 107.074663 58.160279 111.436965 l
save
64.139373 107.074663 moveto
0.782718 0.380710 scale
90 rotate
(C) show
restore
66.313589 111.436965 58.160279 113.023256 l
66.313589 113.023256 58.160279 111.436965 l
66.313589 113.023256 66.313589 117.385557 l
58.160279 113.023256 58.160279 117.385557 l
save
64.139373 113.023256 moveto
0.782718 0.380710 scale
90 rotate
(6) show
restore
66.313589 117.385557 58.160279 118.971848 l
66.313589 118.971848 58.160279 117.385557 l
66.313589 118.971848 66.313589 122.937576 l
58.160279 118.971848 58.160279 122.937576 l
save
64.139373 118.971848 moveto
0.782718 0.380710 scale
90 rotate
(3) show
restore
66.313589 122.937576 58.160279 124.523868 l
66.313589 124.523868 58.160279 122.937576 l
66.313589 124.523868 66.313589 128.886169 l
58.160279 124.523868 58.160279 128.886169 l
save
64.139373 124.523868 moveto
0.782718 0.380710 scale
90 rotate
(9) show
restore
66.313589 128.886169 58.160279 130.472460 l
66.313589 130.472460 58.160279 128.886169 l
66.313589 130.472460 66.313589 134.834761 l
58.160279 130.472460 58.160279 134.834761 l
save
64.139373 130.472460 moveto
0.782718 0.380710 scale
90 rotate
(C) show
restore
66.313589 134.834761 58.160279 136.421053 l
66.313589 136.421053 58.160279 134.834761 l
66.313589 136.421053 66.313589 140.783354 l
58.160279 136.421053 58.160279 140.783354 l
save
64.139373 136.421053 moveto
0.782718 0.380710 scale
90 rotate
(6) show
restore
66.313589 140.783354 58.160279 142.369645 l
66.313589 142.369645 58.160279 140.783354 l
66.313589 142.369645 66.313589 146.731946 l
58.160279 142.369645 58.160279 146.731946 l
save
64.139373 142.369645 moveto
0.782718 0.380710 scale
90 rotate
(3) show
restore
66.313589 146.731946 58.160279 148.318237 l
66.313589 148.318237 58.160279 146.731946 l
66.313589 148.318237 66.313589 152.680539 l
58.160279 148.318237 58.160279 152.680539 l
save
64.139373 148.318237 moveto
0.782718 0.380710 scale
90 rotate
(9) show
restore
66.313589 152.680539 58.160279 154.266830 l
66.313589 154.266830 58.160279 152.680539 l
66.313589 154.266830 66.313589 158.629131 l
58.160279 154.266830 58.160279 158.629131 l
save
64.139373 154.266830 moveto
0.782718 0.380710 scale
90 rotate
(C) show
restore
66.313589 158.629131 58.160279 160.215422 l
66.313589 160.215422 58.160279 158.629131 l
66.313589 160.215422 66.313589 164.577723 l
58.160279 160.215422 58.160279 164.577723 l
save
64.139373 160.215422 moveto
0.782718 0.380710 scale
90 rotate
(6) show
restore
66.313589 164.577723 58.160279 166.164015 l
66.313589 166.164015 58.160279 164.577723 l
66.313589 166.164015 66.313589 170.526316 l
58.160279 166.164015 58.160279 170.526316 l
save
64.139373 166.164015 moveto
0.782718 0.380710 scale
90 rotate
(3) show
restore
66.313589 170.526316 58.160279 172.112607 l
66.313589 172.112607 58.160279 170.526316 l
66.313589 172.112607 66.313589 176.474908 l
58.160279 172.112607 58.160279 176.474908 l
save
64.139373 172.112607 moveto
0.782718 0.380710 scale
90 rotate
(9) show
restore
66.313589 176.474908 58.160279 178.061200 l
66.313589 178.061200 58.160279 176.474908 l
66.313589 178.061200 66.313589 182.026928 l
58.160279 178.061200 58.160279 182.026928 l
save
64.139373 178.061200 moveto
0.782718 0.380710 scale
90 rotate
(C) show
restore
66.313589 182.026928 58.160279 183.613219 l
66.313589 183.613219 58.160279 182.026928 l
66.313589 183.613219 66.313589 187.975520 l
58.160279 183.613219 58.160279 187.975520 l
save
64.139373 183.613219 moveto
0.782718 0.380710 scale
90 rotate
(6) show
restore
66.313589 187.975520 58.160279 189.561812 l
66.313589 189.561812 58.160279 187.975520 l
66.313589 189.561812 66.313589 193.924113 l
58.160279 189.561812 58.160279 193.924113 l
save
64.139373 189.561812 moveto
0.782718 0.380710 scale
90 rotate
(3) show
restore
66.313589 193.924113 58.160279 195.510404 l
66.313589 195.510404 58.160279 193.924113 l
66.313589 195.510404 66.313589 199.872705 l
58.160279 195.510404 58.160279 199.872705 l
save
64.139373 195.510404 moveto
0.782718 0.380710 scale
90 rotate
(9) show
restore
66.313589 199.872705 58.160279 201.458996 l
66.313589 201.458996 58.160279 199.872705 l
66.313589 201.458996 66.313589 205.821297 l
58.160279 201.458996 58.160279 205.821297 l
save
64.139373 201.458996 moveto
0.782718 0.380710 scale
90 rotate
(C) show
restore
66.313589 205.821297 58.160279 207.407589 l
66.313589 207.407589 58.160279 205.821297 l
66.313589 207.407589 66.313589 211.769890 l
58.160279 207.407589 58.160279 211.769890 l
save
64.139373 207.407589 moveto
0.782718 0.380710 scale
90 rotate
(6) show
restore
66.313589 211.769890 58.160279 213.356181 l
66.313589 213.356181 58.160279 211.769890 l
66.313589 213.356181 66.313589 217.718482 l
58.160279 213.356181 58.160279 217.718482 l
save
64.139373 213.356181 moveto
0.782718 0.380710 scale
90 rotate
(3) show
restore
66.313589 217.718482 58.160279 219.304774 l
66.313589 219.304774 58.160279 217.718482 l
66.313589 219.304774 66.313589 223.667075 l
58.160279 219.304774 58.160279 223.667075 l
save
64.139373 219.304774 moveto
0.782718 0.380710 scale
90 rotate
(9) show
restore
66.313589 223.667075 58.160279 225.253366 l
66.313589 225.253366 58.160279 223.667075 l
66.313589 225.253366 66.313589 229.615667 l
58.160279 225.253366 58.160279 229.615667 l
save
64.139373 225.253366 moveto
0.782718 0.380710 scale
90 rotate
(C) show
restore
66.313589 229.615667 58.160279 231.201958 l
66.313589 231.201958 58.160279 229.615667 l
66.313589 231.201958 66.313589 235.564259 l
58.160279 231.201958 58.160279 235.564259 l
save
64.139373 231.201958 moveto
0.782718 0.380710 scale
90 rotate
(6) show
restore
66.313589 235.564259 58.160279 237.150551 l
66.313589 237.150551 58.160279 235.564259 l
66.313589 237.150551 66.313589 241.116279 l
58.160279 237.150551 58.160279 241.116279 l
save
64.139373 237.150551 moveto
0.782718 0.380710 scale
90 rotate
(3) show
restore
66.313589 241.116279 58.160279 242.702570 l
66.313589 242.702570 58.160279 241.116279 l
66.313589 242.702570 66.313589 247.064871 l
58.160279 242.702570 58.160279 247.064871 l
save
64.139373 242.702570 moveto
0.782718 0.380710 scale
90 rotate
(9) show
restore
66.313589 247.064871 58.160279 248.651163 l
66.313589 248.651163 58.160279 247.064871 l
66.313589 248.651163 66.313589 253.013464 l
58.160279 248.651163 58.160279 253.013464 l
save
64.139373 248.651163 moveto
0.782718 0.380710 scale
90 rotate
(C) show
restore
66.313589 253.013464 58.160279 254.599755 l
66.313589 254.599755 58.160279 253.013464 l
66.313589 254.599755 66.313589 258.962056 l
58.160279 254.599755 58.160279 258.962056 l
save
64.139373 254.599755 moveto
0.782718 0.380710 scale
90 rotate
(6) show
restore
66.313589 258.962056 58.160279 260.548348 l
66.313589 260.548348 58.160279 258.962056 l
66.313589 260.548348 66.313589 264.910649 l
58.160279 260.548348 58.160279 264.910649 l
save
64.139373 260.548348 moveto
0.782718 0.380710 scale
90 rotate
(3) show
restore
66.313589 264.910649 58.160279 266.496940 l
66.313589 266.496940 58.160279 264.910649 l
66.313589 266.496940 66.313589 270.859241 l
58.160279 266.496940 58.160279 270.859241 l
save
64.139373 266.496940 moveto
0.782718 0.380710 scale
90 rotate
(9) show
restore
66.313589 270.859241 58.160279 272.445532 l
66.313589 272.445532 58.160279 270.859241 l
66.313589 272.445532 66.313589 276.807834 l
58.160279 272.445532 58.160279 276.807834 l
save
64.139373 272.445532 moveto
0.782718 0.380710 scale
90 rotate
(C) show
restore
66.313589 276.807834 58.160279 278.394125 l
66.313589 278.394125 58.160279 276.807834 l
66.313589 278.394125 66.313589 282.756426 l
58.160279 278.394125 58.160279 282.756426 l
save
64.139373 278.394125 moveto
0.782718 0.380710 scale
90 rotate
(6) show
restore
66.313589 282.756426 58.160279 284.342717 l
66.313589 284.342717 58.160279 282.756426 l
66.313589 284.342717 66.313589 288.705018 l
58.160279 284.342717 58.160279 288.705018 l
save
64.139373 284.342717 moveto
0.782718 0.380710 scale
90 rotate
(3) show
restore
66.313589 288.705018 58.160279 290.291310 l
66.313589 290.291310 58.160279 288.705018 l
66.313589 290.291310 66.313589 294.653611 l
58.160279 290.291310 58.160279 294.653611 l
save
64.139373 290.291310 moveto
0.782718 0.380710 scale
90 rotate
(9) show
restore
66.313589 295.050184 61.965157 295.446756 l
61.965157 295.446756 58.160279 295.050184 l
66.313589 295.843329 61.965157 295.446756 l
61.965157 295.446756 58.160279 295.843329 l
66.313589 296.239902 66.313589 442.178703 l
58.160279 296.239902 58.160279 442.178703 l
save
64.139373 296.239902 moveto
0.782718 0.380710 scale
90 rotate
(0) show
restore
66.313589 442.575275 61.965157 442.971848 l
61.965157 442.971848 58.160279 442.575275 l
66.313589 443.368421 61.965157 442.971848 l
61.965157 442.971848 58.160279 443.368421 l
66.313589 443.764994 66.313589 448.127295 l
58.160279 443.764994 58.160279 448.127295 l
save
64.139373 443.764994 moveto
0.782718 0.380710 scale
90 rotate
(3) show
restore
66.313589 448.127295 58.160279 449.713586 l
66.313589 449.713586 58.160279 448.127295 l
66.313589 449.713586 66.313589 454.075887 l
58.160279 449.713586 58.160279 454.075887 l
save
64.139373 449.713586 moveto
0.782718 0.380710 scale
90 rotate
(6) show
restore
66.313589 454.075887 58.160279 455.662179 l
66.313589 455.662179 58.160279 454.075887 l
66.313589 455.662179 66.313589 460.024480 l
58.160279 455.662179 58.160279 460.024480 l
save
64.139373 455.662179 moveto
0.782718 0.380710 scale
90 rotate
(C) show
restore
66.313589 460.024480 58.160279 461.610771 l
66.313589 461.610771 58.160279 460.024480 l
66.313589 461.610771 66.313589 465.973072 l
58.160279 461.610771 58.160279 465.973072 l
save
64.139373 461.610771 moveto
0.782718 0.380710 scale
90 rotate
(9) show
restore
66.313589 465.973072 58.160279 467.559364 l
66.313589 467.559364 58.160279 465.973072 l
66.313589 467.559364 66.313589 471.921665 l
58.160279 467.559364 58.160279 471.921665 l
save
64.139373 467.559364 moveto
0.782718 0.380710 scale
90 rotate
(3) show
restore
66.313589 471.921665 58.160279 473.507956 l
66.313589 473.507956 58.160279 471.921665 l
66.313589 473.507956 66.313589 477.473684 l
58.160279 473.507956 58.160279 477.473684 l
save
64.139373 473.507956 moveto
0.782718 0.380710 scale
90 rotate
(6) show
restore
66.313589 477.473684 58.160279 479.059976 l
66.313589 479.059976 58.160279 477.473684 l
66.313589 479.059976 66.313589 483.422277 l
58.160279 479.059976 58.160279 483.422277 l
save
64.139373 479.059976 moveto
0.782718 0.380710 scale
90 rotate
(C) show
restore
66.313589 483.422277 58.160279 485.008568 l
66.313589 485.008568 58.160279 483.422277 l
66.313589 485.008568 66.313589 489.370869 l
58.160279 485.008568 58.160279 489.370869 l
save
64.139373 485.008568 moveto
0.782718 0.380710 scale
90 rotate
(9) show
restore
66.313589 489.370869 58.160279 490.957160 l
66.313589 490.957160 58.160279 489.370869 l
66.313589 490.957160 66.313589 495.319461 l
58.160279 490.957160 58.160279 495.319461 l
save
64.139373 490.957160 moveto
0.782718 0.380710 scale
90 rotate
(3) show
restore
66.313589 495.319461 58.160279 496.905753 l
66.313589 496.905753 58.160279 495.319461 l
66.313589 496.905753 66.313589 501.268054 l
58.160279 496.905753 58.160279 501.268054 l
save
64.139373 496.905753 moveto
0.782718 0.380710 scale
90 rotate
(6) show
restore
66.313589 501.268054 58.160279 502.854345 l
66.313589 502.854345 58.160279 501.268054 l
66.313589 502.854345 66.313589 507.216646 l
58.160279 502.854345 58.160279 507.216646 l
save
64.139373 502.854345 moveto
0.782718 0.380710 scale
90 rotate
(C) show
restore
66.313589 507.216646 58.160279 508.802938 l
66.313589 508.802938 58.160279 507.216646 l
66.313589 508.802938 66.313589 513.165239 l
58.160279 508.802938 58.160279 513.165239 l
save
64.139373 508.802938 moveto
0.782718 0.380710 scale
90 rotate
(9) show
restore
66.313589 513.165239 58.160279 514.751530 l
66.313589 514.751530 58.160279 513.165239 l
66.313589 514.751530 66.313589 519.113831 l
58.160279 514.751530 58.160279 519.113831 l
save
64.139373 514.751530 moveto
0.782718 0.380710 scale
90 rotate
(3) show
restore
66.313589 519.113831 58.160279 520.700122 l
66.313589 520.700122 58.160279 519.113831 l
66.313589 520.700122 66.313589 525.062424 l
58.160279 520.700122 58.160279 525.062424 l
save
64.139373 520.700122 moveto
0.782718 0.380710 scale
90 rotate
(6) show
restore
66.313589 525.062424 58.160279 526.648715 l
66.313589 526.648715 58.160279 525.062424 l
66.313589 526.648715 66.313589 531.011016 l
58.160279 526.648715 58.160279 531.011016 l
save
64.139373 526.648715 moveto
0.782718 0.380710 scale
90 rotate
(C) show
restore
66.313589 531.011016 58.160279 532.597307 l
66.313589 532.597307 58.160279 531.011016 l
66.313589 532.597307 66.313589 536.959608 l
58.160279 532.597307 58.160279 536.959608 l
save
64.139373 532.597307 moveto
0.782718 0.380710 scale
90 rotate
(9) show
restore
66.313589 536.959608 58.160279 538.545900 l
66.313589 538.545900 58.160279 536.959608 l
66.313589 538.545900 66.313589 542.511628 l
58.160279 538.545900 58.160279 542.511628 l
save
64.139373 538.545900 moveto
0.782718 0.380710 scale
90 rotate
(3) show
restore
66.313589 542.511628 58.160279 544.097919 l
66.313589 544.097919 58.160279 542.511628 l
66.313589 544.097919 66.313589 548.460220 l
58.160279 544.097919 58.160279 548.460220 l
save
64.139373 544.097919 moveto
0.782718 0.380710 scale
90 rotate
(6) show
restore
66.313589 548.460220 58.160279 550.046512 l
66.313589 550.046512 58.160279 548.460220 l
66.313589 550.046512 66.313589 554.408813 l
58.160279 550.046512 58.160279 554.408813 l
save
64.139373 550.046512 moveto
0.782718 0.380710 scale
90 rotate
(C) show
restore
66.313589 554.408813 58.160279 555.995104 l
66.313589 555.995104 58.160279 554.408813 l
66.313589 555.995104 66.313589 560.357405 l
58.160279 555.995104 58.160279 560.357405 l
save
64.139373 555.995104 moveto
0.782718 0.380710 scale
90 rotate
(9) show
restore
66.313589 560.357405 58.160279 561.943696 l
66.313589 561.943696 58.160279 560.357405 l
66.313589 561.943696 66.313589 566.305998 l
58.160279 561.943696 58.160279 566.305998 l
save
64.139373 561.943696 moveto
0.782718 0.380710 scale
90 rotate
(3) show
restore
66.313589 566.305998 58.160279 567.892289 l
66.313589 567.892289 58.160279 566.305998 l
66.313589 567.892289 66.313589 572.254590 l
58.160279 567.892289 58.160279 572.254590 l
save
64.139373 567.892289 moveto
0.782718 0.380710 scale
90 rotate
(6) show
restore
66.313589 572.254590 58.160279 573.840881 l
66.313589 573.840881 58.160279 572.254590 l
66.313589 573.840881 66.313589 578.203182 l
58.160279 573.840881 58.160279 578.203182 l
save
64.139373 573.840881 moveto
0.782718 0.380710 scale
90 rotate
(C) show
restore
66.313589 578.203182 58.160279 579.789474 l
66.313589 579.789474 58.160279 578.203182 l
66.313589 579.789474 66.313589 584.151775 l
58.160279 579.789474 58.160279 584.151775 l
save
64.139373 579.789474 moveto
0.782718 0.380710 scale
90 rotate
(9) show
restore
66.313589 584.151775 58.160279 585.738066 l
66.313589 585.738066 58.160279 584.151775 l
66.313589 585.738066 66.313589 590.100367 l
58.160279 585.738066 58.160279 590.100367 l
save
64.139373 585.738066 moveto
0.782718 0.380710 scale
90 rotate
(3) show
restore
66.313589 590.100367 58.160279 591.686659 l
66.313589 591.686659 58.160279 590.100367 l
66.313589 591.686659 66.313589 596.048960 l
58.160279 591.686659 58.160279 596.048960 l
save
64.139373 591.686659 moveto
0.782718 0.380710 scale
90 rotate
(6) show
restore
66.313589 596.048960 58.160279 597.635251 l
66.313589 597.635251 58.160279 596.048960 l
66.313589 597.635251 66.313589 601.600979 l
58.160279 597.635251 58.160279 601.600979 l
save
64.139373 597.635251 moveto
0.782718 0.380710 scale
90 rotate
(C) show
restore
66.313589 601.600979 58.160279 603.187271 l
66.313589 603.187271 58.160279 601.600979 l
66.313589 603.187271 66.313589 607.549572 l
58.160279 603.187271 58.160279 607.549572 l
save
64.139373 603.187271 moveto
0.782718 0.380710 scale
90 rotate
(9) show
restore
66.313589 607.549572 58.160279 609.135863 l
66.313589 609.135863 58.160279 607.549572 l
66.313589 609.135863 66.313589 609.929009 l
58.160279 609.135863 58.160279 609.929009 l
save
64.139373 609.135863 moveto
0.782718 0.380710 scale
90 rotate
(3) show
restore
0.750000 setgray
78.815331 0.000000 78.815331 610.325581 l
0.000000 setgray
77.728223 0.000000 69.574913 0.000000 l
77.728223 0.000000 77.728223 5.552020 l
77.728223 5.552020 69.574913 5.552020 l
69.574913 5.552020 69.574913 17.449204 l
69.574913 17.449204 77.728223 17.449204 l
77.728223 17.449204 77.728223 29.346389 l
77.728223 29.346389 69.574913 29.346389 l
69.574913 29.346389 69.574913 41.243574 l
69.574913 41.243574 77.728223 41.243574 l
77.728223 41.243574 77.728223 53.140759 l
77.728223 53.140759 69.574913 53.140759 l
69.574913 53.140759 69.574913 64.641371 l
69.574913 64.641371 77.728223 64.641371 l
77.728223 64.641371 77.728223 76.538556 l
77.728223 76.538556 69.574913 76.538556 l
69.574913 76.538556 69.574913 88.435741 l
69.574913 88.435741 77.728223 88.435741 l
77.728223 88.435741 77.728223 100.332925 l
77.728223 100.332925 69.574913 100.332925 l
69.574913 100.332925 69.574913 112.230110 l
69.574913 112.230110 77.728223 112.230110 l
77.728223 112.230110 77.728223 123.730722 l
77.728223 123.730722 69.574913 123.730722 l
69.574913 123.730722 69.574913 135.627907 l
69.574913 135.627907 77.728223 135.627907 l
77.728223 135.627907 77.728223 147.525092 l
77.728223 147.525092 69.574913 147.525092 l
69.574913 147.525092 69.574913 159.422277 l
69.574913 159.422277 77.728223 159.422277 l
77.728223 159.422277 77.728223 171.319461 l
77.728223 171.319461 69.574913 171.319461 l
69.574913 171.319461 69.574913 182.820073 l
69.574913 182.820073 77.728223 182.820073 l
77.728223 182.820073 77.728223 194.717258 l
77.728223 194.717258 69.574913 194.717258 l
69.574913 194.717258 69.574913 206.614443 l
69.574913 206.614443 77.728223 206.614443 l
77.728223 206.614443 77.728223 218.511628 l
77.728223 218.511628 69.574913 218.511628 l
69.574913 218.511628 69.574913 230.408813 l
69.574913 230.408813 77.728223 230.408813 l
77.728223 230.408813 77.728223 241.909425 l
77.728223 241.909425 69.574913 241.909425 l
69.574913 241.909425 69.574913 253.806610 l
69.574913 253.806610 77.728223 253.806610 l
77.728223 253.806610 77.728223 265.703794 l
77.728223 265.703794 69.574913 265.703794 l
69.574913 265.703794 69.574913 277.600979 l
69.574913 277.600979 77.728223 277.600979 l
77.728223 277.600979 77.728223 289.498164 l
77.728223 289.498164 69.574913 289.498164 l
69.574913 289.498164 69.574913 295.446756 l
69.574913 295.446756 77.728223 295.446756 l
77.728223 295.446756 77.728223 454.869033 l
77.728223 454.869033 69.574913 454.869033 l
69.574913 454.869033 69.574913 466.766218 l
69.574913 466.766218 77.728223 466.766218 l
77.728223 466.766218 77.728223 478.266830 l
77.728223 478.266830 69.574913 478.266830 l
69.574913 478.266830 69.574913 490.164015 l
69.574913 490.164015 77.728223 490.164015 l
77.728223 490.164015 77.728223 502.061200 l
77.728223 502.061200 69.574913 502.061200 l
69.574913 502.061200 69.574913 513.958384 l
69.574913 513.958384 77.728223 513.958384 l
77.728223 513.958384 77.728223 525.855569 l
77.728223 525.855569 69.574913 525.855569 l
69.574913 525.855569 69.574913 537.752754 l
69.574913 537.752754 77.728223 537.752754 l
77.728223 537.752754 77.728223 549.253366 l
77.728223 549.253366 69.574913 549.253366 l
69.574913 549.253366 69.574913 561.150551 l
69.574913 561.150551 77.728223 561.150551 l
77.728223 561.150551 77.728223 573.047736 l
77.728223 573.047736 69.574913 573.047736 l
69.574913 573.047736 69.574913 584.944920 l
69.574913 584.944920 77.728223 584.944920 l
77.728223 584.944920 77.728223 596.842105 l
77.728223 596.842105 69.574913 596.842105 l
69.574913 596.842105 69.574913 608.342717 l
69.574913 608.342717 77.728223 608.342717 l
77.728223 608.342717 77.728223 610.722154 l
0.750000 setgray
90.229965 0.000000 90.229965 610.325581 l
0.000000 setgray
89.142857 0.000000 80.989547 0.000000 l
89.142857 0.000000 89.142857 11.500612 l
89.142857 11.500612 80.989547 11.500612 l
80.989547 11.500612 80.989547 23.397797 l
80.989547 23.397797 89.142857 23.397797 l
89.142857 23.397797 89.142857 35.294982 l
89.142857 35.294982 80.989547 35.294982 l
80.989547 35.294982 80.989547 47.192166 l
80.989547 47.192166 89.142857 47.192166 l
89.142857 47.192166 89.142857 59.089351 l
89.142857 59.089351 80.989547 59.089351 l
80.989547 59.089351 80.989547 70.589963 l
80.989547 70.589963 89.142857 70.589963 l
89.142857 70.589963 89.142857 82.487148 l
89.142857 82.487148 80.989547 82.487148 l
80.989547 82.487148 80.989547 94.384333 l
80.989547 94.384333 89.142857 94.384333 l
89.142857 94.384333 89.142857 106.281518 l
89.142857 106.281518 80.989547 106.281518 l
80.989547 106.281518 80.989547 118.178703 l
80.989547 118.178703 89.142857 118.178703 l
89.142857 118.178703 89.142857 129.679315 l
89.142857 129.679315 80.989547 129.679315 l
80.989547 129.679315 80.989547 141.576499 l
80.989547 141.576499 89.142857 141.576499 l
89.142857 141.576499 89.142857 153.473684 l
89.142857 153.473684 80.989547 153.473684 l
80.989547 153.473684 80.989547 165.370869 l
80.989547 165.370869 89.142857 165.370869 l
89.142857 165.370869 89.142857 177.268054 l
89.142857 177.268054 80.989547 177.268054 l
80.989547 177.268054 80.989547 188.768666 l
80.989547 188.768666 89.142857 188.768666 l
89.142857 188.768666 89.142857 200.665851 l
89.142857 200.665851 80.989547 200.665851 l
80.989547 200.665851 80.989547 212.563035 l
80.989547 212.563035 89.142857 212.563035 l
89.142857 212.563035 89.142857 224.460220 l
89.142857 224.460220 80.989547 224.460220 l
80.989547 224.460220 80.989547 236.357405 l
80.989547 236.357405 89.142857 236.357405 l
89.142857 236.357405 89.142857 247.858017 l
89.142857 247.858017 80.989547 247.858017 l
80.989547 247.858017 80.989547 259.755202 l
80.989547 259.755202 89.142857 259.755202 l
89.142857 259.755202 89.142857 271.652387 l
89.142857 271.652387 80.989547 271.652387 l
80.989547 271.652387 80.989547 283.549572 l
80.989547 283.549572 89.142857 283.549572 l
89.142857 283.549572 89.142857 448.920441 l
89.142857 448.920441 80.989547 448.920441 l
80.989547 448.920441 80.989547 460.817625 l
80.989547 460.817625 89.142857 460.817625 l
89.142857 460.817625 89.142857 472.714810 l
89.142857 472.714810 80.989547 472.714810 l
80.989547 472.714810 80.989547 484.215422 l
80.989547 484.215422 89.142857 484.215422 l
89.142857 484.215422 89.142857 496.112607 l
89.142857 496.112607 80.989547 496.112607 l
80.989547 496.112607 80.989547 508.009792 l
80.989547 508.009792 89.142857 508.009792 l
89.142857 508.009792 89.142857 519.906977 l
89.142857 519.906977 80.989547 519.906977 l
80.989547 519.906977 80.989547 531.804162 l
80.989547 531.804162 89.142857 531.804162 l
89.142857 531.804162 89.142857 543.304774 l
89.142857 543.304774 80.989547 543.304774 l
80.989547 543.304774 80.989547 555.201958 l
80.989547 555.201958 89.142857 555.201958 l
89.142857 555.201958 89.142857 567.099143 l
89.142857 567.099143 80.989547 567.099143 l
80.989547 567.099143 80.989547 578.996328 l
80.989547 578.996328 89.142857 578.996328 l
89.142857 578.996328 89.142857 590.893513 l
89.142857 590.893513 80.989547 590.893513 l
80.989547 590.893513 80.989547 602.394125 l
80.989547 602.394125 89.142857 602.394125 l
89.142857 602.394125 89.142857 610.722154 l
0.750000 setgray
101.644599 0.000000 101.644599 610.325581 l
0.000000 setgray
100.557491 0.000000 92.404181 0.000000 l
100.557491 0.000000 100.557491 17.449204 l
100.557491 17.449204 92.404181 17.449204 l
92.404181 17.449204 92.404181 29.346389 l
92.404181 29.346389 100.557491 29.346389 l
100.557491 29.346389 100.557491 41.243574 l
100.557491 41.243574 92.404181 41.243574 l
92.404181 41.243574 92.404181 53.140759 l
92.404181 53.140759 100.557491 53.140759 l
100.557491 53.140759 100.557491 64.641371 l
100.557491 64.641371 92.404181 64.641371 l
92.404181 64.641371 92.404181 76.538556 l
92.404181 76.538556 100.557491 76.538556 l
100.557491 76.538556 100.557491 88.435741 l
100.557491 88.435741 92.404181 88.435741 l
92.404181 88.435741 92.404181 100.332925 l
92.404181 100.332925 100.557491 100.332925 l
100.557491 100.332925 100.557491 112.230110 l
100.557491 112.230110 92.404181 112.230110 l
92.404181 112.230110 92.404181 123.730722 l
92.404181 123.730722 100.557491 123.730722 l
100.557491 123.730722 100.557491 135.627907 l
100.557491 135.627907 92.404181 135.627907 l
92.404181 135.627907 92.404181 147.525092 l
92.404181 147.525092 100.557491 147.525092 l
100.557491 147.525092 100.557491 159.422277 l
100.557491 159.422277 92.404181 159.422277 l
92.404181 159.422277 92.404181 171.319461 l
92.404181 171.319461 100.557491 171.319461 l
100.557491 171.319461 100.557491 182.820073 l
100.557491 182.820073 92.404181 182.820073 l
92.404181 182.820073 92.404181 194.717258 l
92.404181 194.717258 100.557491 194.717258 l
100.557491 194.717258 100.557491 206.614443 l
100.557491 206.614443 92.404181 206.614443 l
92.404181 206.614443 92.404181 218.511628 l
92.404181 218.511628 100.557491 218.511628 l
100.557491 218.511628 100.557491 230.408813 l
100.557491 230.408813 92.404181 230.408813 l
92.404181 230.408813 92.404181 241.909425 l
92.404181 241.909425 100.557491 241.909425 l
100.557491 241.909425 100.557491 253.806610 l
100.557491 253.806610 92.404181 253.806610 l
92.404181 253.806610 92.404181 265.703794 l
92.404181 265.703794 100.557491 265.703794 l
100.557491 265.703794 100.557491 277.600979 l
100.557491 277.600979 92.404181 277.600979 l
92.404181 277.600979 92.404181 289.498164 l
92.404181 289.498164 100.557491 289.498164 l
100.557491 289.498164 100.557491 442.971848 l
100.557491 442.971848 92.404181 442.971848 l
92.404181 442.971848 92.404181 454.869033 l
92.404181 454.869033 100.557491 454.869033 l
100.557491 454.869033 100.557491 466.766218 l
100.557491 466.766218 92.404181 466.766218 l
92.404181 466.766218 92.404181 478.266830 l
92.404181 478.266830 100.557491 478.266830 l
100.557491 478.266830 100.557491 490.164015 l
100.557491 490.164015 92.404181 490.164015 l
92.404181 490.164015 92.404181 502.061200 l
92.404181 502.061200 100.557491 502.061200 l
100.557491 502.061200 100.557491 513.958384 l
100.557491 513.958384 92.404181 513.958384 l
92.404181 513.958384 92.404181 525.855569 l
92.404181 525.855569 100.557491 525.855569 l
100.557491 525.855569 100.557491 537.752754 l
100.557491 537.752754 92.404181 537.752754 l
92.404181 537.752754 92.404181 549.253366 l
92.404181 549.253366 100.557491 549.253366 l
100.557491 549.253366 100.557491 561.150551 l
100.557491 561.150551 92.404181 561.150551 l
92.404181 561.150551 92.404181 573.047736 l
92.404181 573.047736 100.557491 573.047736 l
100.557491 573.047736 100.557491 584.944920 l
100.557491 584.944920 92.404181 584.944920 l
92.404181 584.944920 92.404181 596.842105 l
92.404181 596.842105 100.557491 596.842105 l
100.557491 596.842105 100.557491 608.342717 l
100.557491 608.342717 92.404181 608.342717 l
92.404181 608.342717 92.404181 610.722154 l
0.750000 setgray
113.059233 0.000000 113.059233 610.325581 l
0.000000 setgray
111.972125 0.000000 103.818815 0.000000 l
111.972125 0.000000 111.972125 5.552020 l
111.972125 5.552020 103.818815 5.552020 l
103.818815 5.552020 103.818815 11.500612 l
103.818815 11.500612 111.972125 11.500612 l
111.972125 11.500612 111.972125 23.397797 l
111.972125 23.397797 103.818815 23.397797 l
103.818815 23.397797 103.818815 35.294982 l
103.818815 35.294982 111.972125 35.294982 l
111.972125 35.294982 111.972125 47.192166 l
111.972125 47.192166 103.818815 47.192166 l
103.818815 47.192166 103.818815 59.089351 l
103.818815 59.089351 111.972125 59.089351 l
111.972125 59.089351 111.972125 70.589963 l
111.972125 70.589963 103.818815 70.589963 l
103.818815 70.589963 103.818815 82.487148 l
103.818815 82.487148 111.972125 82.487148 l
111.972125 82.487148 111.972125 94.384333 l
111.972125 94.384333 103.818815 94.384333 l
103.818815 94.384333 103.818815 106.281518 l
103.818815 106.281518 111.972125 106.281518 l
111.972125 106.281518 111.972125 118.178703 l
111.972125 118.178703 103.818815 118.178703 l
103.818815 118.178703 103.818815 129.679315 l
103.818815 129.679315 111.972125 129.679315 l
111.972125 129.679315 111.972125 141.576499 l
111.972125 141.576499 103.818815 141.576499 l
103.818815 141.576499 103.818815 153.473684 l
103.818815 153.473684 111.972125 153.473684 l
111.972125 153.473684 111.972125 165.370869 l
111.972125 165.370869 103.818815 165.370869 l
103.818815 165.370869 103.818815 177.268054 l
103.818815 177.268054 111.972125 177.268054 l
111.972125 177.268054 111.972125 188.768666 l
111.972125 188.768666 103.818815 188.768666 l
103.818815 188.768666 103.818815 200.665851 l
103.818815 200.665851 111.972125 200.665851 l
111.972125 200.665851 111.972125 212.563035 l
111.972125 212.563035 103.818815 212.563035 l
103.818815 212.563035 103.818815 224.460220 l
103.818815 224.460220 111.972125 224.460220 l
111.972125 224.460220 111.972125 236.357405 l
111.972125 236.357405 103.818815 236.357405 l
103.818815 236.357405 103.818815 247.858017 l
103.818815 247.858017 111.972125 247.858017 l
111.972125 247.858017 111.972125 259.755202 l
111.972125 259.755202 103.818815 259.755202 l
103.818815 259.755202 103.818815 271.652387 l
103.818815 271.652387 111.972125 271.652387 l
111.972125 271.652387 111.972125 283.549572 l
111.972125 283.549572 103.818815 283.549572 l
103.818815 283.549572 103.818815 295.446756 l
103.818815 295.446756 111.972125 295.446756 l
111.972125 295.446756 111.972125 442.971848 l
111.972125 442.971848 103.818815 442.971848 l
103.818815 442.971848 103.818815 448.920441 l
103.818815 448.920441 111.972125 448.920441 l
111.972125 448.920441 111.972125 460.817625 l
111.972125 460.817625 103.818815 460.817625 l
103.818815 460.817625 103.818815 472.714810 l
103.818815 472.714810 111.972125 472.714810 l
111.972125 472.714810 111.972125 484.215422 l
111.972125 484.215422 103.818815 484.215422 l
103.818815 484.215422 103.818815 496.112607 l
103.818815 496.112607 111.972125 496.112607 l
111.972125 496.112607 111.972125 508.009792 l
111.972125 508.009792 103.818815 508.009792 l
103.818815 508.009792 103.818815 519.906977 l
103.818815 519.906977 111.972125 519.906977 l
111.972125 519.906977 111.972125 531.804162 l
111.972125 531.804162 103.818815 531.804162 l
103.818815 531.804162 103.818815 543.304774 l
103.818815 543.304774 111.972125 543.304774 l
111.972125 543.304774 111.972125 555.201958 l
111.972125 555.201958 103.818815 555.201958 l
103.818815 555.201958 103.818815 567.099143 l
103.818815 567.099143 111.972125 567.099143 l
111.972125 567.099143 111.972125 578.996328 l
111.972125 578.996328 103.818815 578.996328 l
103.818815 578.996328 103.818815 590.893513 l
103.818815 590.893513 111.972125 590.893513 l
111.972125 590.893513 111.972125 602.394125 l
111.972125 602.394125 103.818815 602.394125 l
103.818815 602.394125 103.818815 610.722154 l
grestore
gsave
0.000000 setgray
70.000000 71.000000 542.000000 721.000000 box
stroke
0.500000 setgray
71.000000 72.000000 541.000000 720.000000 box
clip
72 72 translate
1 1 scale
0.5 setlinewidth
stroke
0.750000 setgray
10.871080 0.000000 10.871080 36.881273 l
0.000000 setgray
save
10.871080 1.189718 moveto
1.826341 0.761420 scale
90 rotate
(Time) show
restore
0.950000 setgray
11.414634 0.793146 20.655052 36.484700 box
fill
0.750000 setgray
21.742160 0.000000 21.742160 36.881273 l
0.000000 setgray
save
18.480836 1.189718 moveto
0.782718 0.507613 scale
90 rotate
(clk) show
restore
0.950000 setgray
22.829268 0.793146 32.069686 36.484700 box
fill
0.750000 setgray
33.156794 0.000000 33.156794 36.881273 l
0.000000 setgray
save
29.895470 1.189718 moveto
0.782718 0.507613 scale
90 rotate
(clkdiv) show
restore
0.950000 setgray
34.243902 0.793146 43.484321 36.484700 box
fill
0.750000 setgray
44.571429 0.000000 44.571429 36.881273 l
0.000000 setgray
save
41.310105 1.189718 moveto
0.782718 0.507613 scale
90 rotate
(power) show
restore
0.950000 setgray
45.658537 0.793146 54.898955 36.484700 box
fill
0.750000 setgray
55.986063 0.000000 55.986063 36.881273 l
0.000000 setgray
save
52.724739 1.189718 moveto
0.782718 0.507613 scale
90 rotate
(rotation) show
restore
0.750000 setgray
57.073171 0.793146 66.313589 36.484700 box
fill
0.750000 setgray
67.400697 0.000000 67.400697 36.881273 l
0.000000 setgray
save
64.139373 1.189718 moveto
0.782718 0.507613 scale
90 rotate
(selves[3:0]) show
restore
0.750000 setgray
68.487805 0.793146 77.728223 36.484700 box
fill
0.750000 setgray
78.815331 0.000000 78.815331 36.881273 l
0.000000 setgray
save
75.554007 1.189718 moveto
0.782718 0.507613 scale
90 rotate
(selves[3]) show
restore
0.750000 setgray
79.902439 0.793146 89.142857 36.484700 box
fill
0.750000 setgray
90.229965 0.000000 90.229965 36.881273 l
0.000000 setgray
save
86.968641 1.189718 moveto
0.782718 0.507613 scale
90 rotate
(selves[2]) show
restore
0.750000 setgray
91.317073 0.793146 100.557491 36.484700 box
fill
0.750000 setgray
101.644599 0.000000 101.644599 36.881273 l
0.000000 setgray
save
98.383275 1.189718 moveto
0.782718 0.507613 scale
90 rotate
(selves[1]) show
restore
0.750000 setgray
102.731707 0.793146 111.972125 36.484700 box
fill
0.750000 setgray
113.059233 0.000000 113.059233 36.881273 l
0.000000 setgray
save
109.797909 1.189718 moveto
0.782718 0.507613 scale
90 rotate
(selves[0]) show
restore
grestore showpage
