%!PS-Adobe-2.0 EPSF-1.2
%%BoundingBox: 72 72 540 720
%%Pages: 1
%%EndComments
%%Page: (1) 1
/box { % stack: _x1 _y1 x2 y2
	newpath
	2 copy moveto % x2 y2
	3 index 1 index lineto % _x1 y2
	3 index 3 index lineto % _x1 _y1
	1 index 3 index lineto % x2 _y1
	pop pop pop pop
	closepath
} def
/l { % stack: _x1 _y1 x2 y2
	newpath moveto lineto closepath stroke
} def
/Courier findfont
10 scalefont
setfont
2 setlinecap
gsave
1 1 scale
0.5 setlinewidth
stroke
0.750000 setgray
71.000000 115.623011 541.000000 720.000000 box
clip
72 115.623011 translate stroke
0.750000 setgray
0.000000 0.000000 159.804878 0.000000 l
5.979094 0.000000 5.979094 151.094247 l
5.979094 15.069767 10.327526 15.069767 l
5.979094 30.139535 10.327526 30.139535 l
5.979094 45.209302 10.327526 45.209302 l
5.979094 60.279070 10.327526 60.279070 l
5.979094 75.348837 10.327526 75.348837 l
5.979094 90.418605 10.327526 90.418605 l
5.979094 105.884945 10.327526 105.884945 l
5.979094 120.954712 10.327526 120.954712 l
5.979094 136.024480 10.327526 136.024480 l
0.000000 setgray
save
5.435540 -0.396573 moveto
0.869686 0.190355 scale
90 rotate
(0) show
restore
0.750000 setgray
0.000000 151.094247 159.804878 151.094247 l
5.979094 151.094247 5.979094 302.188494 l
5.979094 166.164015 10.327526 166.164015 l
5.979094 181.233782 10.327526 181.233782 l
5.979094 196.303550 10.327526 196.303550 l
5.979094 211.373317 10.327526 211.373317 l
5.979094 226.443084 10.327526 226.443084 l
5.979094 241.512852 10.327526 241.512852 l
5.979094 256.979192 10.327526 256.979192 l
5.979094 272.048960 10.327526 272.048960 l
5.979094 287.118727 10.327526 287.118727 l
0.000000 setgray
save
5.435540 148.714810 moveto
0.869686 0.190355 scale
90 rotate
(1 ns) show
restore
0.750000 setgray
0.000000 302.188494 159.804878 302.188494 l
5.979094 302.188494 5.979094 453.282742 l
5.979094 317.258262 10.327526 317.258262 l
5.979094 332.328029 10.327526 332.328029 l
5.979094 347.397797 10.327526 347.397797 l
5.979094 362.467564 10.327526 362.467564 l
5.979094 377.537332 10.327526 377.537332 l
5.979094 392.607099 10.327526 392.607099 l
5.979094 408.073439 10.327526 408.073439 l
5.979094 423.143207 10.327526 423.143207 l
5.979094 438.212974 10.327526 438.212974 l
0.000000 setgray
save
5.435540 299.809058 moveto
0.869686 0.190355 scale
90 rotate
(2 ns) show
restore
0.750000 setgray
0.000000 453.679315 159.804878 453.679315 l
5.979094 453.679315 5.979094 604.376989 l
5.979094 468.749082 10.327526 468.749082 l
5.979094 483.818849 10.327526 483.818849 l
5.979094 498.888617 10.327526 498.888617 l
5.979094 513.958384 10.327526 513.958384 l
5.979094 529.028152 10.327526 529.028152 l
5.979094 544.097919 10.327526 544.097919 l
5.979094 559.564259 10.327526 559.564259 l
5.979094 574.634027 10.327526 574.634027 l
5.979094 589.703794 10.327526 589.703794 l
0.000000 setgray
save
5.435540 450.903305 moveto
0.869686 0.190355 scale
90 rotate
(3 ns) show
restore
0.750000 setgray
21.742160 0.000000 21.742160 603.980416 l
0.000000 setgray
20.655052 -0.396573 16.306620 0.000000 l
16.306620 0.000000 12.501742 -0.396573 l
20.655052 0.396573 16.306620 0.000000 l
16.306620 0.000000 12.501742 0.396573 l
20.655052 0.793146 20.655052 603.583843 l
12.501742 0.793146 12.501742 603.583843 l
save
18.480836 0.793146 moveto
0.782718 0.380710 scale
90 rotate
(111) show
restore
0.750000 setgray
33.156794 0.000000 33.156794 603.980416 l
0.000000 setgray
32.069686 -0.396573 27.721254 0.000000 l
27.721254 0.000000 23.916376 -0.396573 l
32.069686 0.396573 27.721254 0.000000 l
27.721254 0.000000 23.916376 0.396573 l
32.069686 0.793146 32.069686 603.583843 l
23.916376 0.793146 23.916376 603.583843 l
save
29.895470 0.793146 moveto
0.782718 0.380710 scale
90 rotate
(110) show
restore
0.750000 setgray
44.571429 0.000000 44.571429 603.980416 l
0.000000 setgray
43.484321 -0.396573 39.135889 0.000000 l
39.135889 0.000000 35.331010 -0.396573 l
43.484321 0.396573 39.135889 0.000000 l
39.135889 0.000000 35.331010 0.396573 l
43.484321 0.793146 43.484321 150.301102 l
35.331010 0.793146 35.331010 150.301102 l
save
41.310105 0.793146 moveto
0.782718 0.380710 scale
90 rotate
(00) show
restore
43.484321 150.697674 39.135889 151.094247 l
39.135889 151.094247 35.331010 150.697674 l
43.484321 151.490820 39.135889 151.094247 l
39.135889 151.094247 35.331010 151.490820 l
43.484321 151.887393 43.484321 301.395349 l
35.331010 151.887393 35.331010 301.395349 l
save
41.310105 151.887393 moveto
0.782718 0.380710 scale
90 rotate
(01) show
restore
43.484321 301.395349 35.331010 302.981640 l
43.484321 302.981640 35.331010 301.395349 l
43.484321 302.981640 43.484321 452.886169 l
35.331010 302.981640 35.331010 452.886169 l
save
41.310105 302.981640 moveto
0.782718 0.380710 scale
90 rotate
(10) show
restore
43.484321 453.282742 39.135889 453.679315 l
39.135889 453.679315 35.331010 453.282742 l
43.484321 454.075887 39.135889 453.679315 l
39.135889 453.679315 35.331010 454.075887 l
43.484321 454.472460 43.484321 603.583843 l
35.331010 454.472460 35.331010 603.583843 l
save
41.310105 454.472460 moveto
0.782718 0.380710 scale
90 rotate
(11) show
restore
0.750000 setgray
55.986063 0.000000 55.986063 603.980416 l
0.000000 setgray
54.898955 -0.396573 50.550523 0.000000 l
50.550523 0.000000 46.745645 -0.396573 l
54.898955 0.396573 50.550523 0.000000 l
50.550523 0.000000 46.745645 0.396573 l
54.898955 0.793146 54.898955 150.301102 l
46.745645 0.793146 46.745645 150.301102 l
save
52.724739 0.793146 moveto
0.782718 0.380710 scale
90 rotate
(6) show
restore
54.898955 150.301102 46.745645 151.887393 l
54.898955 151.887393 46.745645 150.301102 l
54.898955 151.887393 54.898955 301.395349 l
46.745645 151.887393 46.745645 301.395349 l
save
52.724739 151.887393 moveto
0.782718 0.380710 scale
90 rotate
(7) show
restore
54.898955 301.395349 46.745645 302.981640 l
54.898955 302.981640 46.745645 301.395349 l
54.898955 302.981640 54.898955 452.886169 l
46.745645 302.981640 46.745645 452.886169 l
save
52.724739 302.981640 moveto
0.782718 0.380710 scale
90 rotate
(D) show
restore
54.898955 452.886169 46.745645 454.472460 l
54.898955 454.472460 46.745645 452.886169 l
54.898955 454.472460 54.898955 603.583843 l
46.745645 454.472460 46.745645 603.583843 l
save
52.724739 454.472460 moveto
0.782718 0.380710 scale
90 rotate
(E) show
restore
0.750000 setgray
67.400697 0.000000 67.400697 603.980416 l
0.000000 setgray
66.313589 -0.396573 61.965157 0.000000 l
61.965157 0.000000 58.160279 -0.396573 l
66.313589 0.396573 61.965157 0.000000 l
61.965157 0.000000 58.160279 0.396573 l
66.313589 0.793146 66.313589 150.301102 l
58.160279 0.793146 58.160279 150.301102 l
save
64.139373 0.793146 moveto
0.782718 0.380710 scale
90 rotate
(02) show
restore
66.313589 150.301102 58.160279 151.887393 l
66.313589 151.887393 58.160279 150.301102 l
66.313589 151.887393 66.313589 301.395349 l
58.160279 151.887393 58.160279 301.395349 l
save
64.139373 151.887393 moveto
0.782718 0.380710 scale
90 rotate
(78) show
restore
66.313589 301.395349 58.160279 302.981640 l
66.313589 302.981640 58.160279 301.395349 l
66.313589 302.981640 66.313589 452.886169 l
58.160279 302.981640 58.160279 452.886169 l
save
64.139373 302.981640 moveto
0.782718 0.380710 scale
90 rotate
(21) show
restore
66.313589 452.886169 58.160279 454.472460 l
66.313589 454.472460 58.160279 452.886169 l
66.313589 454.472460 66.313589 603.583843 l
58.160279 454.472460 58.160279 603.583843 l
save
64.139373 454.472460 moveto
0.782718 0.380710 scale
90 rotate
(06) show
restore
0.750000 setgray
78.815331 0.000000 78.815331 603.980416 l
0.000000 setgray
77.728223 0.000000 69.574913 0.000000 l
77.728223 0.000000 77.728223 151.094247 l
77.728223 151.094247 69.574913 151.094247 l
69.574913 151.094247 69.574913 302.188494 l
69.574913 302.188494 77.728223 302.188494 l
77.728223 302.188494 77.728223 604.376989 l
0.750000 setgray
90.229965 0.000000 90.229965 603.980416 l
0.000000 setgray
89.142857 0.000000 80.989547 0.000000 l
89.142857 0.000000 89.142857 151.094247 l
89.142857 151.094247 80.989547 151.094247 l
80.989547 151.094247 80.989547 453.679315 l
80.989547 453.679315 89.142857 453.679315 l
89.142857 453.679315 89.142857 604.376989 l
0.750000 setgray
101.644599 0.000000 101.644599 603.980416 l
0.000000 setgray
100.557491 0.000000 92.404181 0.000000 l
100.557491 0.000000 100.557491 151.094247 l
100.557491 151.094247 92.404181 151.094247 l
92.404181 151.094247 92.404181 302.188494 l
92.404181 302.188494 100.557491 302.188494 l
100.557491 302.188494 100.557491 604.376989 l
0.750000 setgray
113.059233 0.000000 113.059233 603.980416 l
0.000000 setgray
111.972125 0.000000 103.818815 0.000000 l
111.972125 0.000000 111.972125 151.094247 l
111.972125 151.094247 103.818815 151.094247 l
103.818815 151.094247 103.818815 302.188494 l
103.818815 302.188494 111.972125 302.188494 l
111.972125 302.188494 111.972125 604.376989 l
0.750000 setgray
124.473868 0.000000 124.473868 603.980416 l
0.000000 setgray
123.386760 0.000000 115.233449 0.000000 l
123.386760 0.000000 123.386760 453.679315 l
123.386760 453.679315 115.233449 453.679315 l
115.233449 453.679315 115.233449 604.376989 l
0.750000 setgray
135.888502 0.000000 135.888502 603.980416 l
0.000000 setgray
134.801394 0.000000 126.648084 0.000000 l
126.648084 0.000000 126.648084 151.094247 l
126.648084 151.094247 134.801394 151.094247 l
134.801394 151.094247 134.801394 453.679315 l
134.801394 453.679315 126.648084 453.679315 l
126.648084 453.679315 126.648084 604.376989 l
0.750000 setgray
147.303136 0.000000 147.303136 603.980416 l
0.000000 setgray
146.216028 0.000000 138.062718 0.000000 l
146.216028 0.000000 146.216028 302.188494 l
146.216028 302.188494 138.062718 302.188494 l
138.062718 302.188494 138.062718 453.679315 l
138.062718 453.679315 146.216028 453.679315 l
146.216028 453.679315 146.216028 604.376989 l
grestore
gsave
0.000000 setgray
70.000000 71.000000 542.000000 721.000000 box
stroke
0.500000 setgray
71.000000 72.000000 541.000000 720.000000 box
clip
72 72 translate
1 1 scale
0.5 setlinewidth
stroke
0.750000 setgray
10.871080 0.000000 10.871080 43.226438 l
0.000000 setgray
save
10.871080 1.189718 moveto
1.826341 0.761420 scale
90 rotate
(Time) show
restore
0.950000 setgray
11.414634 0.793146 20.655052 42.829865 box
fill
0.750000 setgray
21.742160 0.000000 21.742160 43.226438 l
0.000000 setgray
save
18.480836 1.189718 moveto
0.782718 0.507613 scale
90 rotate
(a[2:0]) show
restore
0.950000 setgray
22.829268 0.793146 32.069686 42.829865 box
fill
0.750000 setgray
33.156794 0.000000 33.156794 43.226438 l
0.000000 setgray
save
29.895470 1.189718 moveto
0.782718 0.507613 scale
90 rotate
(b[2:0]) show
restore
0.950000 setgray
34.243902 0.793146 43.484321 42.829865 box
fill
0.750000 setgray
44.571429 0.000000 44.571429 43.226438 l
0.000000 setgray
save
41.310105 1.189718 moveto
0.782718 0.507613 scale
90 rotate
(opcode[1:0]) show
restore
0.950000 setgray
45.658537 0.793146 54.898955 42.829865 box
fill
0.750000 setgray
55.986063 0.000000 55.986063 43.226438 l
0.000000 setgray
save
52.724739 1.189718 moveto
0.782718 0.507613 scale
90 rotate
(result[3:0]) show
restore
0.750000 setgray
57.073171 0.793146 66.313589 42.829865 box
fill
0.750000 setgray
67.400697 0.000000 67.400697 43.226438 l
0.000000 setgray
save
64.139373 1.189718 moveto
0.782718 0.507613 scale
90 rotate
(segments[6:0]) show
restore
0.750000 setgray
68.487805 0.793146 77.728223 42.829865 box
fill
0.750000 setgray
78.815331 0.000000 78.815331 43.226438 l
0.000000 setgray
save
75.554007 1.189718 moveto
0.782718 0.507613 scale
90 rotate
(segments[6]) show
restore
0.750000 setgray
79.902439 0.793146 89.142857 42.829865 box
fill
0.750000 setgray
90.229965 0.000000 90.229965 43.226438 l
0.000000 setgray
save
86.968641 1.189718 moveto
0.782718 0.507613 scale
90 rotate
(segments[5]) show
restore
0.750000 setgray
91.317073 0.793146 100.557491 42.829865 box
fill
0.750000 setgray
101.644599 0.000000 101.644599 43.226438 l
0.000000 setgray
save
98.383275 1.189718 moveto
0.782718 0.507613 scale
90 rotate
(segments[4]) show
restore
0.750000 setgray
102.731707 0.793146 111.972125 42.829865 box
fill
0.750000 setgray
113.059233 0.000000 113.059233 43.226438 l
0.000000 setgray
save
109.797909 1.189718 moveto
0.782718 0.507613 scale
90 rotate
(segments[3]) show
restore
0.750000 setgray
114.146341 0.793146 123.386760 42.829865 box
fill
0.750000 setgray
124.473868 0.000000 124.473868 43.226438 l
0.000000 setgray
save
121.212544 1.189718 moveto
0.782718 0.507613 scale
90 rotate
(segments[2]) show
restore
0.750000 setgray
125.560976 0.793146 134.801394 42.829865 box
fill
0.750000 setgray
135.888502 0.000000 135.888502 43.226438 l
0.000000 setgray
save
132.627178 1.189718 moveto
0.782718 0.507613 scale
90 rotate
(segments[1]) show
restore
0.750000 setgray
136.975610 0.793146 146.216028 42.829865 box
fill
0.750000 setgray
147.303136 0.000000 147.303136 43.226438 l
0.000000 setgray
save
144.041812 1.189718 moveto
0.782718 0.507613 scale
90 rotate
(segments[0]) show
restore
grestore showpage
