%!PS-Adobe-2.0 EPSF-1.2
%%BoundingBox: 72 72 540 720
%%Pages: 1
%%EndComments
%%Page: (1) 1
/box { % stack: _x1 _y1 x2 y2
	newpath
	2 copy moveto % x2 y2
	3 index 1 index lineto % _x1 y2
	3 index 3 index lineto % _x1 _y1
	1 index 3 index lineto % x2 _y1
	pop pop pop pop
	closepath
} def
/l { % stack: _x1 _y1 x2 y2
	newpath moveto lineto closepath stroke
} def
/Courier findfont
10 scalefont
setfont
2 setlinecap
gsave
1 1 scale
0.5 setlinewidth
stroke
0.750000 setgray
71.000000 106.105263 541.000000 720.000000 box
clip
72 106.105263 translate stroke
0.750000 setgray
0.000000 0.000000 125.560976 0.000000 l
5.979094 0.000000 5.979094 37.674419 l
5.979094 3.569155 10.327526 3.569155 l
5.979094 7.534884 10.327526 7.534884 l
5.979094 11.104039 10.327526 11.104039 l
5.979094 15.069767 10.327526 15.069767 l
5.979094 18.638923 10.327526 18.638923 l
5.979094 22.604651 10.327526 22.604651 l
5.979094 26.173807 10.327526 26.173807 l
5.979094 30.139535 10.327526 30.139535 l
5.979094 33.708690 10.327526 33.708690 l
0.000000 setgray
save
5.435540 -0.396573 moveto
0.869686 0.190355 scale
90 rotate
(0) show
restore
0.750000 setgray
0.000000 37.674419 125.560976 37.674419 l
5.979094 37.674419 5.979094 75.348837 l
5.979094 41.243574 10.327526 41.243574 l
5.979094 45.209302 10.327526 45.209302 l
5.979094 48.778458 10.327526 48.778458 l
5.979094 52.744186 10.327526 52.744186 l
5.979094 56.313341 10.327526 56.313341 l
5.979094 60.279070 10.327526 60.279070 l
5.979094 63.848225 10.327526 63.848225 l
5.979094 67.813953 10.327526 67.813953 l
5.979094 71.383109 10.327526 71.383109 l
0.000000 setgray
save
5.435540 35.294982 moveto
0.869686 0.190355 scale
90 rotate
(1 ns) show
restore
0.750000 setgray
0.000000 75.348837 125.560976 75.348837 l
5.979094 75.348837 5.979094 113.023256 l
5.979094 78.917993 10.327526 78.917993 l
5.979094 82.883721 10.327526 82.883721 l
5.979094 86.452876 10.327526 86.452876 l
5.979094 90.418605 10.327526 90.418605 l
5.979094 93.987760 10.327526 93.987760 l
5.979094 97.953488 10.327526 97.953488 l
5.979094 101.522644 10.327526 101.522644 l
5.979094 105.488372 10.327526 105.488372 l
5.979094 109.057528 10.327526 109.057528 l
0.000000 setgray
save
5.435540 72.969400 moveto
0.869686 0.190355 scale
90 rotate
(2 ns) show
restore
0.750000 setgray
0.000000 113.419829 125.560976 113.419829 l
5.979094 113.419829 5.979094 151.094247 l
5.979094 116.988984 10.327526 116.988984 l
5.979094 120.954712 10.327526 120.954712 l
5.979094 124.523868 10.327526 124.523868 l
5.979094 128.489596 10.327526 128.489596 l
5.979094 132.058752 10.327526 132.058752 l
5.979094 136.024480 10.327526 136.024480 l
5.979094 139.593635 10.327526 139.593635 l
5.979094 143.559364 10.327526 143.559364 l
5.979094 147.128519 10.327526 147.128519 l
0.000000 setgray
save
5.435540 110.643819 moveto
0.869686 0.190355 scale
90 rotate
(3 ns) show
restore
0.750000 setgray
0.000000 151.094247 125.560976 151.094247 l
5.979094 151.094247 5.979094 188.768666 l
5.979094 154.663403 10.327526 154.663403 l
5.979094 158.629131 10.327526 158.629131 l
5.979094 162.198286 10.327526 162.198286 l
5.979094 166.164015 10.327526 166.164015 l
5.979094 169.733170 10.327526 169.733170 l
5.979094 173.698898 10.327526 173.698898 l
5.979094 177.268054 10.327526 177.268054 l
5.979094 181.233782 10.327526 181.233782 l
5.979094 184.802938 10.327526 184.802938 l
0.000000 setgray
save
5.435540 148.318237 moveto
0.869686 0.190355 scale
90 rotate
(4 ns) show
restore
0.750000 setgray
0.000000 188.768666 125.560976 188.768666 l
5.979094 188.768666 5.979094 226.443084 l
5.979094 192.337821 10.327526 192.337821 l
5.979094 196.303550 10.327526 196.303550 l
5.979094 199.872705 10.327526 199.872705 l
5.979094 203.838433 10.327526 203.838433 l
5.979094 207.407589 10.327526 207.407589 l
5.979094 211.373317 10.327526 211.373317 l
5.979094 214.942472 10.327526 214.942472 l
5.979094 218.908201 10.327526 218.908201 l
5.979094 222.477356 10.327526 222.477356 l
0.000000 setgray
save
5.435540 185.992656 moveto
0.869686 0.190355 scale
90 rotate
(5 ns) show
restore
0.750000 setgray
0.000000 226.839657 125.560976 226.839657 l
5.979094 226.839657 5.979094 264.514076 l
5.979094 230.408813 10.327526 230.408813 l
5.979094 234.374541 10.327526 234.374541 l
5.979094 237.943696 10.327526 237.943696 l
5.979094 241.909425 10.327526 241.909425 l
5.979094 245.478580 10.327526 245.478580 l
5.979094 249.444308 10.327526 249.444308 l
5.979094 253.013464 10.327526 253.013464 l
5.979094 256.979192 10.327526 256.979192 l
5.979094 260.548348 10.327526 260.548348 l
0.000000 setgray
save
5.435540 223.667075 moveto
0.869686 0.190355 scale
90 rotate
(6 ns) show
restore
0.750000 setgray
0.000000 264.514076 125.560976 264.514076 l
5.979094 264.514076 5.979094 302.188494 l
5.979094 268.083231 10.327526 268.083231 l
5.979094 272.048960 10.327526 272.048960 l
5.979094 275.618115 10.327526 275.618115 l
5.979094 279.583843 10.327526 279.583843 l
5.979094 283.152999 10.327526 283.152999 l
5.979094 287.118727 10.327526 287.118727 l
5.979094 290.687882 10.327526 290.687882 l
5.979094 294.653611 10.327526 294.653611 l
5.979094 298.222766 10.327526 298.222766 l
0.000000 setgray
save
5.435540 261.341493 moveto
0.869686 0.190355 scale
90 rotate
(7 ns) show
restore
0.750000 setgray
0.000000 302.188494 125.560976 302.188494 l
5.979094 302.188494 5.979094 339.862913 l
5.979094 305.757650 10.327526 305.757650 l
5.979094 309.723378 10.327526 309.723378 l
5.979094 313.292534 10.327526 313.292534 l
5.979094 317.258262 10.327526 317.258262 l
5.979094 320.827417 10.327526 320.827417 l
5.979094 324.793146 10.327526 324.793146 l
5.979094 328.362301 10.327526 328.362301 l
5.979094 332.328029 10.327526 332.328029 l
5.979094 335.897185 10.327526 335.897185 l
0.000000 setgray
save
5.435540 299.015912 moveto
0.869686 0.190355 scale
90 rotate
(8 ns) show
restore
0.750000 setgray
0.000000 340.259486 125.560976 340.259486 l
5.979094 340.259486 5.979094 377.933905 l
5.979094 343.828641 10.327526 343.828641 l
5.979094 347.794370 10.327526 347.794370 l
5.979094 351.363525 10.327526 351.363525 l
5.979094 355.329253 10.327526 355.329253 l
5.979094 358.898409 10.327526 358.898409 l
5.979094 362.864137 10.327526 362.864137 l
5.979094 366.433293 10.327526 366.433293 l
5.979094 370.399021 10.327526 370.399021 l
5.979094 373.968176 10.327526 373.968176 l
0.000000 setgray
save
5.435540 336.690330 moveto
0.869686 0.190355 scale
90 rotate
(9 ns) show
restore
0.750000 setgray
0.000000 377.933905 125.560976 377.933905 l
5.979094 377.933905 5.979094 415.608323 l
5.979094 381.503060 10.327526 381.503060 l
5.979094 385.468788 10.327526 385.468788 l
5.979094 389.037944 10.327526 389.037944 l
5.979094 393.003672 10.327526 393.003672 l
5.979094 396.572827 10.327526 396.572827 l
5.979094 400.538556 10.327526 400.538556 l
5.979094 404.107711 10.327526 404.107711 l
5.979094 408.073439 10.327526 408.073439 l
5.979094 411.642595 10.327526 411.642595 l
0.000000 setgray
save
5.435540 373.968176 moveto
0.869686 0.190355 scale
90 rotate
(10 ns) show
restore
0.750000 setgray
0.000000 416.004896 125.560976 416.004896 l
5.979094 416.004896 5.979094 453.679315 l
5.979094 419.574051 10.327526 419.574051 l
5.979094 423.539780 10.327526 423.539780 l
5.979094 427.108935 10.327526 427.108935 l
5.979094 431.074663 10.327526 431.074663 l
5.979094 434.643819 10.327526 434.643819 l
5.979094 438.609547 10.327526 438.609547 l
5.979094 442.178703 10.327526 442.178703 l
5.979094 446.144431 10.327526 446.144431 l
5.979094 449.713586 10.327526 449.713586 l
0.000000 setgray
save
5.435540 411.642595 moveto
0.869686 0.190355 scale
90 rotate
(11 ns) show
restore
0.750000 setgray
0.000000 453.679315 125.560976 453.679315 l
5.979094 453.679315 5.979094 491.353733 l
5.979094 457.248470 10.327526 457.248470 l
5.979094 461.214198 10.327526 461.214198 l
5.979094 464.783354 10.327526 464.783354 l
5.979094 468.749082 10.327526 468.749082 l
5.979094 472.318237 10.327526 472.318237 l
5.979094 476.283966 10.327526 476.283966 l
5.979094 479.853121 10.327526 479.853121 l
5.979094 483.818849 10.327526 483.818849 l
5.979094 487.388005 10.327526 487.388005 l
0.000000 setgray
save
5.435540 449.317013 moveto
0.869686 0.190355 scale
90 rotate
(12 ns) show
restore
0.750000 setgray
0.000000 491.353733 125.560976 491.353733 l
5.979094 491.353733 5.979094 529.028152 l
5.979094 494.922889 10.327526 494.922889 l
5.979094 498.888617 10.327526 498.888617 l
5.979094 502.457772 10.327526 502.457772 l
5.979094 506.423501 10.327526 506.423501 l
5.979094 509.992656 10.327526 509.992656 l
5.979094 513.958384 10.327526 513.958384 l
5.979094 517.527540 10.327526 517.527540 l
5.979094 521.493268 10.327526 521.493268 l
5.979094 525.062424 10.327526 525.062424 l
0.000000 setgray
save
5.435540 486.991432 moveto
0.869686 0.190355 scale
90 rotate
(13 ns) show
restore
0.750000 setgray
0.000000 529.424725 125.560976 529.424725 l
5.979094 529.424725 5.979094 567.099143 l
5.979094 532.993880 10.327526 532.993880 l
5.979094 536.959608 10.327526 536.959608 l
5.979094 540.528764 10.327526 540.528764 l
5.979094 544.494492 10.327526 544.494492 l
5.979094 548.063647 10.327526 548.063647 l
5.979094 552.029376 10.327526 552.029376 l
5.979094 555.598531 10.327526 555.598531 l
5.979094 559.564259 10.327526 559.564259 l
5.979094 563.133415 10.327526 563.133415 l
0.000000 setgray
save
5.435540 524.665851 moveto
0.869686 0.190355 scale
90 rotate
(14 ns) show
restore
0.750000 setgray
0.000000 567.099143 125.560976 567.099143 l
5.979094 567.099143 5.979094 604.773562 l
5.979094 570.668299 10.327526 570.668299 l
5.979094 574.634027 10.327526 574.634027 l
5.979094 578.203182 10.327526 578.203182 l
5.979094 582.168911 10.327526 582.168911 l
5.979094 585.738066 10.327526 585.738066 l
5.979094 589.703794 10.327526 589.703794 l
5.979094 593.272950 10.327526 593.272950 l
5.979094 597.238678 10.327526 597.238678 l
5.979094 600.807834 10.327526 600.807834 l
0.000000 setgray
save
5.435540 562.340269 moveto
0.869686 0.190355 scale
90 rotate
(15 ns) show
restore
0.750000 setgray
0.000000 604.773562 125.560976 604.773562 l
0.000000 setgray
save
5.435540 600.014688 moveto
0.869686 0.190355 scale
90 rotate
(16 ns) show
restore
0.750000 setgray
21.742160 0.000000 21.742160 605.122112 l
0.000000 setgray
20.655052 -0.396573 16.306620 0.000000 l
16.306620 0.000000 12.501742 -0.396573 l
20.655052 0.396573 16.306620 0.000000 l
16.306620 0.000000 12.501742 0.396573 l
20.655052 0.793146 20.655052 36.881273 l
12.501742 0.793146 12.501742 36.881273 l
save
18.480836 0.793146 moveto
0.782718 0.380710 scale
90 rotate
(0) show
restore
20.655052 37.277846 16.306620 37.674419 l
16.306620 37.674419 12.501742 37.277846 l
20.655052 38.070991 16.306620 37.674419 l
16.306620 37.674419 12.501742 38.070991 l
20.655052 38.467564 20.655052 74.555692 l
12.501742 38.467564 12.501742 74.555692 l
save
18.480836 38.467564 moveto
0.782718 0.380710 scale
90 rotate
(1) show
restore
20.655052 74.555692 12.501742 76.141983 l
20.655052 76.141983 12.501742 74.555692 l
20.655052 76.141983 20.655052 112.626683 l
12.501742 76.141983 12.501742 112.626683 l
save
18.480836 76.141983 moveto
0.782718 0.380710 scale
90 rotate
(2) show
restore
20.655052 112.626683 12.501742 114.212974 l
20.655052 114.212974 12.501742 112.626683 l
20.655052 114.212974 20.655052 150.301102 l
12.501742 114.212974 12.501742 150.301102 l
save
18.480836 114.212974 moveto
0.782718 0.380710 scale
90 rotate
(3) show
restore
20.655052 150.301102 12.501742 151.887393 l
20.655052 151.887393 12.501742 150.301102 l
20.655052 151.887393 20.655052 187.975520 l
12.501742 151.887393 12.501742 187.975520 l
save
18.480836 151.887393 moveto
0.782718 0.380710 scale
90 rotate
(4) show
restore
20.655052 187.975520 12.501742 189.561812 l
20.655052 189.561812 12.501742 187.975520 l
20.655052 189.561812 20.655052 226.046512 l
12.501742 189.561812 12.501742 226.046512 l
save
18.480836 189.561812 moveto
0.782718 0.380710 scale
90 rotate
(5) show
restore
20.655052 226.046512 12.501742 227.632803 l
20.655052 227.632803 12.501742 226.046512 l
20.655052 227.632803 20.655052 263.720930 l
12.501742 227.632803 12.501742 263.720930 l
save
18.480836 227.632803 moveto
0.782718 0.380710 scale
90 rotate
(6) show
restore
20.655052 263.720930 12.501742 265.307222 l
20.655052 265.307222 12.501742 263.720930 l
20.655052 265.307222 20.655052 301.395349 l
12.501742 265.307222 12.501742 301.395349 l
save
18.480836 265.307222 moveto
0.782718 0.380710 scale
90 rotate
(7) show
restore
20.655052 301.395349 12.501742 302.981640 l
20.655052 302.981640 12.501742 301.395349 l
20.655052 302.981640 20.655052 339.466340 l
12.501742 302.981640 12.501742 339.466340 l
save
18.480836 302.981640 moveto
0.782718 0.380710 scale
90 rotate
(8) show
restore
20.655052 339.466340 12.501742 341.052632 l
20.655052 341.052632 12.501742 339.466340 l
20.655052 341.052632 20.655052 377.140759 l
12.501742 341.052632 12.501742 377.140759 l
save
18.480836 341.052632 moveto
0.782718 0.380710 scale
90 rotate
(9) show
restore
20.655052 377.140759 12.501742 378.727050 l
20.655052 378.727050 12.501742 377.140759 l
20.655052 378.727050 20.655052 415.211750 l
12.501742 378.727050 12.501742 415.211750 l
save
18.480836 378.727050 moveto
0.782718 0.380710 scale
90 rotate
(A) show
restore
20.655052 415.211750 12.501742 416.798042 l
20.655052 416.798042 12.501742 415.211750 l
20.655052 416.798042 20.655052 452.886169 l
12.501742 416.798042 12.501742 452.886169 l
save
18.480836 416.798042 moveto
0.782718 0.380710 scale
90 rotate
(B) show
restore
20.655052 452.886169 12.501742 454.472460 l
20.655052 454.472460 12.501742 452.886169 l
20.655052 454.472460 20.655052 490.560588 l
12.501742 454.472460 12.501742 490.560588 l
save
18.480836 454.472460 moveto
0.782718 0.380710 scale
90 rotate
(C) show
restore
20.655052 490.560588 12.501742 492.146879 l
20.655052 492.146879 12.501742 490.560588 l
20.655052 492.146879 20.655052 528.631579 l
12.501742 492.146879 12.501742 528.631579 l
save
18.480836 492.146879 moveto
0.782718 0.380710 scale
90 rotate
(D) show
restore
20.655052 528.631579 12.501742 530.217870 l
20.655052 530.217870 12.501742 528.631579 l
20.655052 530.217870 20.655052 566.305998 l
12.501742 530.217870 12.501742 566.305998 l
save
18.480836 530.217870 moveto
0.782718 0.380710 scale
90 rotate
(E) show
restore
20.655052 566.702570 16.306620 567.099143 l
16.306620 567.099143 12.501742 566.702570 l
20.655052 567.495716 16.306620 567.099143 l
16.306620 567.099143 12.501742 567.495716 l
20.655052 567.892289 20.655052 603.980416 l
12.501742 567.892289 12.501742 603.980416 l
save
18.480836 567.892289 moveto
0.782718 0.380710 scale
90 rotate
(F) show
restore
0.750000 setgray
33.156794 0.000000 33.156794 605.122112 l
0.000000 setgray
32.069686 -0.396573 27.721254 0.000000 l
27.721254 0.000000 23.916376 -0.396573 l
32.069686 0.396573 27.721254 0.000000 l
27.721254 0.000000 23.916376 0.396573 l
32.069686 0.793146 32.069686 36.881273 l
23.916376 0.793146 23.916376 36.881273 l
save
29.895470 0.793146 moveto
0.782718 0.380710 scale
90 rotate
(40) show
restore
32.069686 36.881273 23.916376 38.467564 l
32.069686 38.467564 23.916376 36.881273 l
32.069686 38.467564 32.069686 74.555692 l
23.916376 38.467564 23.916376 74.555692 l
save
29.895470 38.467564 moveto
0.782718 0.380710 scale
90 rotate
(79) show
restore
32.069686 74.555692 23.916376 76.141983 l
32.069686 76.141983 23.916376 74.555692 l
32.069686 76.141983 32.069686 112.626683 l
23.916376 76.141983 23.916376 112.626683 l
save
29.895470 76.141983 moveto
0.782718 0.380710 scale
90 rotate
(24) show
restore
32.069686 112.626683 23.916376 114.212974 l
32.069686 114.212974 23.916376 112.626683 l
32.069686 114.212974 32.069686 150.301102 l
23.916376 114.212974 23.916376 150.301102 l
save
29.895470 114.212974 moveto
0.782718 0.380710 scale
90 rotate
(30) show
restore
32.069686 150.301102 23.916376 151.887393 l
32.069686 151.887393 23.916376 150.301102 l
32.069686 151.887393 32.069686 187.975520 l
23.916376 151.887393 23.916376 187.975520 l
save
29.895470 151.887393 moveto
0.782718 0.380710 scale
90 rotate
(19) show
restore
32.069686 187.975520 23.916376 189.561812 l
32.069686 189.561812 23.916376 187.975520 l
32.069686 189.561812 32.069686 226.046512 l
23.916376 189.561812 23.916376 226.046512 l
save
29.895470 189.561812 moveto
0.782718 0.380710 scale
90 rotate
(12) show
restore
32.069686 226.046512 23.916376 227.632803 l
32.069686 227.632803 23.916376 226.046512 l
32.069686 227.632803 32.069686 263.720930 l
23.916376 227.632803 23.916376 263.720930 l
save
29.895470 227.632803 moveto
0.782718 0.380710 scale
90 rotate
(02) show
restore
32.069686 263.720930 23.916376 265.307222 l
32.069686 265.307222 23.916376 263.720930 l
32.069686 265.307222 32.069686 301.395349 l
23.916376 265.307222 23.916376 301.395349 l
save
29.895470 265.307222 moveto
0.782718 0.380710 scale
90 rotate
(78) show
restore
32.069686 301.791922 27.721254 302.188494 l
27.721254 302.188494 23.916376 301.791922 l
32.069686 302.585067 27.721254 302.188494 l
27.721254 302.188494 23.916376 302.585067 l
32.069686 302.981640 32.069686 339.466340 l
23.916376 302.981640 23.916376 339.466340 l
save
29.895470 302.981640 moveto
0.782718 0.380710 scale
90 rotate
(00) show
restore
32.069686 339.862913 27.721254 340.259486 l
27.721254 340.259486 23.916376 339.862913 l
32.069686 340.656059 27.721254 340.259486 l
27.721254 340.259486 23.916376 340.656059 l
32.069686 341.052632 32.069686 377.140759 l
23.916376 341.052632 23.916376 377.140759 l
save
29.895470 341.052632 moveto
0.782718 0.380710 scale
90 rotate
(18) show
restore
32.069686 377.140759 23.916376 378.727050 l
32.069686 378.727050 23.916376 377.140759 l
32.069686 378.727050 32.069686 415.211750 l
23.916376 378.727050 23.916376 415.211750 l
save
29.895470 378.727050 moveto
0.782718 0.380710 scale
90 rotate
(08) show
restore
32.069686 415.211750 23.916376 416.798042 l
32.069686 416.798042 23.916376 415.211750 l
32.069686 416.798042 32.069686 452.886169 l
23.916376 416.798042 23.916376 452.886169 l
save
29.895470 416.798042 moveto
0.782718 0.380710 scale
90 rotate
(03) show
restore
32.069686 452.886169 23.916376 454.472460 l
32.069686 454.472460 23.916376 452.886169 l
32.069686 454.472460 32.069686 490.560588 l
23.916376 454.472460 23.916376 490.560588 l
save
29.895470 454.472460 moveto
0.782718 0.380710 scale
90 rotate
(46) show
restore
32.069686 490.560588 23.916376 492.146879 l
32.069686 492.146879 23.916376 490.560588 l
32.069686 492.146879 32.069686 528.631579 l
23.916376 492.146879 23.916376 528.631579 l
save
29.895470 492.146879 moveto
0.782718 0.380710 scale
90 rotate
(21) show
restore
32.069686 528.631579 23.916376 530.217870 l
32.069686 530.217870 23.916376 528.631579 l
32.069686 530.217870 32.069686 566.305998 l
23.916376 530.217870 23.916376 566.305998 l
save
29.895470 530.217870 moveto
0.782718 0.380710 scale
90 rotate
(06) show
restore
32.069686 566.305998 23.916376 567.892289 l
32.069686 567.892289 23.916376 566.305998 l
32.069686 567.892289 32.069686 603.980416 l
23.916376 567.892289 23.916376 603.980416 l
save
29.895470 567.892289 moveto
0.782718 0.380710 scale
90 rotate
(0E) show
restore
0.750000 setgray
44.571429 0.000000 44.571429 605.122112 l
0.000000 setgray
43.484321 0.000000 35.331010 0.000000 l
35.331010 0.000000 35.331010 75.348837 l
35.331010 75.348837 43.484321 75.348837 l
43.484321 75.348837 43.484321 264.514076 l
43.484321 264.514076 35.331010 264.514076 l
35.331010 264.514076 35.331010 302.188494 l
35.331010 302.188494 43.484321 302.188494 l
43.484321 302.188494 43.484321 453.679315 l
43.484321 453.679315 35.331010 453.679315 l
35.331010 453.679315 35.331010 491.353733 l
35.331010 491.353733 43.484321 491.353733 l
43.484321 491.353733 43.484321 604.773562 l
0.750000 setgray
55.986063 0.000000 55.986063 605.122112 l
0.000000 setgray
54.898955 0.000000 46.745645 0.000000 l
54.898955 0.000000 54.898955 37.674419 l
54.898955 37.674419 46.745645 37.674419 l
46.745645 37.674419 46.745645 151.094247 l
46.745645 151.094247 54.898955 151.094247 l
54.898955 151.094247 54.898955 264.514076 l
54.898955 264.514076 46.745645 264.514076 l
46.745645 264.514076 46.745645 302.188494 l
46.745645 302.188494 54.898955 302.188494 l
54.898955 302.188494 54.898955 491.353733 l
54.898955 491.353733 46.745645 491.353733 l
46.745645 491.353733 46.745645 529.424725 l
46.745645 529.424725 54.898955 529.424725 l
54.898955 529.424725 54.898955 604.773562 l
0.750000 setgray
67.400697 0.000000 67.400697 605.122112 l
0.000000 setgray
66.313589 0.000000 58.160279 0.000000 l
66.313589 0.000000 66.313589 37.674419 l
66.313589 37.674419 58.160279 37.674419 l
58.160279 37.674419 58.160279 75.348837 l
58.160279 75.348837 66.313589 75.348837 l
66.313589 75.348837 66.313589 113.419829 l
66.313589 113.419829 58.160279 113.419829 l
58.160279 113.419829 58.160279 226.839657 l
58.160279 226.839657 66.313589 226.839657 l
66.313589 226.839657 66.313589 264.514076 l
66.313589 264.514076 58.160279 264.514076 l
58.160279 264.514076 58.160279 302.188494 l
58.160279 302.188494 66.313589 302.188494 l
66.313589 302.188494 66.313589 340.259486 l
66.313589 340.259486 58.160279 340.259486 l
58.160279 340.259486 58.160279 377.933905 l
58.160279 377.933905 66.313589 377.933905 l
66.313589 377.933905 66.313589 604.773562 l
0.750000 setgray
78.815331 0.000000 78.815331 605.122112 l
0.000000 setgray
77.728223 0.000000 69.574913 0.000000 l
77.728223 0.000000 77.728223 37.674419 l
77.728223 37.674419 69.574913 37.674419 l
69.574913 37.674419 69.574913 75.348837 l
69.574913 75.348837 77.728223 75.348837 l
77.728223 75.348837 77.728223 151.094247 l
77.728223 151.094247 69.574913 151.094247 l
69.574913 151.094247 69.574913 188.768666 l
69.574913 188.768666 77.728223 188.768666 l
77.728223 188.768666 77.728223 264.514076 l
77.728223 264.514076 69.574913 264.514076 l
69.574913 264.514076 69.574913 302.188494 l
69.574913 302.188494 77.728223 302.188494 l
77.728223 302.188494 77.728223 340.259486 l
77.728223 340.259486 69.574913 340.259486 l
69.574913 340.259486 69.574913 416.004896 l
69.574913 416.004896 77.728223 416.004896 l
77.728223 416.004896 77.728223 567.099143 l
77.728223 567.099143 69.574913 567.099143 l
69.574913 567.099143 69.574913 604.773562 l
0.750000 setgray
90.229965 0.000000 90.229965 605.122112 l
0.000000 setgray
89.142857 0.000000 80.989547 0.000000 l
89.142857 0.000000 89.142857 75.348837 l
89.142857 75.348837 80.989547 75.348837 l
80.989547 75.348837 80.989547 113.419829 l
80.989547 113.419829 89.142857 113.419829 l
89.142857 113.419829 89.142857 453.679315 l
89.142857 453.679315 80.989547 453.679315 l
80.989547 453.679315 80.989547 491.353733 l
80.989547 491.353733 89.142857 491.353733 l
89.142857 491.353733 89.142857 529.424725 l
89.142857 529.424725 80.989547 529.424725 l
80.989547 529.424725 80.989547 604.773562 l
0.750000 setgray
101.644599 0.000000 101.644599 605.122112 l
0.000000 setgray
100.557491 0.000000 92.404181 0.000000 l
100.557491 0.000000 100.557491 188.768666 l
100.557491 188.768666 92.404181 188.768666 l
92.404181 188.768666 92.404181 264.514076 l
92.404181 264.514076 100.557491 264.514076 l
100.557491 264.514076 100.557491 416.004896 l
100.557491 416.004896 92.404181 416.004896 l
92.404181 416.004896 92.404181 491.353733 l
92.404181 491.353733 100.557491 491.353733 l
100.557491 491.353733 100.557491 529.424725 l
100.557491 529.424725 92.404181 529.424725 l
92.404181 529.424725 92.404181 604.773562 l
0.750000 setgray
113.059233 0.000000 113.059233 605.122112 l
0.000000 setgray
111.972125 0.000000 103.818815 0.000000 l
111.972125 0.000000 111.972125 37.674419 l
111.972125 37.674419 103.818815 37.674419 l
103.818815 37.674419 103.818815 75.348837 l
103.818815 75.348837 111.972125 75.348837 l
111.972125 75.348837 111.972125 151.094247 l
111.972125 151.094247 103.818815 151.094247 l
103.818815 151.094247 103.818815 188.768666 l
103.818815 188.768666 111.972125 188.768666 l
111.972125 188.768666 111.972125 416.004896 l
111.972125 416.004896 103.818815 416.004896 l
103.818815 416.004896 103.818815 453.679315 l
103.818815 453.679315 111.972125 453.679315 l
111.972125 453.679315 111.972125 491.353733 l
111.972125 491.353733 103.818815 491.353733 l
103.818815 491.353733 103.818815 529.424725 l
103.818815 529.424725 111.972125 529.424725 l
111.972125 529.424725 111.972125 604.773562 l
grestore
gsave
0.000000 setgray
70.000000 71.000000 542.000000 721.000000 box
stroke
0.500000 setgray
71.000000 72.000000 541.000000 720.000000 box
clip
72 72 translate
1 1 scale
0.5 setlinewidth
stroke
0.750000 setgray
10.871080 0.000000 10.871080 33.708690 l
0.000000 setgray
save
10.871080 1.189718 moveto
1.826341 0.761420 scale
90 rotate
(Time) show
restore
0.950000 setgray
11.414634 0.793146 20.655052 33.312118 box
fill
0.750000 setgray
21.742160 0.000000 21.742160 33.708690 l
0.000000 setgray
save
18.480836 1.189718 moveto
0.782718 0.507613 scale
90 rotate
(entry[3:0]) show
restore
0.750000 setgray
22.829268 0.793146 32.069686 33.312118 box
fill
0.750000 setgray
33.156794 0.000000 33.156794 33.708690 l
0.000000 setgray
save
29.895470 1.189718 moveto
0.782718 0.507613 scale
90 rotate
(s[6:0]) show
restore
0.750000 setgray
34.243902 0.793146 43.484321 33.312118 box
fill
0.750000 setgray
44.571429 0.000000 44.571429 33.708690 l
0.000000 setgray
save
41.310105 1.189718 moveto
0.782718 0.507613 scale
90 rotate
(s[6]) show
restore
0.750000 setgray
45.658537 0.793146 54.898955 33.312118 box
fill
0.750000 setgray
55.986063 0.000000 55.986063 33.708690 l
0.000000 setgray
save
52.724739 1.189718 moveto
0.782718 0.507613 scale
90 rotate
(s[5]) show
restore
0.750000 setgray
57.073171 0.793146 66.313589 33.312118 box
fill
0.750000 setgray
67.400697 0.000000 67.400697 33.708690 l
0.000000 setgray
save
64.139373 1.189718 moveto
0.782718 0.507613 scale
90 rotate
(s[4]) show
restore
0.750000 setgray
68.487805 0.793146 77.728223 33.312118 box
fill
0.750000 setgray
78.815331 0.000000 78.815331 33.708690 l
0.000000 setgray
save
75.554007 1.189718 moveto
0.782718 0.507613 scale
90 rotate
(s[3]) show
restore
0.750000 setgray
79.902439 0.793146 89.142857 33.312118 box
fill
0.750000 setgray
90.229965 0.000000 90.229965 33.708690 l
0.000000 setgray
save
86.968641 1.189718 moveto
0.782718 0.507613 scale
90 rotate
(s[2]) show
restore
0.750000 setgray
91.317073 0.793146 100.557491 33.312118 box
fill
0.750000 setgray
101.644599 0.000000 101.644599 33.708690 l
0.000000 setgray
save
98.383275 1.189718 moveto
0.782718 0.507613 scale
90 rotate
(s[1]) show
restore
0.750000 setgray
102.731707 0.793146 111.972125 33.312118 box
fill
0.750000 setgray
113.059233 0.000000 113.059233 33.708690 l
0.000000 setgray
save
109.797909 1.189718 moveto
0.782718 0.507613 scale
90 rotate
(s[0]) show
restore
grestore showpage
