%!PS-Adobe-2.0 EPSF-1.2
%%BoundingBox: 72 72 540 720
%%Pages: 1
%%EndComments
%%Page: (1) 1
/box { % stack: _x1 _y1 x2 y2
	newpath
	2 copy moveto % x2 y2
	3 index 1 index lineto % _x1 y2
	3 index 3 index lineto % _x1 _y1
	1 index 3 index lineto % x2 _y1
	pop pop pop pop
	closepath
} def
/l { % stack: _x1 _y1 x2 y2
	newpath moveto lineto closepath stroke
} def
/Courier findfont
10 scalefont
setfont
2 setlinecap
gsave
1 1 scale
0.5 setlinewidth
stroke
0.750000 setgray
71.000000 112.624462 541.000000 720.000000 box
clip
72 112.624462 translate stroke
0.750000 setgray
0.000000 0.000000 57.073171 0.000000 l
5.979094 0.000000 5.979094 237.374309 l
5.979094 23.498463 10.327526 23.498463 l
5.979094 47.395206 10.327526 47.395206 l
5.979094 70.893669 10.327526 70.893669 l
5.979094 94.790412 10.327526 94.790412 l
5.979094 118.687154 10.327526 118.687154 l
5.979094 142.185618 10.327526 142.185618 l
5.979094 166.082360 10.327526 166.082360 l
5.979094 189.580824 10.327526 189.580824 l
5.979094 213.477566 10.327526 213.477566 l
0.000000 setgray
save
5.435540 -0.398279 moveto
0.869686 0.191174 scale
90 rotate
(0) show
restore
0.750000 setgray
0.000000 237.374309 57.073171 237.374309 l
5.979094 237.374309 5.979094 474.748617 l
5.979094 260.872772 10.327526 260.872772 l
5.979094 284.769514 10.327526 284.769514 l
5.979094 308.267978 10.327526 308.267978 l
5.979094 332.164720 10.327526 332.164720 l
5.979094 356.061463 10.327526 356.061463 l
5.979094 379.559926 10.327526 379.559926 l
5.979094 403.456669 10.327526 403.456669 l
5.979094 426.955132 10.327526 426.955132 l
5.979094 450.851875 10.327526 450.851875 l
0.000000 setgray
save
5.435540 233.789797 moveto
0.869686 0.191174 scale
90 rotate
(100 ns) show
restore
0.750000 setgray
0.000000 474.748617 57.073171 474.748617 l
5.979094 474.748617 5.979094 607.375538 l
5.979094 498.247081 10.327526 498.247081 l
5.979094 522.143823 10.327526 522.143823 l
5.979094 545.642286 10.327526 545.642286 l
5.979094 569.539029 10.327526 569.539029 l
5.979094 593.435771 10.327526 593.435771 l
0.000000 setgray
save
5.435540 471.164106 moveto
0.869686 0.191174 scale
90 rotate
(200 ns) show
restore
0.750000 setgray
21.742160 0.000000 21.742160 606.977259 l
0.000000 setgray
20.655052 0.000000 12.501742 0.000000 l
12.501742 0.000000 12.501742 23.498463 l
12.501742 23.498463 20.655052 23.498463 l
20.655052 23.498463 20.655052 47.395206 l
20.655052 47.395206 12.501742 47.395206 l
12.501742 47.395206 12.501742 70.893669 l
12.501742 70.893669 20.655052 70.893669 l
20.655052 70.893669 20.655052 94.790412 l
20.655052 94.790412 12.501742 94.790412 l
12.501742 94.790412 12.501742 118.687154 l
12.501742 118.687154 20.655052 118.687154 l
20.655052 118.687154 20.655052 142.185618 l
20.655052 142.185618 12.501742 142.185618 l
12.501742 142.185618 12.501742 166.082360 l
12.501742 166.082360 20.655052 166.082360 l
20.655052 166.082360 20.655052 189.580824 l
20.655052 189.580824 12.501742 189.580824 l
12.501742 189.580824 12.501742 213.477566 l
12.501742 213.477566 20.655052 213.477566 l
20.655052 213.477566 20.655052 237.374309 l
20.655052 237.374309 12.501742 237.374309 l
12.501742 237.374309 12.501742 260.872772 l
12.501742 260.872772 20.655052 260.872772 l
20.655052 260.872772 20.655052 284.769514 l
20.655052 284.769514 12.501742 284.769514 l
12.501742 284.769514 12.501742 308.267978 l
12.501742 308.267978 20.655052 308.267978 l
20.655052 308.267978 20.655052 332.164720 l
20.655052 332.164720 12.501742 332.164720 l
12.501742 332.164720 12.501742 356.061463 l
12.501742 356.061463 20.655052 356.061463 l
20.655052 356.061463 20.655052 379.559926 l
20.655052 379.559926 12.501742 379.559926 l
12.501742 379.559926 12.501742 403.456669 l
12.501742 403.456669 20.655052 403.456669 l
20.655052 403.456669 20.655052 426.955132 l
20.655052 426.955132 12.501742 426.955132 l
12.501742 426.955132 12.501742 450.851875 l
12.501742 450.851875 20.655052 450.851875 l
20.655052 450.851875 20.655052 474.748617 l
20.655052 474.748617 12.501742 474.748617 l
12.501742 474.748617 12.501742 498.247081 l
12.501742 498.247081 20.655052 498.247081 l
20.655052 498.247081 20.655052 522.143823 l
20.655052 522.143823 12.501742 522.143823 l
12.501742 522.143823 12.501742 545.642286 l
12.501742 545.642286 20.655052 545.642286 l
20.655052 545.642286 20.655052 569.539029 l
20.655052 569.539029 12.501742 569.539029 l
12.501742 569.539029 12.501742 593.435771 l
12.501742 593.435771 20.655052 593.435771 l
20.655052 593.435771 20.655052 607.375538 l
0.750000 setgray
33.156794 0.000000 33.156794 606.977259 l
0.000000 setgray
32.069686 -0.398279 27.721254 0.000000 l
27.721254 0.000000 23.916376 -0.398279 l
32.069686 0.398279 27.721254 0.000000 l
27.721254 0.000000 23.916376 0.398279 l
32.069686 0.796558 32.069686 46.598648 l
23.916376 0.796558 23.916376 46.598648 l
save
29.895470 0.796558 moveto
0.782718 0.382348 scale
90 rotate
(00000000) show
restore
32.069686 46.996927 27.721254 47.395206 l
27.721254 47.395206 23.916376 46.996927 l
32.069686 47.793485 27.721254 47.395206 l
27.721254 47.395206 23.916376 47.793485 l
32.069686 48.191764 32.069686 93.993854 l
23.916376 48.191764 23.916376 93.993854 l
save
29.895470 48.191764 moveto
0.782718 0.382348 scale
90 rotate
(FFFC0000) show
restore
32.069686 94.392133 27.721254 94.790412 l
27.721254 94.790412 23.916376 94.392133 l
32.069686 95.188691 27.721254 94.790412 l
27.721254 94.790412 23.916376 95.188691 l
32.069686 95.586970 32.069686 141.389060 l
23.916376 95.586970 23.916376 141.389060 l
save
29.895470 95.586970 moveto
0.782718 0.382348 scale
90 rotate
(00000000) show
restore
32.069686 141.787339 27.721254 142.185618 l
27.721254 142.185618 23.916376 141.787339 l
32.069686 142.583897 27.721254 142.185618 l
27.721254 142.185618 23.916376 142.583897 l
32.069686 142.982176 32.069686 188.784266 l
23.916376 142.982176 23.916376 188.784266 l
save
29.895470 142.982176 moveto
0.782718 0.382348 scale
90 rotate
(FFFFFFFF) show
restore
32.069686 189.182545 27.721254 189.580824 l
27.721254 189.580824 23.916376 189.182545 l
32.069686 189.979103 27.721254 189.580824 l
27.721254 189.580824 23.916376 189.979103 l
32.069686 190.377382 32.069686 236.577750 l
23.916376 190.377382 23.916376 236.577750 l
save
29.895470 190.377382 moveto
0.782718 0.382348 scale
90 rotate
(00000000) show
restore
32.069686 236.976030 27.721254 237.374309 l
27.721254 237.374309 23.916376 236.976030 l
32.069686 237.772588 27.721254 237.374309 l
27.721254 237.374309 23.916376 237.772588 l
32.069686 238.170867 32.069686 283.972956 l
23.916376 238.170867 23.916376 283.972956 l
save
29.895470 238.170867 moveto
0.782718 0.382348 scale
90 rotate
(FFFFFFFF) show
restore
32.069686 284.371235 27.721254 284.769514 l
27.721254 284.769514 23.916376 284.371235 l
32.069686 285.167793 27.721254 284.769514 l
27.721254 284.769514 23.916376 285.167793 l
32.069686 285.566073 32.069686 331.368162 l
23.916376 285.566073 23.916376 331.368162 l
save
29.895470 285.566073 moveto
0.782718 0.382348 scale
90 rotate
(00000000) show
restore
32.069686 331.766441 27.721254 332.164720 l
27.721254 332.164720 23.916376 331.766441 l
32.069686 332.562999 27.721254 332.164720 l
27.721254 332.164720 23.916376 332.562999 l
32.069686 332.961278 32.069686 606.578980 l
23.916376 332.961278 23.916376 606.578980 l
save
29.895470 332.961278 moveto
0.782718 0.382348 scale
90 rotate
(FFFFFFFF) show
restore
0.750000 setgray
44.571429 0.000000 44.571429 606.977259 l
0.000000 setgray
43.484321 -0.398279 39.135889 0.000000 l
39.135889 0.000000 35.331010 -0.398279 l
43.484321 0.398279 39.135889 0.000000 l
39.135889 0.000000 35.331010 0.398279 l
43.484321 0.796558 43.484321 46.598648 l
35.331010 0.796558 35.331010 46.598648 l
save
41.310105 0.796558 moveto
0.782718 0.382348 scale
90 rotate
(FFFFFFFF) show
restore
43.484321 46.996927 39.135889 47.395206 l
39.135889 47.395206 35.331010 46.996927 l
43.484321 47.793485 39.135889 47.395206 l
39.135889 47.395206 35.331010 47.793485 l
43.484321 48.191764 43.484321 93.993854 l
35.331010 48.191764 35.331010 93.993854 l
save
41.310105 48.191764 moveto
0.782718 0.382348 scale
90 rotate
(00000000) show
restore
43.484321 94.392133 39.135889 94.790412 l
39.135889 94.790412 35.331010 94.392133 l
43.484321 95.188691 39.135889 94.790412 l
39.135889 94.790412 35.331010 95.188691 l
43.484321 95.586970 43.484321 141.389060 l
35.331010 95.586970 35.331010 141.389060 l
save
41.310105 95.586970 moveto
0.782718 0.382348 scale
90 rotate
(FFFFFFFF) show
restore
43.484321 141.787339 39.135889 142.185618 l
39.135889 142.185618 35.331010 141.787339 l
43.484321 142.583897 39.135889 142.185618 l
39.135889 142.185618 35.331010 142.583897 l
43.484321 142.982176 43.484321 188.784266 l
35.331010 142.982176 35.331010 188.784266 l
save
41.310105 142.982176 moveto
0.782718 0.382348 scale
90 rotate
(FFFC0000) show
restore
43.484321 189.182545 39.135889 189.580824 l
39.135889 189.580824 35.331010 189.182545 l
43.484321 189.979103 39.135889 189.580824 l
39.135889 189.580824 35.331010 189.979103 l
43.484321 190.377382 43.484321 236.577750 l
35.331010 190.377382 35.331010 236.577750 l
save
41.310105 190.377382 moveto
0.782718 0.382348 scale
90 rotate
(FFFFFFFF) show
restore
43.484321 236.976030 39.135889 237.374309 l
39.135889 237.374309 35.331010 236.976030 l
43.484321 237.772588 39.135889 237.374309 l
39.135889 237.374309 35.331010 237.772588 l
43.484321 238.170867 43.484321 283.972956 l
35.331010 238.170867 35.331010 283.972956 l
save
41.310105 238.170867 moveto
0.782718 0.382348 scale
90 rotate
(00000000) show
restore
43.484321 284.371235 39.135889 284.769514 l
39.135889 284.769514 35.331010 284.371235 l
43.484321 285.167793 39.135889 284.769514 l
39.135889 284.769514 35.331010 285.167793 l
43.484321 285.566073 43.484321 331.368162 l
35.331010 285.566073 35.331010 331.368162 l
save
41.310105 285.566073 moveto
0.782718 0.382348 scale
90 rotate
(FFFFFFFF) show
restore
43.484321 331.766441 39.135889 332.164720 l
39.135889 332.164720 35.331010 331.766441 l
43.484321 332.562999 39.135889 332.164720 l
39.135889 332.164720 35.331010 332.562999 l
43.484321 332.961278 43.484321 606.578980 l
35.331010 332.961278 35.331010 606.578980 l
save
41.310105 332.961278 moveto
0.782718 0.382348 scale
90 rotate
(00000000) show
restore
0.750000 setgray
55.986063 0.000000 55.986063 606.977259 l
0.000000 setgray
54.898955 -0.398279 50.550523 0.000000 l
50.550523 0.000000 46.745645 -0.398279 l
54.898955 0.398279 50.550523 0.000000 l
50.550523 0.000000 46.745645 0.398279 l
54.898955 0.796558 54.898955 46.598648 l
46.745645 0.796558 46.745645 46.598648 l
save
52.724739 0.796558 moveto
0.782718 0.382348 scale
90 rotate
(uuuuuuuu) show
restore
54.898955 46.996927 50.550523 47.395206 l
50.550523 47.395206 46.745645 46.996927 l
54.898955 47.793485 50.550523 47.395206 l
50.550523 47.395206 46.745645 47.793485 l
54.898955 48.191764 54.898955 93.993854 l
46.745645 48.191764 46.745645 93.993854 l
save
52.724739 48.191764 moveto
0.782718 0.382348 scale
90 rotate
(xxuuuuuu) show
restore
54.898955 93.993854 46.745645 95.586970 l
54.898955 95.586970 46.745645 93.993854 l
54.898955 95.586970 54.898955 141.389060 l
46.745645 95.586970 46.745645 141.389060 l
save
52.724739 95.586970 moveto
0.782718 0.382348 scale
90 rotate
(xxxxuuuu) show
restore
54.898955 141.389060 46.745645 142.982176 l
54.898955 142.982176 46.745645 141.389060 l
54.898955 142.982176 54.898955 188.784266 l
46.745645 142.982176 46.745645 188.784266 l
save
52.724739 142.982176 moveto
0.782718 0.382348 scale
90 rotate
(xxxxxxuu) show
restore
54.898955 189.182545 50.550523 189.580824 l
50.550523 189.580824 46.745645 189.182545 l
54.898955 189.979103 50.550523 189.580824 l
50.550523 189.580824 46.745645 189.979103 l
54.898955 190.377382 54.898955 236.577750 l
46.745645 190.377382 46.745645 236.577750 l
save
52.724739 190.377382 moveto
0.782718 0.382348 scale
90 rotate
(FFFFFFFF) show
restore
54.898955 236.976030 50.550523 237.374309 l
50.550523 237.374309 46.745645 236.976030 l
54.898955 237.772588 50.550523 237.374309 l
50.550523 237.374309 46.745645 237.772588 l
54.898955 238.170867 54.898955 283.972956 l
46.745645 238.170867 46.745645 283.972956 l
save
52.724739 238.170867 moveto
0.782718 0.382348 scale
90 rotate
(FFFC0000) show
restore
54.898955 284.371235 50.550523 284.769514 l
50.550523 284.769514 46.745645 284.371235 l
54.898955 285.167793 50.550523 284.769514 l
50.550523 284.769514 46.745645 285.167793 l
54.898955 285.566073 54.898955 331.368162 l
46.745645 285.566073 46.745645 331.368162 l
save
52.724739 285.566073 moveto
0.782718 0.382348 scale
90 rotate
(FFFFFFFF) show
restore
54.898955 331.766441 50.550523 332.164720 l
50.550523 332.164720 46.745645 331.766441 l
54.898955 332.562999 50.550523 332.164720 l
50.550523 332.164720 46.745645 332.562999 l
54.898955 332.961278 54.898955 378.763368 l
46.745645 332.961278 46.745645 378.763368 l
save
52.724739 332.961278 moveto
0.782718 0.382348 scale
90 rotate
(FFFBFFFF) show
restore
54.898955 379.161647 50.550523 379.559926 l
50.550523 379.559926 46.745645 379.161647 l
54.898955 379.958205 50.550523 379.559926 l
50.550523 379.559926 46.745645 379.958205 l
54.898955 380.356484 54.898955 606.578980 l
46.745645 380.356484 46.745645 606.578980 l
save
52.724739 380.356484 moveto
0.782718 0.382348 scale
90 rotate
(FFFFFFFF) show
restore
grestore
gsave
0.000000 setgray
70.000000 71.000000 542.000000 721.000000 box
stroke
0.500000 setgray
71.000000 72.000000 541.000000 720.000000 box
clip
72 72 translate
1 1 scale
0.5 setlinewidth
stroke
0.750000 setgray
10.871080 0.000000 10.871080 40.226183 l
0.000000 setgray
save
10.871080 1.194837 moveto
1.826341 0.764696 scale
90 rotate
(Time) show
restore
0.950000 setgray
11.414634 0.796558 20.655052 39.827904 box
fill
0.750000 setgray
21.742160 0.000000 21.742160 40.226183 l
0.000000 setgray
save
18.480836 1.194837 moveto
0.782718 0.509797 scale
90 rotate
(clk) show
restore
0.950000 setgray
22.829268 0.796558 32.069686 39.827904 box
fill
0.750000 setgray
33.156794 0.000000 33.156794 40.226183 l
0.000000 setgray
save
29.895470 1.194837 moveto
0.782718 0.509797 scale
90 rotate
(a[31:0]) show
restore
0.950000 setgray
34.243902 0.796558 43.484321 39.827904 box
fill
0.750000 setgray
44.571429 0.000000 44.571429 40.226183 l
0.000000 setgray
save
41.310105 1.194837 moveto
0.782718 0.509797 scale
90 rotate
(b[31:0]) show
restore
0.750000 setgray
45.658537 0.796558 54.898955 39.827904 box
fill
0.750000 setgray
55.986063 0.000000 55.986063 40.226183 l
0.000000 setgray
save
52.724739 1.194837 moveto
0.782718 0.509797 scale
90 rotate
(output[31:0]) show
restore
grestore showpage
